EESchema Schematic File Version 2
LIBS:power
LIBS:MyKiCadLibs-Lib
EELAYER 25 0
EELAYER END
$Descr A4 11693 8268
encoding utf-8
Sheet 5 5
Title "OHDSP - ADC-PCM4202"
Date "22 Jan 16"
Rev "1.0"
Comp ""
Comment1 "MERCHANTABILITY, SATISFACTORY QUALITY AND FITNESS FOR A PARTICULAR PURPOSE."
Comment2 "is distributed WITHOUT ANY EXPRESS OR IMPLIED WARRANTY, INCLUDING OF"
Comment3 "Licensed under the TAPR Open Hardware License (www.tapr.org/OHL). This documentation"
Comment4 "Copyright Paul Janicki 2016"
$EndDescr
$Comp
L C C421
U 1 1 568EB04C
P 5400 2300
F 0 "C421" H 5400 2400 40  0000 L CNN
F 1 "100n" H 5406 2215 40  0000 L CNN
F 2 "MyKiCadLibs-Footprints:SMD-0805" H 5438 2150 30  0001 C CNN
F 3 "" H 5400 2300 60  0000 C CNN
	1    5400 2300
	1    0    0    -1  
$EndComp
$Comp
L C C423
U 1 1 568EB053
P 5650 2300
F 0 "C423" H 5650 2400 40  0000 L CNN
F 1 "1n" H 5656 2215 40  0000 L CNN
F 2 "MyKiCadLibs-Footprints:SMD-0805" H 5688 2150 30  0001 C CNN
F 3 "" H 5650 2300 60  0000 C CNN
	1    5650 2300
	1    0    0    -1  
$EndComp
$Comp
L C C411
U 1 1 568EB08A
P 4300 2350
F 0 "C411" H 4300 2450 40  0000 L CNN
F 1 "100n" H 4306 2265 40  0000 L CNN
F 2 "MyKiCadLibs-Footprints:SMD-0805" H 4338 2200 30  0001 C CNN
F 3 "" H 4300 2350 60  0000 C CNN
	1    4300 2350
	1    0    0    -1  
$EndComp
$Comp
L GNDA #PWR069
U 1 1 5748E316
P 4300 2650
F 0 "#PWR069" H 4300 2400 50  0001 C CNN
F 1 "GNDA" H 4300 2500 50  0000 C CNN
F 2 "" H 4300 2650 60  0000 C CNN
F 3 "" H 4300 2650 60  0000 C CNN
	1    4300 2650
	-1   0    0    -1  
$EndComp
$Comp
L C C417
U 1 1 568EB09F
P 4600 2350
F 0 "C417" H 4600 2450 40  0000 L CNN
F 1 "100n" H 4606 2265 40  0000 L CNN
F 2 "MyKiCadLibs-Footprints:SMD-0805" H 4638 2200 30  0001 C CNN
F 3 "" H 4600 2350 60  0000 C CNN
	1    4600 2350
	1    0    0    -1  
$EndComp
$Comp
L C C419
U 1 1 568EB0AF
P 5150 2300
F 0 "C419" H 5150 2400 40  0000 L CNN
F 1 "10u" H 5156 2215 40  0000 L CNN
F 2 "MyKiCadLibs-Footprints:SMD-1206" H 5188 2150 30  0001 C CNN
F 3 "" H 5150 2300 60  0000 C CNN
	1    5150 2300
	1    0    0    -1  
$EndComp
$Comp
L IC-OPAMP-DUAL-SOIC8 U401
U 1 1 568EB10D
P 4750 1500
F 0 "U401" H 4800 1350 60  0000 L CNN
F 1 "TLE2072" H 4800 1250 60  0000 L CNN
F 2 "MyKiCadLibs-Footprints:IC_SOIC_8" H 4750 1500 60  0001 C CNN
F 3 "" H 4750 1500 60  0000 C CNN
	1    4750 1500
	1    0    0    -1  
$EndComp
$Comp
L IC-OPAMP-DUAL-SOIC8 U401
U 2 1 568EB158
P 4750 3050
F 0 "U401" H 4800 2900 60  0000 L CNN
F 1 "TLE2072" H 4800 2800 60  0000 L CNN
F 2 "MyKiCadLibs-Footprints:IC_SOIC_8" H 4750 3050 60  0001 C CNN
F 3 "" H 4750 3050 60  0000 C CNN
	2    4750 3050
	1    0    0    -1  
$EndComp
$Comp
L +9VA #PWR070
U 1 1 5748E322
P 4750 1100
F 0 "#PWR070" H 4750 975 50  0001 C CNN
F 1 "+9VA" H 4750 1250 50  0000 C CNN
F 2 "" H 4750 1100 50  0000 C CNN
F 3 "" H 4750 1100 50  0000 C CNN
	1    4750 1100
	1    0    0    -1  
$EndComp
$Comp
L -9VA #PWR071
U 1 1 568ED3B2
P 4750 1900
F 0 "#PWR071" H 4750 1775 50  0001 C CNN
F 1 "-9VA" H 4750 2050 50  0000 C CNN
F 2 "" H 4750 1900 50  0000 C CNN
F 3 "" H 4750 1900 50  0000 C CNN
	1    4750 1900
	-1   0    0    1   
$EndComp
$Comp
L CP1 C403
U 1 1 568ED9DB
P 3000 1400
F 0 "C403" H 3050 1500 50  0000 L CNN
F 1 "100u" H 3050 1300 50  0000 L CNN
F 2 "MyKiCadLibs-Footprints:CAP-TH-D10mmP5mm" H 3000 1400 60  0001 C CNN
F 3 "" H 3000 1400 60  0000 C CNN
	1    3000 1400
	0    -1   -1   0   
$EndComp
$Comp
L C C404
U 1 1 568ED9E2
P 3000 1650
F 0 "C404" H 3000 1750 40  0000 L CNN
F 1 "100n" H 3006 1565 40  0000 L CNN
F 2 "MyKiCadLibs-Footprints:CAP_TH_5mm" H 3038 1500 30  0001 C CNN
F 3 "" H 3000 1650 60  0000 C CNN
	1    3000 1650
	0    -1   1    0   
$EndComp
$Comp
L R R407
U 1 1 568EE0C5
P 3950 2000
F 0 "R407" V 3870 2000 40  0000 C CNN
F 1 "10k" V 3957 2001 40  0000 C CNN
F 2 "MyKiCadLibs-Footprints:SMD-1206" V 3880 2000 30  0001 C CNN
F 3 "" H 3950 2000 30  0000 C CNN
	1    3950 2000
	1    0    0    -1  
$EndComp
$Comp
L R R408
U 1 1 568EE5EA
P 3950 2600
F 0 "R408" V 3870 2600 40  0000 C CNN
F 1 "10k" V 3957 2601 40  0000 C CNN
F 2 "MyKiCadLibs-Footprints:SMD-1206" V 3880 2600 30  0001 C CNN
F 3 "" H 3950 2600 30  0000 C CNN
	1    3950 2600
	1    0    0    -1  
$EndComp
$Comp
L IC-OPAMP-SINGLE-SOIC8 U403
U 1 1 5748E324
P 8750 1900
F 0 "U403" H 8800 2150 60  0000 L CNN
F 1 "TLE2071" H 8800 2050 60  0000 L CNN
F 2 "MyKiCadLibs-Footprints:IC_SOIC_8" H 8750 1900 60  0001 C CNN
F 3 "" H 8750 1900 60  0000 C CNN
	1    8750 1900
	1    0    0    -1  
$EndComp
$Comp
L GNDA #PWR072
U 1 1 5748E325
P 4800 2150
F 0 "#PWR072" H 4800 1900 50  0001 C CNN
F 1 "GNDA" H 4800 2000 50  0000 C CNN
F 2 "" H 4800 2150 60  0000 C CNN
F 3 "" H 4800 2150 60  0000 C CNN
	1    4800 2150
	-1   0    0    -1  
$EndComp
$Comp
L -9VA #PWR073
U 1 1 5748E326
P 4600 2650
F 0 "#PWR073" H 4600 2525 50  0001 C CNN
F 1 "-9VA" H 4600 2800 50  0000 C CNN
F 2 "" H 4600 2650 50  0000 C CNN
F 3 "" H 4600 2650 50  0000 C CNN
	1    4600 2650
	-1   0    0    1   
$EndComp
$Comp
L +9VA #PWR074
U 1 1 568F225E
P 4300 2050
F 0 "#PWR074" H 4300 1925 50  0001 C CNN
F 1 "+9VA" H 4300 2200 50  0000 C CNN
F 2 "" H 4300 2050 50  0000 C CNN
F 3 "" H 4300 2050 50  0000 C CNN
	1    4300 2050
	1    0    0    -1  
$EndComp
$Comp
L C C413
U 1 1 568F2BD8
P 4450 850
F 0 "C413" H 4450 950 40  0000 L CNN
F 1 "1n" H 4456 765 40  0000 L CNN
F 2 "MyKiCadLibs-Footprints:SMD-0805" H 4488 700 30  0001 C CNN
F 3 "" H 4450 850 60  0000 C CNN
	1    4450 850 
	0    -1   1    0   
$EndComp
$Comp
L R R411
U 1 1 568F2C64
P 4500 650
F 0 "R411" V 4420 650 40  0000 C CNN
F 1 "1k5" V 4507 651 40  0000 C CNN
F 2 "MyKiCadLibs-Footprints:SMD-1206" V 4430 650 30  0001 C CNN
F 3 "" H 4500 650 30  0000 C CNN
	1    4500 650 
	0    1    -1   0   
$EndComp
$Comp
L R R415
U 1 1 568F2CEF
P 5700 1500
F 0 "R415" V 5620 1500 40  0000 C CNN
F 1 "40R2" V 5707 1501 40  0000 C CNN
F 2 "MyKiCadLibs-Footprints:SMD-1206" V 5630 1500 30  0001 C CNN
F 3 "" H 5700 1500 30  0000 C CNN
	1    5700 1500
	0    1    -1   0   
$EndComp
Wire Wire Line
	4300 2650 4300 2550
Wire Wire Line
	4300 2150 4300 2050
Wire Wire Line
	4600 2100 4600 2150
Wire Wire Line
	4600 2550 4600 2650
Wire Wire Line
	3850 2950 4250 2950
Wire Wire Line
	3950 2950 3950 2850
Wire Wire Line
	3950 1750 3950 1400
Wire Wire Line
	3850 1400 4250 1400
Wire Wire Line
	3950 2250 3950 2350
Wire Wire Line
	4800 2150 4800 2100
Wire Wire Line
	4800 2100 4600 2100
Wire Wire Line
	4750 1100 4750 1150
Wire Wire Line
	4750 1900 4750 1850
Wire Wire Line
	5250 1500 5450 1500
Wire Wire Line
	5350 1500 5350 850 
Wire Wire Line
	5350 850  4650 850 
Connection ~ 5350 1500
Wire Wire Line
	5950 1500 6250 1500
Wire Wire Line
	6050 1500 6050 650 
Wire Wire Line
	6050 650  4750 650 
Wire Wire Line
	4150 1600 4250 1600
Wire Wire Line
	4150 650  4150 1600
Wire Wire Line
	4150 850  4250 850 
Wire Wire Line
	4250 650  4150 650 
Connection ~ 4150 850 
$Comp
L R R403
U 1 1 568F355F
P 3600 1400
F 0 "R403" V 3520 1400 40  0000 C CNN
F 1 "1k" V 3607 1401 40  0000 C CNN
F 2 "MyKiCadLibs-Footprints:SMD-1206" V 3530 1400 30  0001 C CNN
F 3 "" H 3600 1400 30  0000 C CNN
	1    3600 1400
	0    1    -1   0   
$EndComp
Connection ~ 3950 1400
Wire Wire Line
	3200 1400 3350 1400
Wire Wire Line
	3200 1650 3250 1650
Wire Wire Line
	3250 1650 3250 1400
Connection ~ 3250 1400
$Comp
L C C425
U 1 1 568F438E
P 6150 2300
F 0 "C425" H 6150 2400 40  0000 L CNN
F 1 "2n7" H 6156 2215 40  0000 L CNN
F 2 "MyKiCadLibs-Footprints:SMD-0805" H 6188 2150 30  0001 C CNN
F 3 "" H 6150 2300 60  0000 C CNN
	1    6150 2300
	-1   0    0    -1  
$EndComp
$Comp
L R R419
U 1 1 568F442E
P 6500 1500
F 0 "R419" V 6420 1500 40  0000 C CNN
F 1 "100R" V 6507 1501 40  0000 C CNN
F 2 "MyKiCadLibs-Footprints:SMD-1206" V 6430 1500 30  0001 C CNN
F 3 "" H 6500 1500 30  0000 C CNN
	1    6500 1500
	0    1    -1   0   
$EndComp
Connection ~ 6050 1500
$Comp
L C C414
U 1 1 568F461B
P 4450 3500
F 0 "C414" H 4450 3600 40  0000 L CNN
F 1 "1n" H 4456 3415 40  0000 L CNN
F 2 "MyKiCadLibs-Footprints:SMD-0805" H 4488 3350 30  0001 C CNN
F 3 "" H 4450 3500 60  0000 C CNN
	1    4450 3500
	0    -1   1    0   
$EndComp
$Comp
L R R412
U 1 1 568F4621
P 4500 3750
F 0 "R412" V 4420 3750 40  0000 C CNN
F 1 "1k5" V 4507 3751 40  0000 C CNN
F 2 "MyKiCadLibs-Footprints:SMD-1206" V 4430 3750 30  0001 C CNN
F 3 "" H 4500 3750 30  0000 C CNN
	1    4500 3750
	0    1    -1   0   
$EndComp
Wire Wire Line
	4250 3500 4150 3500
Wire Wire Line
	4150 3150 4150 3750
Wire Wire Line
	4150 3150 4250 3150
Wire Wire Line
	4150 3750 4250 3750
Connection ~ 4150 3500
Wire Wire Line
	4650 3500 5350 3500
Wire Wire Line
	5350 3500 5350 3050
Connection ~ 5350 3050
$Comp
L R R416
U 1 1 568F4FAB
P 5700 3050
F 0 "R416" V 5620 3050 40  0000 C CNN
F 1 "40R2" V 5707 3051 40  0000 C CNN
F 2 "MyKiCadLibs-Footprints:SMD-1206" V 5630 3050 30  0001 C CNN
F 3 "" H 5700 3050 30  0000 C CNN
	1    5700 3050
	0    1    -1   0   
$EndComp
Wire Wire Line
	5250 3050 5450 3050
Wire Wire Line
	4750 3750 6050 3750
Wire Wire Line
	6050 3750 6050 3050
Wire Wire Line
	5950 3050 6250 3050
$Comp
L R R420
U 1 1 568F5121
P 6500 3050
F 0 "R420" V 6420 3050 40  0000 C CNN
F 1 "100R" V 6507 3051 40  0000 C CNN
F 2 "MyKiCadLibs-Footprints:SMD-1206" V 6430 3050 30  0001 C CNN
F 3 "" H 6500 3050 30  0000 C CNN
	1    6500 3050
	0    1    -1   0   
$EndComp
Connection ~ 6050 3050
Wire Wire Line
	6150 2100 6150 1500
Connection ~ 6150 1500
Wire Wire Line
	6150 2500 6150 3050
Connection ~ 6150 3050
$Comp
L +9VA #PWR075
U 1 1 568F5EA6
P 5650 2000
F 0 "#PWR075" H 5650 1875 50  0001 C CNN
F 1 "+9VA" H 5650 2150 50  0000 C CNN
F 2 "" H 5650 2000 50  0000 C CNN
F 3 "" H 5650 2000 50  0000 C CNN
	1    5650 2000
	1    0    0    -1  
$EndComp
$Comp
L -9VA #PWR076
U 1 1 568F6246
P 5650 2600
F 0 "#PWR076" H 5650 2475 50  0001 C CNN
F 1 "-9VA" H 5650 2750 50  0000 C CNN
F 2 "" H 5650 2600 50  0000 C CNN
F 3 "" H 5650 2600 50  0000 C CNN
	1    5650 2600
	-1   0    0    1   
$EndComp
Wire Wire Line
	5650 2500 5650 2600
Wire Wire Line
	5650 2000 5650 2100
Wire Wire Line
	5150 2050 5650 2050
Wire Wire Line
	5400 2050 5400 2100
Connection ~ 5650 2050
Wire Wire Line
	5150 2050 5150 2100
Connection ~ 5400 2050
Wire Wire Line
	5400 2500 5400 2550
Wire Wire Line
	5150 2550 5650 2550
Connection ~ 5650 2550
Wire Wire Line
	5150 2500 5150 2550
Connection ~ 5400 2550
Wire Wire Line
	2650 1400 2800 1400
Wire Wire Line
	2750 1400 2750 1650
Wire Wire Line
	2750 1650 2800 1650
$Comp
L CP1 C405
U 1 1 568F7027
P 3000 2950
F 0 "C405" H 3050 3050 50  0000 L CNN
F 1 "100u" H 3050 2850 50  0000 L CNN
F 2 "MyKiCadLibs-Footprints:CAP-TH-D10mmP5mm" H 3000 2950 60  0001 C CNN
F 3 "" H 3000 2950 60  0000 C CNN
	1    3000 2950
	0    -1   -1   0   
$EndComp
$Comp
L C C406
U 1 1 568F702D
P 3000 3200
F 0 "C406" H 3000 3300 40  0000 L CNN
F 1 "100n" H 3006 3115 40  0000 L CNN
F 2 "MyKiCadLibs-Footprints:CAP_TH_5mm" H 3038 3050 30  0001 C CNN
F 3 "" H 3000 3200 60  0000 C CNN
	1    3000 3200
	0    -1   1    0   
$EndComp
$Comp
L R R404
U 1 1 568F7033
P 3600 2950
F 0 "R404" V 3520 2950 40  0000 C CNN
F 1 "1k" V 3607 2951 40  0000 C CNN
F 2 "MyKiCadLibs-Footprints:SMD-1206" V 3530 2950 30  0001 C CNN
F 3 "" H 3600 2950 30  0000 C CNN
	1    3600 2950
	0    1    -1   0   
$EndComp
Wire Wire Line
	3200 2950 3350 2950
Wire Wire Line
	3200 3200 3250 3200
Wire Wire Line
	3250 3200 3250 2950
Connection ~ 3250 2950
Wire Wire Line
	2650 2950 2800 2950
Wire Wire Line
	2750 2950 2750 3200
Wire Wire Line
	2750 3200 2800 3200
Connection ~ 3950 2950
$Comp
L C C437
U 1 1 568F800C
P 9400 2950
F 0 "C437" H 9400 3050 40  0000 L CNN
F 1 "100n" H 9406 2865 40  0000 L CNN
F 2 "MyKiCadLibs-Footprints:SMD-0805" H 9438 2800 30  0001 C CNN
F 3 "" H 9400 2950 60  0000 C CNN
	1    9400 2950
	1    0    0    -1  
$EndComp
$Comp
L C C439
U 1 1 568F8012
P 9650 2950
F 0 "C439" H 9650 3050 40  0000 L CNN
F 1 "10n" H 9656 2865 40  0000 L CNN
F 2 "MyKiCadLibs-Footprints:SMD-0805" H 9688 2800 30  0001 C CNN
F 3 "" H 9650 2950 60  0000 C CNN
	1    9650 2950
	1    0    0    -1  
$EndComp
$Comp
L C C431
U 1 1 568F8018
P 8300 3000
F 0 "C431" H 8300 3100 40  0000 L CNN
F 1 "100n" H 8306 2915 40  0000 L CNN
F 2 "MyKiCadLibs-Footprints:SMD-0805" H 8338 2850 30  0001 C CNN
F 3 "" H 8300 3000 60  0000 C CNN
	1    8300 3000
	1    0    0    -1  
$EndComp
$Comp
L GNDA #PWR077
U 1 1 5748E32A
P 8300 3300
F 0 "#PWR077" H 8300 3050 50  0001 C CNN
F 1 "GNDA" H 8300 3150 50  0000 C CNN
F 2 "" H 8300 3300 60  0000 C CNN
F 3 "" H 8300 3300 60  0000 C CNN
	1    8300 3300
	-1   0    0    -1  
$EndComp
$Comp
L C C433
U 1 1 568F8024
P 8600 3000
F 0 "C433" H 8600 3100 40  0000 L CNN
F 1 "100n" H 8606 2915 40  0000 L CNN
F 2 "MyKiCadLibs-Footprints:SMD-0805" H 8638 2850 30  0001 C CNN
F 3 "" H 8600 3000 60  0000 C CNN
	1    8600 3000
	1    0    0    -1  
$EndComp
$Comp
L C C435
U 1 1 568F802A
P 9150 2950
F 0 "C435" H 9150 3050 40  0000 L CNN
F 1 "10u" H 9156 2865 40  0000 L CNN
F 2 "MyKiCadLibs-Footprints:SMD-1206" H 9188 2800 30  0001 C CNN
F 3 "" H 9150 2950 60  0000 C CNN
	1    9150 2950
	1    0    0    -1  
$EndComp
$Comp
L -9VA #PWR078
U 1 1 5748E32B
P 8750 2300
F 0 "#PWR078" H 8750 2175 50  0001 C CNN
F 1 "-9VA" H 8750 2450 50  0000 C CNN
F 2 "" H 8750 2300 50  0000 C CNN
F 3 "" H 8750 2300 50  0000 C CNN
	1    8750 2300
	-1   0    0    1   
$EndComp
$Comp
L GNDA #PWR079
U 1 1 5748E32C
P 8800 2800
F 0 "#PWR079" H 8800 2550 50  0001 C CNN
F 1 "GNDA" H 8800 2650 50  0000 C CNN
F 2 "" H 8800 2800 60  0000 C CNN
F 3 "" H 8800 2800 60  0000 C CNN
	1    8800 2800
	-1   0    0    -1  
$EndComp
$Comp
L -9VA #PWR080
U 1 1 5748E32D
P 8600 3300
F 0 "#PWR080" H 8600 3175 50  0001 C CNN
F 1 "-9VA" H 8600 3450 50  0000 C CNN
F 2 "" H 8600 3300 50  0000 C CNN
F 3 "" H 8600 3300 50  0000 C CNN
	1    8600 3300
	-1   0    0    1   
$EndComp
$Comp
L +9VA #PWR081
U 1 1 5748E32E
P 8300 2700
F 0 "#PWR081" H 8300 2575 50  0001 C CNN
F 1 "+9VA" H 8300 2850 50  0000 C CNN
F 2 "" H 8300 2700 50  0000 C CNN
F 3 "" H 8300 2700 50  0000 C CNN
	1    8300 2700
	1    0    0    -1  
$EndComp
Wire Wire Line
	8300 3300 8300 3200
Wire Wire Line
	8300 2800 8300 2700
Wire Wire Line
	8600 2750 8600 2800
Wire Wire Line
	8600 3200 8600 3300
Wire Wire Line
	8800 2800 8800 2750
Wire Wire Line
	8800 2750 8600 2750
$Comp
L +9VA #PWR082
U 1 1 5748E32F
P 9650 2650
F 0 "#PWR082" H 9650 2525 50  0001 C CNN
F 1 "+9VA" H 9650 2800 50  0000 C CNN
F 2 "" H 9650 2650 50  0000 C CNN
F 3 "" H 9650 2650 50  0000 C CNN
	1    9650 2650
	1    0    0    -1  
$EndComp
$Comp
L -9VA #PWR083
U 1 1 5748E330
P 9650 3250
F 0 "#PWR083" H 9650 3125 50  0001 C CNN
F 1 "-9VA" H 9650 3400 50  0000 C CNN
F 2 "" H 9650 3250 50  0000 C CNN
F 3 "" H 9650 3250 50  0000 C CNN
	1    9650 3250
	-1   0    0    1   
$EndComp
Wire Wire Line
	9650 3150 9650 3250
Wire Wire Line
	9650 2650 9650 2750
Wire Wire Line
	9150 2700 9650 2700
Wire Wire Line
	9400 2700 9400 2750
Connection ~ 9650 2700
Wire Wire Line
	9150 2700 9150 2750
Connection ~ 9400 2700
Wire Wire Line
	9400 3150 9400 3200
Wire Wire Line
	9150 3200 9650 3200
Connection ~ 9650 3200
Wire Wire Line
	9150 3150 9150 3200
Connection ~ 9400 3200
Wire Wire Line
	8750 2300 8750 2250
Wire Wire Line
	8250 2000 8200 2000
Wire Wire Line
	8200 2000 8200 2500
Wire Wire Line
	8200 2500 9350 2500
Wire Wire Line
	9350 2500 9350 1900
Wire Wire Line
	9250 1900 9650 1900
$Comp
L R R425
U 1 1 568F8A0D
P 9900 1900
F 0 "R425" V 9820 1900 40  0000 C CNN
F 1 "1k" V 9907 1901 40  0000 C CNN
F 2 "MyKiCadLibs-Footprints:SMD-1206" V 9830 1900 30  0001 C CNN
F 3 "" H 9900 1900 30  0000 C CNN
	1    9900 1900
	0    1    -1   0   
$EndComp
$Comp
L C C441
U 1 1 568F8CE6
P 10550 2200
F 0 "C441" H 10550 2300 40  0000 L CNN
F 1 "100n" H 10556 2115 40  0000 L CNN
F 2 "MyKiCadLibs-Footprints:SMD-0805" H 10588 2050 30  0001 C CNN
F 3 "" H 10550 2200 60  0000 C CNN
	1    10550 2200
	1    0    0    -1  
$EndComp
$Comp
L C C443
U 1 1 568F8CEC
P 10800 2200
F 0 "C443" H 10800 2300 40  0000 L CNN
F 1 "10n" H 10806 2115 40  0000 L CNN
F 2 "MyKiCadLibs-Footprints:SMD-0805" H 10838 2050 30  0001 C CNN
F 3 "" H 10800 2200 60  0000 C CNN
	1    10800 2200
	1    0    0    -1  
$EndComp
Wire Wire Line
	10550 1900 10550 2000
Wire Wire Line
	10150 1900 10800 1900
Wire Wire Line
	10800 1900 10800 2000
Connection ~ 10550 1900
$Comp
L GNDA #PWR084
U 1 1 5748E331
P 10250 2500
F 0 "#PWR084" H 10250 2250 50  0001 C CNN
F 1 "GNDA" H 10250 2350 50  0000 C CNN
F 2 "" H 10250 2500 60  0000 C CNN
F 3 "" H 10250 2500 60  0000 C CNN
	1    10250 2500
	-1   0    0    -1  
$EndComp
Wire Wire Line
	10550 2400 10550 2450
Wire Wire Line
	10800 2450 10800 2400
Wire Wire Line
	10250 2450 10800 2450
Connection ~ 10550 2450
Connection ~ 9350 1900
Text Label 10800 1900 2    60   ~ 0
VCML
Text Label 3400 2300 0    60   ~ 0
VCML
Wire Wire Line
	3400 2300 3950 2300
Connection ~ 3950 2300
$Comp
L +9VA #PWR085
U 1 1 568FAD8A
P 8750 1500
F 0 "#PWR085" H 8750 1375 50  0001 C CNN
F 1 "+9VA" H 8750 1650 50  0000 C CNN
F 2 "" H 8750 1500 50  0000 C CNN
F 3 "" H 8750 1500 50  0000 C CNN
	1    8750 1500
	1    0    0    -1  
$EndComp
Wire Wire Line
	8750 1500 8750 1550
Text HLabel 6950 1800 0    60   Input ~ 0
VCOML
$Comp
L R R423
U 1 1 568FBDE7
P 7300 1800
F 0 "R423" V 7220 1800 40  0000 C CNN
F 1 "1k" V 7307 1801 40  0000 C CNN
F 2 "MyKiCadLibs-Footprints:SMD-1206" V 7230 1800 30  0001 C CNN
F 3 "" H 7300 1800 30  0000 C CNN
	1    7300 1800
	0    1    -1   0   
$EndComp
Wire Wire Line
	7050 1800 6950 1800
Wire Wire Line
	7550 1800 8250 1800
$Comp
L C C427
U 1 1 568FC0F4
P 7650 2100
F 0 "C427" H 7650 2200 40  0000 L CNN
F 1 "100n" H 7656 2015 40  0000 L CNN
F 2 "MyKiCadLibs-Footprints:SMD-0805" H 7688 1950 30  0001 C CNN
F 3 "" H 7650 2100 60  0000 C CNN
	1    7650 2100
	1    0    0    -1  
$EndComp
$Comp
L C C429
U 1 1 568FC0FA
P 7900 2100
F 0 "C429" H 7900 2200 40  0000 L CNN
F 1 "10n" H 7906 2015 40  0000 L CNN
F 2 "MyKiCadLibs-Footprints:SMD-0805" H 7938 1950 30  0001 C CNN
F 3 "" H 7900 2100 60  0000 C CNN
	1    7900 2100
	1    0    0    -1  
$EndComp
Wire Wire Line
	7650 1900 7650 1800
Wire Wire Line
	7900 1800 7900 1900
$Comp
L GNDA #PWR086
U 1 1 568FC102
P 7650 2400
F 0 "#PWR086" H 7650 2150 50  0001 C CNN
F 1 "GNDA" H 7650 2250 50  0000 C CNN
F 2 "" H 7650 2400 60  0000 C CNN
F 3 "" H 7650 2400 60  0000 C CNN
	1    7650 2400
	-1   0    0    -1  
$EndComp
Wire Wire Line
	7650 2300 7650 2400
Wire Wire Line
	7900 2300 7900 2350
Wire Wire Line
	7900 2350 7650 2350
Connection ~ 7650 2350
Connection ~ 7650 1800
Connection ~ 7900 1800
Text HLabel 6850 1500 2    60   Output ~ 0
ANAL+
Text HLabel 6850 3050 2    60   Output ~ 0
ANAL-
Wire Wire Line
	6850 1500 6750 1500
Wire Wire Line
	6850 3050 6750 3050
$Comp
L CONN_3x1 P401
U 1 1 568FD10C
P 1050 2100
F 0 "P401" V 1535 1895 40  0000 C CNN
F 1 "CONN_3x1" V 1480 2010 40  0000 C CNN
F 2 "MyKiCadLibs-Footprints:CONN_SIL_3" H 1390 1990 60  0001 C CNN
F 3 "" H 1390 1990 60  0000 C CNN
	1    1050 2100
	-1   0    0    -1  
$EndComp
Wire Wire Line
	1050 2200 1350 2200
Wire Wire Line
	1350 2200 1350 1400
Connection ~ 2750 1400
Wire Wire Line
	1050 2300 1350 2300
Wire Wire Line
	1350 2300 1350 2950
Connection ~ 2750 2950
$Comp
L GNDA #PWR087
U 1 1 568FD8A6
P 1200 3100
F 0 "#PWR087" H 1200 2850 50  0001 C CNN
F 1 "GNDA" H 1200 2950 50  0000 C CNN
F 2 "" H 1200 3100 60  0000 C CNN
F 3 "" H 1200 3100 60  0000 C CNN
	1    1200 3100
	-1   0    0    -1  
$EndComp
$Comp
L R R401
U 1 1 568FDD51
P 1200 2700
F 0 "R401" V 1120 2700 40  0000 C CNN
F 1 "10R" V 1207 2701 40  0000 C CNN
F 2 "MyKiCadLibs-Footprints:SMD-1206" V 1130 2700 30  0001 C CNN
F 3 "" H 1200 2700 30  0000 C CNN
	1    1200 2700
	1    0    0    1   
$EndComp
Wire Wire Line
	1200 2950 1200 3100
Wire Wire Line
	1200 2100 1200 2450
Wire Wire Line
	1200 2100 1050 2100
$Comp
L C C401
U 1 1 568FE51A
P 950 2700
F 0 "C401" H 950 2800 40  0000 L CNN
F 1 "100n" H 956 2615 40  0000 L CNN
F 2 "MyKiCadLibs-Footprints:SMD-0805" H 988 2550 30  0001 C CNN
F 3 "" H 950 2700 60  0000 C CNN
	1    950  2700
	1    0    0    -1  
$EndComp
Wire Wire Line
	950  2500 950  2400
Wire Wire Line
	950  2400 1200 2400
Connection ~ 1200 2400
Wire Wire Line
	950  2900 950  3000
Wire Wire Line
	950  3000 1200 3000
Connection ~ 1200 3000
$Comp
L C C422
U 1 1 568EBEE3
P 5400 5650
F 0 "C422" H 5400 5750 40  0000 L CNN
F 1 "100n" H 5406 5565 40  0000 L CNN
F 2 "MyKiCadLibs-Footprints:SMD-0805" H 5438 5500 30  0001 C CNN
F 3 "" H 5400 5650 60  0000 C CNN
	1    5400 5650
	1    0    0    -1  
$EndComp
$Comp
L C C424
U 1 1 568EBEE9
P 5650 5650
F 0 "C424" H 5650 5750 40  0000 L CNN
F 1 "1n" H 5656 5565 40  0000 L CNN
F 2 "MyKiCadLibs-Footprints:SMD-0805" H 5688 5500 30  0001 C CNN
F 3 "" H 5650 5650 60  0000 C CNN
	1    5650 5650
	1    0    0    -1  
$EndComp
$Comp
L C C412
U 1 1 568EBEEF
P 4300 5700
F 0 "C412" H 4300 5800 40  0000 L CNN
F 1 "100n" H 4306 5615 40  0000 L CNN
F 2 "MyKiCadLibs-Footprints:SMD-0805" H 4338 5550 30  0001 C CNN
F 3 "" H 4300 5700 60  0000 C CNN
	1    4300 5700
	1    0    0    -1  
$EndComp
$Comp
L GNDA #PWR088
U 1 1 568EBEF5
P 4300 6000
F 0 "#PWR088" H 4300 5750 50  0001 C CNN
F 1 "GNDA" H 4300 5850 50  0000 C CNN
F 2 "" H 4300 6000 60  0000 C CNN
F 3 "" H 4300 6000 60  0000 C CNN
	1    4300 6000
	-1   0    0    -1  
$EndComp
$Comp
L C C418
U 1 1 568EBEFB
P 4600 5700
F 0 "C418" H 4600 5800 40  0000 L CNN
F 1 "100n" H 4606 5615 40  0000 L CNN
F 2 "MyKiCadLibs-Footprints:SMD-0805" H 4638 5550 30  0001 C CNN
F 3 "" H 4600 5700 60  0000 C CNN
	1    4600 5700
	1    0    0    -1  
$EndComp
$Comp
L C C420
U 1 1 568EBF01
P 5150 5650
F 0 "C420" H 5150 5750 40  0000 L CNN
F 1 "10u" H 5156 5565 40  0000 L CNN
F 2 "MyKiCadLibs-Footprints:SMD-1206" H 5188 5500 30  0001 C CNN
F 3 "" H 5150 5650 60  0000 C CNN
	1    5150 5650
	1    0    0    -1  
$EndComp
$Comp
L IC-OPAMP-DUAL-SOIC8 U402
U 1 1 568EBF07
P 4750 4850
F 0 "U402" H 4800 4700 60  0000 L CNN
F 1 "TLE2072" H 4800 4600 60  0000 L CNN
F 2 "MyKiCadLibs-Footprints:IC_SOIC_8" H 4750 4850 60  0001 C CNN
F 3 "" H 4750 4850 60  0000 C CNN
	1    4750 4850
	1    0    0    -1  
$EndComp
$Comp
L IC-OPAMP-DUAL-SOIC8 U402
U 2 1 568EBF0D
P 4750 6400
F 0 "U402" H 4800 6250 60  0000 L CNN
F 1 "TLE2072" H 4800 6150 60  0000 L CNN
F 2 "MyKiCadLibs-Footprints:IC_SOIC_8" H 4750 6400 60  0001 C CNN
F 3 "" H 4750 6400 60  0000 C CNN
	2    4750 6400
	1    0    0    -1  
$EndComp
$Comp
L +9VA #PWR089
U 1 1 568EBF13
P 4750 4450
F 0 "#PWR089" H 4750 4325 50  0001 C CNN
F 1 "+9VA" H 4750 4600 50  0000 C CNN
F 2 "" H 4750 4450 50  0000 C CNN
F 3 "" H 4750 4450 50  0000 C CNN
	1    4750 4450
	1    0    0    -1  
$EndComp
$Comp
L -9VA #PWR090
U 1 1 568EBF19
P 4750 5250
F 0 "#PWR090" H 4750 5125 50  0001 C CNN
F 1 "-9VA" H 4750 5400 50  0000 C CNN
F 2 "" H 4750 5250 50  0000 C CNN
F 3 "" H 4750 5250 50  0000 C CNN
	1    4750 5250
	-1   0    0    1   
$EndComp
$Comp
L CP1 C407
U 1 1 568EBF1F
P 3000 4750
F 0 "C407" H 3050 4850 50  0000 L CNN
F 1 "100u" H 3050 4650 50  0000 L CNN
F 2 "MyKiCadLibs-Footprints:CAP-TH-D10mmP5mm" H 3000 4750 60  0001 C CNN
F 3 "" H 3000 4750 60  0000 C CNN
	1    3000 4750
	0    -1   -1   0   
$EndComp
$Comp
L C C408
U 1 1 568EBF25
P 3000 5000
F 0 "C408" H 3000 5100 40  0000 L CNN
F 1 "100n" H 3006 4915 40  0000 L CNN
F 2 "MyKiCadLibs-Footprints:CAP_TH_5mm" H 3038 4850 30  0001 C CNN
F 3 "" H 3000 5000 60  0000 C CNN
	1    3000 5000
	0    -1   1    0   
$EndComp
$Comp
L R R409
U 1 1 568EBF2B
P 3950 5350
F 0 "R409" V 3870 5350 40  0000 C CNN
F 1 "10k" V 3957 5351 40  0000 C CNN
F 2 "MyKiCadLibs-Footprints:SMD-1206" V 3880 5350 30  0001 C CNN
F 3 "" H 3950 5350 30  0000 C CNN
	1    3950 5350
	1    0    0    -1  
$EndComp
$Comp
L R R410
U 1 1 568EBF31
P 3950 5950
F 0 "R410" V 3870 5950 40  0000 C CNN
F 1 "10k" V 3957 5951 40  0000 C CNN
F 2 "MyKiCadLibs-Footprints:SMD-1206" V 3880 5950 30  0001 C CNN
F 3 "" H 3950 5950 30  0000 C CNN
	1    3950 5950
	1    0    0    -1  
$EndComp
$Comp
L GNDA #PWR091
U 1 1 568EBF37
P 4800 5500
F 0 "#PWR091" H 4800 5250 50  0001 C CNN
F 1 "GNDA" H 4800 5350 50  0000 C CNN
F 2 "" H 4800 5500 60  0000 C CNN
F 3 "" H 4800 5500 60  0000 C CNN
	1    4800 5500
	-1   0    0    -1  
$EndComp
$Comp
L -9VA #PWR092
U 1 1 568EBF3D
P 4600 6000
F 0 "#PWR092" H 4600 5875 50  0001 C CNN
F 1 "-9VA" H 4600 6150 50  0000 C CNN
F 2 "" H 4600 6000 50  0000 C CNN
F 3 "" H 4600 6000 50  0000 C CNN
	1    4600 6000
	-1   0    0    1   
$EndComp
$Comp
L +9VA #PWR093
U 1 1 568EBF43
P 4300 5400
F 0 "#PWR093" H 4300 5275 50  0001 C CNN
F 1 "+9VA" H 4300 5550 50  0000 C CNN
F 2 "" H 4300 5400 50  0000 C CNN
F 3 "" H 4300 5400 50  0000 C CNN
	1    4300 5400
	1    0    0    -1  
$EndComp
$Comp
L C C415
U 1 1 568EBF49
P 4450 4200
F 0 "C415" H 4450 4300 40  0000 L CNN
F 1 "1n" H 4456 4115 40  0000 L CNN
F 2 "MyKiCadLibs-Footprints:SMD-0805" H 4488 4050 30  0001 C CNN
F 3 "" H 4450 4200 60  0000 C CNN
	1    4450 4200
	0    -1   1    0   
$EndComp
$Comp
L R R413
U 1 1 568EBF4F
P 4500 4000
F 0 "R413" V 4420 4000 40  0000 C CNN
F 1 "1k5" V 4507 4001 40  0000 C CNN
F 2 "MyKiCadLibs-Footprints:SMD-1206" V 4430 4000 30  0001 C CNN
F 3 "" H 4500 4000 30  0000 C CNN
	1    4500 4000
	0    1    -1   0   
$EndComp
$Comp
L R R417
U 1 1 568EBF55
P 5700 4850
F 0 "R417" V 5620 4850 40  0000 C CNN
F 1 "40R2" V 5707 4851 40  0000 C CNN
F 2 "MyKiCadLibs-Footprints:SMD-1206" V 5630 4850 30  0001 C CNN
F 3 "" H 5700 4850 30  0000 C CNN
	1    5700 4850
	0    1    -1   0   
$EndComp
Wire Wire Line
	4300 6000 4300 5900
Wire Wire Line
	4300 5500 4300 5400
Wire Wire Line
	4600 5450 4600 5500
Wire Wire Line
	4600 5900 4600 6000
Wire Wire Line
	3850 6300 4250 6300
Wire Wire Line
	3950 6300 3950 6200
Wire Wire Line
	3950 5100 3950 4750
Wire Wire Line
	3850 4750 4250 4750
Wire Wire Line
	3950 5600 3950 5700
Wire Wire Line
	4800 5500 4800 5450
Wire Wire Line
	4800 5450 4600 5450
Wire Wire Line
	4750 4450 4750 4500
Wire Wire Line
	4750 5250 4750 5200
Wire Wire Line
	5250 4850 5450 4850
Wire Wire Line
	5350 4850 5350 4200
Wire Wire Line
	5350 4200 4650 4200
Connection ~ 5350 4850
Wire Wire Line
	5950 4850 6250 4850
Wire Wire Line
	6050 4850 6050 4000
Wire Wire Line
	6050 4000 4750 4000
Wire Wire Line
	4150 4950 4250 4950
Wire Wire Line
	4150 4000 4150 4950
Wire Wire Line
	4150 4200 4250 4200
Wire Wire Line
	4250 4000 4150 4000
Connection ~ 4150 4200
$Comp
L R R405
U 1 1 568EBF74
P 3600 4750
F 0 "R405" V 3520 4750 40  0000 C CNN
F 1 "1k" V 3607 4751 40  0000 C CNN
F 2 "MyKiCadLibs-Footprints:SMD-1206" V 3530 4750 30  0001 C CNN
F 3 "" H 3600 4750 30  0000 C CNN
	1    3600 4750
	0    1    -1   0   
$EndComp
Connection ~ 3950 4750
Wire Wire Line
	3200 4750 3350 4750
Wire Wire Line
	3200 5000 3250 5000
Wire Wire Line
	3250 5000 3250 4750
Connection ~ 3250 4750
$Comp
L C C426
U 1 1 568EBF7F
P 6150 5650
F 0 "C426" H 6150 5750 40  0000 L CNN
F 1 "2n7" H 6156 5565 40  0000 L CNN
F 2 "MyKiCadLibs-Footprints:SMD-0805" H 6188 5500 30  0001 C CNN
F 3 "" H 6150 5650 60  0000 C CNN
	1    6150 5650
	-1   0    0    -1  
$EndComp
$Comp
L R R421
U 1 1 568EBF85
P 6500 4850
F 0 "R421" V 6420 4850 40  0000 C CNN
F 1 "100R" V 6507 4851 40  0000 C CNN
F 2 "MyKiCadLibs-Footprints:SMD-1206" V 6430 4850 30  0001 C CNN
F 3 "" H 6500 4850 30  0000 C CNN
	1    6500 4850
	0    1    -1   0   
$EndComp
Connection ~ 6050 4850
$Comp
L C C416
U 1 1 568EBF8C
P 4450 6850
F 0 "C416" H 4450 6950 40  0000 L CNN
F 1 "1n" H 4456 6765 40  0000 L CNN
F 2 "MyKiCadLibs-Footprints:SMD-0805" H 4488 6700 30  0001 C CNN
F 3 "" H 4450 6850 60  0000 C CNN
	1    4450 6850
	0    -1   1    0   
$EndComp
$Comp
L R R414
U 1 1 568EBF92
P 4500 7100
F 0 "R414" V 4420 7100 40  0000 C CNN
F 1 "1k5" V 4507 7101 40  0000 C CNN
F 2 "MyKiCadLibs-Footprints:SMD-1206" V 4430 7100 30  0001 C CNN
F 3 "" H 4500 7100 30  0000 C CNN
	1    4500 7100
	0    1    -1   0   
$EndComp
Wire Wire Line
	4250 6850 4150 6850
Wire Wire Line
	4150 6500 4150 7100
Wire Wire Line
	4150 6500 4250 6500
Wire Wire Line
	4150 7100 4250 7100
Connection ~ 4150 6850
Wire Wire Line
	4650 6850 5350 6850
Wire Wire Line
	5350 6850 5350 6400
Connection ~ 5350 6400
$Comp
L R R418
U 1 1 568EBFA0
P 5700 6400
F 0 "R418" V 5620 6400 40  0000 C CNN
F 1 "40R2" V 5707 6401 40  0000 C CNN
F 2 "MyKiCadLibs-Footprints:SMD-1206" V 5630 6400 30  0001 C CNN
F 3 "" H 5700 6400 30  0000 C CNN
	1    5700 6400
	0    1    -1   0   
$EndComp
Wire Wire Line
	5250 6400 5450 6400
Wire Wire Line
	4750 7100 6050 7100
Wire Wire Line
	6050 7100 6050 6400
Wire Wire Line
	5950 6400 6250 6400
$Comp
L R R422
U 1 1 568EBFAA
P 6500 6400
F 0 "R422" V 6420 6400 40  0000 C CNN
F 1 "100R" V 6507 6401 40  0000 C CNN
F 2 "MyKiCadLibs-Footprints:SMD-1206" V 6430 6400 30  0001 C CNN
F 3 "" H 6500 6400 30  0000 C CNN
	1    6500 6400
	0    1    -1   0   
$EndComp
Connection ~ 6050 6400
Wire Wire Line
	6150 5450 6150 4850
Connection ~ 6150 4850
Wire Wire Line
	6150 5850 6150 6400
Connection ~ 6150 6400
$Comp
L +9VA #PWR094
U 1 1 568EBFB5
P 5650 5350
F 0 "#PWR094" H 5650 5225 50  0001 C CNN
F 1 "+9VA" H 5650 5500 50  0000 C CNN
F 2 "" H 5650 5350 50  0000 C CNN
F 3 "" H 5650 5350 50  0000 C CNN
	1    5650 5350
	1    0    0    -1  
$EndComp
$Comp
L -9VA #PWR095
U 1 1 568EBFBB
P 5650 5950
F 0 "#PWR095" H 5650 5825 50  0001 C CNN
F 1 "-9VA" H 5650 6100 50  0000 C CNN
F 2 "" H 5650 5950 50  0000 C CNN
F 3 "" H 5650 5950 50  0000 C CNN
	1    5650 5950
	-1   0    0    1   
$EndComp
Wire Wire Line
	5650 5850 5650 5950
Wire Wire Line
	5650 5350 5650 5450
Wire Wire Line
	5150 5400 5650 5400
Wire Wire Line
	5400 5400 5400 5450
Connection ~ 5650 5400
Wire Wire Line
	5150 5400 5150 5450
Connection ~ 5400 5400
Wire Wire Line
	5400 5850 5400 5900
Wire Wire Line
	5150 5900 5650 5900
Connection ~ 5650 5900
Wire Wire Line
	5150 5850 5150 5900
Connection ~ 5400 5900
Wire Wire Line
	2650 4750 2800 4750
Wire Wire Line
	2750 4750 2750 5000
Wire Wire Line
	2750 5000 2800 5000
$Comp
L CP1 C409
U 1 1 568EBFD0
P 3000 6300
F 0 "C409" H 3050 6400 50  0000 L CNN
F 1 "100u" H 3050 6200 50  0000 L CNN
F 2 "MyKiCadLibs-Footprints:CAP-TH-D10mmP5mm" H 3000 6300 60  0001 C CNN
F 3 "" H 3000 6300 60  0000 C CNN
	1    3000 6300
	0    -1   -1   0   
$EndComp
$Comp
L C C410
U 1 1 568EBFD6
P 3000 6550
F 0 "C410" H 3000 6650 40  0000 L CNN
F 1 "100n" H 3006 6465 40  0000 L CNN
F 2 "MyKiCadLibs-Footprints:CAP_TH_5mm" H 3038 6400 30  0001 C CNN
F 3 "" H 3000 6550 60  0000 C CNN
	1    3000 6550
	0    -1   1    0   
$EndComp
$Comp
L R R406
U 1 1 568EBFDC
P 3600 6300
F 0 "R406" V 3520 6300 40  0000 C CNN
F 1 "1k" V 3607 6301 40  0000 C CNN
F 2 "MyKiCadLibs-Footprints:SMD-1206" V 3530 6300 30  0001 C CNN
F 3 "" H 3600 6300 30  0000 C CNN
	1    3600 6300
	0    1    -1   0   
$EndComp
Wire Wire Line
	3200 6300 3350 6300
Wire Wire Line
	3200 6550 3250 6550
Wire Wire Line
	3250 6550 3250 6300
Connection ~ 3250 6300
Wire Wire Line
	2650 6300 2800 6300
Wire Wire Line
	2750 6300 2750 6550
Wire Wire Line
	2750 6550 2800 6550
Connection ~ 3950 6300
Text Label 3400 5650 0    60   ~ 0
VCMR
Wire Wire Line
	3400 5650 3950 5650
Connection ~ 3950 5650
Text HLabel 6850 4850 2    60   Output ~ 0
ANAR+
Text HLabel 6850 6400 2    60   Output ~ 0
ANAR-
Wire Wire Line
	6850 4850 6750 4850
Wire Wire Line
	6850 6400 6750 6400
$Comp
L CONN_3x1 P402
U 1 1 568EBFF1
P 1050 5450
F 0 "P402" V 1535 5245 40  0000 C CNN
F 1 "CONN_3x1" V 1480 5360 40  0000 C CNN
F 2 "MyKiCadLibs-Footprints:CONN_SIL_3" H 1390 5340 60  0001 C CNN
F 3 "" H 1390 5340 60  0000 C CNN
	1    1050 5450
	-1   0    0    -1  
$EndComp
Wire Wire Line
	1050 5550 1350 5550
Wire Wire Line
	1350 5550 1350 4750
Connection ~ 2750 4750
Wire Wire Line
	1050 5650 1350 5650
Wire Wire Line
	1350 5650 1350 6300
Connection ~ 2750 6300
$Comp
L GNDA #PWR096
U 1 1 568EBFFD
P 1200 6450
F 0 "#PWR096" H 1200 6200 50  0001 C CNN
F 1 "GNDA" H 1200 6300 50  0000 C CNN
F 2 "" H 1200 6450 60  0000 C CNN
F 3 "" H 1200 6450 60  0000 C CNN
	1    1200 6450
	-1   0    0    -1  
$EndComp
$Comp
L R R402
U 1 1 568EC003
P 1200 6050
F 0 "R402" V 1120 6050 40  0000 C CNN
F 1 "10R" V 1207 6051 40  0000 C CNN
F 2 "MyKiCadLibs-Footprints:SMD-1206" V 1130 6050 30  0001 C CNN
F 3 "" H 1200 6050 30  0000 C CNN
	1    1200 6050
	1    0    0    1   
$EndComp
Wire Wire Line
	1200 6300 1200 6450
Wire Wire Line
	1200 5450 1200 5800
Wire Wire Line
	1200 5450 1050 5450
$Comp
L C C402
U 1 1 568EC00C
P 950 6050
F 0 "C402" H 950 6150 40  0000 L CNN
F 1 "100n" H 956 5965 40  0000 L CNN
F 2 "MyKiCadLibs-Footprints:SMD-0805" H 988 5900 30  0001 C CNN
F 3 "" H 950 6050 60  0000 C CNN
	1    950  6050
	1    0    0    -1  
$EndComp
Wire Wire Line
	950  5850 950  5750
Wire Wire Line
	950  5750 1200 5750
Connection ~ 1200 5750
Wire Wire Line
	950  6250 950  6350
Wire Wire Line
	950  6350 1200 6350
Connection ~ 1200 6350
$Comp
L IC-OPAMP-SINGLE-SOIC8 U404
U 1 1 568ED19F
P 8750 4400
F 0 "U404" H 8800 4650 60  0000 L CNN
F 1 "TLE2071" H 8800 4550 60  0000 L CNN
F 2 "MyKiCadLibs-Footprints:IC_SOIC_8" H 8750 4400 60  0001 C CNN
F 3 "" H 8750 4400 60  0000 C CNN
	1    8750 4400
	1    0    0    -1  
$EndComp
$Comp
L C C438
U 1 1 568ED1A5
P 9400 5450
F 0 "C438" H 9400 5550 40  0000 L CNN
F 1 "100n" H 9406 5365 40  0000 L CNN
F 2 "MyKiCadLibs-Footprints:SMD-0805" H 9438 5300 30  0001 C CNN
F 3 "" H 9400 5450 60  0000 C CNN
	1    9400 5450
	1    0    0    -1  
$EndComp
$Comp
L C C440
U 1 1 568ED1AB
P 9650 5450
F 0 "C440" H 9650 5550 40  0000 L CNN
F 1 "10n" H 9656 5365 40  0000 L CNN
F 2 "MyKiCadLibs-Footprints:SMD-0805" H 9688 5300 30  0001 C CNN
F 3 "" H 9650 5450 60  0000 C CNN
	1    9650 5450
	1    0    0    -1  
$EndComp
$Comp
L C C432
U 1 1 568ED1B1
P 8300 5500
F 0 "C432" H 8300 5600 40  0000 L CNN
F 1 "100n" H 8306 5415 40  0000 L CNN
F 2 "MyKiCadLibs-Footprints:SMD-0805" H 8338 5350 30  0001 C CNN
F 3 "" H 8300 5500 60  0000 C CNN
	1    8300 5500
	1    0    0    -1  
$EndComp
$Comp
L GNDA #PWR097
U 1 1 5748E318
P 8300 5800
F 0 "#PWR097" H 8300 5550 50  0001 C CNN
F 1 "GNDA" H 8300 5650 50  0000 C CNN
F 2 "" H 8300 5800 60  0000 C CNN
F 3 "" H 8300 5800 60  0000 C CNN
	1    8300 5800
	-1   0    0    -1  
$EndComp
$Comp
L C C434
U 1 1 568ED1BD
P 8600 5500
F 0 "C434" H 8600 5600 40  0000 L CNN
F 1 "100n" H 8606 5415 40  0000 L CNN
F 2 "MyKiCadLibs-Footprints:SMD-0805" H 8638 5350 30  0001 C CNN
F 3 "" H 8600 5500 60  0000 C CNN
	1    8600 5500
	1    0    0    -1  
$EndComp
$Comp
L C C436
U 1 1 568ED1C3
P 9150 5450
F 0 "C436" H 9150 5550 40  0000 L CNN
F 1 "10u" H 9156 5365 40  0000 L CNN
F 2 "MyKiCadLibs-Footprints:SMD-1206" H 9188 5300 30  0001 C CNN
F 3 "" H 9150 5450 60  0000 C CNN
	1    9150 5450
	1    0    0    -1  
$EndComp
$Comp
L -9VA #PWR098
U 1 1 568ED1C9
P 8750 4800
F 0 "#PWR098" H 8750 4675 50  0001 C CNN
F 1 "-9VA" H 8750 4950 50  0000 C CNN
F 2 "" H 8750 4800 50  0000 C CNN
F 3 "" H 8750 4800 50  0000 C CNN
	1    8750 4800
	-1   0    0    1   
$EndComp
$Comp
L GNDA #PWR099
U 1 1 5748E31A
P 8800 5300
F 0 "#PWR099" H 8800 5050 50  0001 C CNN
F 1 "GNDA" H 8800 5150 50  0000 C CNN
F 2 "" H 8800 5300 60  0000 C CNN
F 3 "" H 8800 5300 60  0000 C CNN
	1    8800 5300
	-1   0    0    -1  
$EndComp
$Comp
L -9VA #PWR0100
U 1 1 5748E31B
P 8600 5800
F 0 "#PWR0100" H 8600 5675 50  0001 C CNN
F 1 "-9VA" H 8600 5950 50  0000 C CNN
F 2 "" H 8600 5800 50  0000 C CNN
F 3 "" H 8600 5800 50  0000 C CNN
	1    8600 5800
	-1   0    0    1   
$EndComp
$Comp
L +9VA #PWR0101
U 1 1 5748E31C
P 8300 5200
F 0 "#PWR0101" H 8300 5075 50  0001 C CNN
F 1 "+9VA" H 8300 5350 50  0000 C CNN
F 2 "" H 8300 5200 50  0000 C CNN
F 3 "" H 8300 5200 50  0000 C CNN
	1    8300 5200
	1    0    0    -1  
$EndComp
Wire Wire Line
	8300 5800 8300 5700
Wire Wire Line
	8300 5300 8300 5200
Wire Wire Line
	8600 5250 8600 5300
Wire Wire Line
	8600 5700 8600 5800
Wire Wire Line
	8800 5300 8800 5250
Wire Wire Line
	8800 5250 8600 5250
$Comp
L +9VA #PWR0102
U 1 1 568ED1E7
P 9650 5150
F 0 "#PWR0102" H 9650 5025 50  0001 C CNN
F 1 "+9VA" H 9650 5300 50  0000 C CNN
F 2 "" H 9650 5150 50  0000 C CNN
F 3 "" H 9650 5150 50  0000 C CNN
	1    9650 5150
	1    0    0    -1  
$EndComp
$Comp
L -9VA #PWR0103
U 1 1 5748E31E
P 9650 5750
F 0 "#PWR0103" H 9650 5625 50  0001 C CNN
F 1 "-9VA" H 9650 5900 50  0000 C CNN
F 2 "" H 9650 5750 50  0000 C CNN
F 3 "" H 9650 5750 50  0000 C CNN
	1    9650 5750
	-1   0    0    1   
$EndComp
Wire Wire Line
	9650 5650 9650 5750
Wire Wire Line
	9650 5150 9650 5250
Wire Wire Line
	9150 5200 9650 5200
Wire Wire Line
	9400 5200 9400 5250
Connection ~ 9650 5200
Wire Wire Line
	9150 5200 9150 5250
Connection ~ 9400 5200
Wire Wire Line
	9400 5650 9400 5700
Wire Wire Line
	9150 5700 9650 5700
Connection ~ 9650 5700
Wire Wire Line
	9150 5650 9150 5700
Connection ~ 9400 5700
Wire Wire Line
	8750 4800 8750 4750
Wire Wire Line
	8250 4500 8200 4500
Wire Wire Line
	8200 4500 8200 5000
Wire Wire Line
	8200 5000 9350 5000
Wire Wire Line
	9350 5000 9350 4400
Wire Wire Line
	9250 4400 9650 4400
$Comp
L R R426
U 1 1 568ED205
P 9900 4400
F 0 "R426" V 9820 4400 40  0000 C CNN
F 1 "1k" V 9907 4401 40  0000 C CNN
F 2 "MyKiCadLibs-Footprints:SMD-1206" V 9830 4400 30  0001 C CNN
F 3 "" H 9900 4400 30  0000 C CNN
	1    9900 4400
	0    1    -1   0   
$EndComp
$Comp
L C C442
U 1 1 568ED20B
P 10550 4700
F 0 "C442" H 10550 4800 40  0000 L CNN
F 1 "100n" H 10556 4615 40  0000 L CNN
F 2 "MyKiCadLibs-Footprints:SMD-0805" H 10588 4550 30  0001 C CNN
F 3 "" H 10550 4700 60  0000 C CNN
	1    10550 4700
	1    0    0    -1  
$EndComp
$Comp
L C C444
U 1 1 568ED211
P 10800 4700
F 0 "C444" H 10800 4800 40  0000 L CNN
F 1 "10n" H 10806 4615 40  0000 L CNN
F 2 "MyKiCadLibs-Footprints:SMD-0805" H 10838 4550 30  0001 C CNN
F 3 "" H 10800 4700 60  0000 C CNN
	1    10800 4700
	1    0    0    -1  
$EndComp
Wire Wire Line
	10550 4400 10550 4500
Wire Wire Line
	10150 4400 10800 4400
Wire Wire Line
	10800 4400 10800 4500
Connection ~ 10550 4400
$Comp
L GNDA #PWR0104
U 1 1 568ED21B
P 10250 5000
F 0 "#PWR0104" H 10250 4750 50  0001 C CNN
F 1 "GNDA" H 10250 4850 50  0000 C CNN
F 2 "" H 10250 5000 60  0000 C CNN
F 3 "" H 10250 5000 60  0000 C CNN
	1    10250 5000
	-1   0    0    -1  
$EndComp
Wire Wire Line
	10550 4900 10550 4950
Wire Wire Line
	10800 4950 10800 4900
Wire Wire Line
	10250 4950 10800 4950
Connection ~ 10550 4950
Connection ~ 9350 4400
Text Label 10800 4400 2    60   ~ 0
VCMR
$Comp
L +9VA #PWR0105
U 1 1 568ED227
P 8750 4000
F 0 "#PWR0105" H 8750 3875 50  0001 C CNN
F 1 "+9VA" H 8750 4150 50  0000 C CNN
F 2 "" H 8750 4000 50  0000 C CNN
F 3 "" H 8750 4000 50  0000 C CNN
	1    8750 4000
	1    0    0    -1  
$EndComp
Wire Wire Line
	8750 4000 8750 4050
Text HLabel 6950 4300 0    60   Input ~ 0
VCOMR
$Comp
L R R424
U 1 1 568ED22F
P 7300 4300
F 0 "R424" V 7220 4300 40  0000 C CNN
F 1 "1k" V 7307 4301 40  0000 C CNN
F 2 "MyKiCadLibs-Footprints:SMD-1206" V 7230 4300 30  0001 C CNN
F 3 "" H 7300 4300 30  0000 C CNN
	1    7300 4300
	0    1    -1   0   
$EndComp
Wire Wire Line
	7050 4300 6950 4300
Wire Wire Line
	7550 4300 8250 4300
$Comp
L C C428
U 1 1 568ED237
P 7650 4600
F 0 "C428" H 7650 4700 40  0000 L CNN
F 1 "100n" H 7656 4515 40  0000 L CNN
F 2 "MyKiCadLibs-Footprints:SMD-0805" H 7688 4450 30  0001 C CNN
F 3 "" H 7650 4600 60  0000 C CNN
	1    7650 4600
	1    0    0    -1  
$EndComp
$Comp
L C C430
U 1 1 568ED23D
P 7900 4600
F 0 "C430" H 7900 4700 40  0000 L CNN
F 1 "10n" H 7906 4515 40  0000 L CNN
F 2 "MyKiCadLibs-Footprints:SMD-0805" H 7938 4450 30  0001 C CNN
F 3 "" H 7900 4600 60  0000 C CNN
	1    7900 4600
	1    0    0    -1  
$EndComp
Wire Wire Line
	7650 4400 7650 4300
Wire Wire Line
	7900 4300 7900 4400
$Comp
L GNDA #PWR0106
U 1 1 5748E321
P 7650 4900
F 0 "#PWR0106" H 7650 4650 50  0001 C CNN
F 1 "GNDA" H 7650 4750 50  0000 C CNN
F 2 "" H 7650 4900 60  0000 C CNN
F 3 "" H 7650 4900 60  0000 C CNN
	1    7650 4900
	-1   0    0    -1  
$EndComp
Wire Wire Line
	7650 4800 7650 4900
Wire Wire Line
	7900 4800 7900 4850
Wire Wire Line
	7900 4850 7650 4850
Connection ~ 7650 4850
Connection ~ 7650 4300
Connection ~ 7900 4300
$Comp
L CP1 C445
U 1 1 568FAEE9
P 10250 2200
F 0 "C445" H 10300 2300 50  0000 L CNN
F 1 "47u" H 10300 2100 50  0000 L CNN
F 2 "MyKiCadLibs-Footprints:CAP-TH-D6.3mmP2.5mm" H 10250 2200 60  0001 C CNN
F 3 "" H 10250 2200 60  0000 C CNN
	1    10250 2200
	1    0    0    -1  
$EndComp
Wire Wire Line
	10250 2400 10250 2500
Connection ~ 10250 2450
Wire Wire Line
	10250 2000 10250 1900
Connection ~ 10250 1900
$Comp
L CP1 C446
U 1 1 568FD484
P 10250 4700
F 0 "C446" H 10300 4800 50  0000 L CNN
F 1 "47u" H 10300 4600 50  0000 L CNN
F 2 "MyKiCadLibs-Footprints:CAP-TH-D6.3mmP2.5mm" H 10250 4700 60  0001 C CNN
F 3 "" H 10250 4700 60  0000 C CNN
	1    10250 4700
	1    0    0    -1  
$EndComp
Wire Wire Line
	10250 4900 10250 5000
Connection ~ 10250 4950
Wire Wire Line
	10250 4500 10250 4400
Connection ~ 10250 4400
$Comp
L R R427
U 1 1 5690E53B
P 1700 1400
F 0 "R427" V 1620 1400 40  0000 C CNN
F 1 "1k" V 1707 1401 40  0000 C CNN
F 2 "MyKiCadLibs-Footprints:SMD-1206" V 1630 1400 30  0001 C CNN
F 3 "" H 1700 1400 30  0000 C CNN
	1    1700 1400
	0    1    -1   0   
$EndComp
$Comp
L R R431
U 1 1 56910D2E
P 2400 1400
F 0 "R431" V 2320 1400 40  0000 C CNN
F 1 "1k" V 2407 1401 40  0000 C CNN
F 2 "MyKiCadLibs-Footprints:SMD-1206" V 2330 1400 30  0001 C CNN
F 3 "" H 2400 1400 30  0000 C CNN
	1    2400 1400
	0    1    -1   0   
$EndComp
Wire Wire Line
	1950 1400 2150 1400
$Comp
L C C447
U 1 1 5691169C
P 2050 2250
F 0 "C447" H 2050 2350 40  0000 L CNN
F 1 "220p" H 2056 2165 40  0000 L CNN
F 2 "MyKiCadLibs-Footprints:SMD-0805" H 2088 2100 30  0001 C CNN
F 3 "" H 2050 2250 60  0000 C CNN
	1    2050 2250
	-1   0    0    -1  
$EndComp
Wire Wire Line
	1350 1400 1450 1400
Wire Wire Line
	2050 2050 2050 1400
Connection ~ 2050 1400
$Comp
L R R428
U 1 1 56911BC0
P 1700 2950
F 0 "R428" V 1620 2950 40  0000 C CNN
F 1 "1k" V 1707 2951 40  0000 C CNN
F 2 "MyKiCadLibs-Footprints:SMD-1206" V 1630 2950 30  0001 C CNN
F 3 "" H 1700 2950 30  0000 C CNN
	1    1700 2950
	0    1    -1   0   
$EndComp
$Comp
L R R432
U 1 1 56911BC6
P 2400 2950
F 0 "R432" V 2320 2950 40  0000 C CNN
F 1 "1k" V 2407 2951 40  0000 C CNN
F 2 "MyKiCadLibs-Footprints:SMD-1206" V 2330 2950 30  0001 C CNN
F 3 "" H 2400 2950 30  0000 C CNN
	1    2400 2950
	0    1    -1   0   
$EndComp
Wire Wire Line
	1950 2950 2150 2950
Connection ~ 2050 2950
Wire Wire Line
	2050 2950 2050 2450
Wire Wire Line
	1350 2950 1450 2950
$Comp
L R R429
U 1 1 5691878F
P 1700 4750
F 0 "R429" V 1620 4750 40  0000 C CNN
F 1 "1k" V 1707 4751 40  0000 C CNN
F 2 "MyKiCadLibs-Footprints:SMD-1206" V 1630 4750 30  0001 C CNN
F 3 "" H 1700 4750 30  0000 C CNN
	1    1700 4750
	0    1    -1   0   
$EndComp
$Comp
L R R433
U 1 1 56918795
P 2400 4750
F 0 "R433" V 2320 4750 40  0000 C CNN
F 1 "1k" V 2407 4751 40  0000 C CNN
F 2 "MyKiCadLibs-Footprints:SMD-1206" V 2330 4750 30  0001 C CNN
F 3 "" H 2400 4750 30  0000 C CNN
	1    2400 4750
	0    1    -1   0   
$EndComp
Wire Wire Line
	1950 4750 2150 4750
$Comp
L C C448
U 1 1 5691879D
P 2050 5600
F 0 "C448" H 2050 5700 40  0000 L CNN
F 1 "220p" H 2056 5515 40  0000 L CNN
F 2 "MyKiCadLibs-Footprints:SMD-0805" H 2088 5450 30  0001 C CNN
F 3 "" H 2050 5600 60  0000 C CNN
	1    2050 5600
	-1   0    0    -1  
$EndComp
Wire Wire Line
	2050 5400 2050 4750
Connection ~ 2050 4750
$Comp
L R R430
U 1 1 569187A5
P 1700 6300
F 0 "R430" V 1620 6300 40  0000 C CNN
F 1 "1k" V 1707 6301 40  0000 C CNN
F 2 "MyKiCadLibs-Footprints:SMD-1206" V 1630 6300 30  0001 C CNN
F 3 "" H 1700 6300 30  0000 C CNN
	1    1700 6300
	0    1    -1   0   
$EndComp
$Comp
L R R434
U 1 1 569187AB
P 2400 6300
F 0 "R434" V 2320 6300 40  0000 C CNN
F 1 "1k" V 2407 6301 40  0000 C CNN
F 2 "MyKiCadLibs-Footprints:SMD-1206" V 2330 6300 30  0001 C CNN
F 3 "" H 2400 6300 30  0000 C CNN
	1    2400 6300
	0    1    -1   0   
$EndComp
Wire Wire Line
	1950 6300 2150 6300
Connection ~ 2050 6300
Wire Wire Line
	2050 6300 2050 5800
Wire Wire Line
	1350 6300 1450 6300
Wire Wire Line
	1350 4750 1450 4750
Text Notes 750  750  0    118  ~ 0
Input Filters
Text Notes 750  1050 0    60   ~ 0
Differential inputs. Op-amps can be any good quality fast audio \ngrade devices. OPA164x listed as examples. Other parts such \nas NE5532, OPA1652, OPA1602 would work for U401 and U402.
$EndSCHEMATC
