EESchema Schematic File Version 2
LIBS:power
LIBS:MyKiCadLibs-Lib
LIBS:ADC-PCM4202-cache
EELAYER 25 0
EELAYER END
$Descr A4 11693 8268
encoding utf-8
Sheet 4 4
Title "PCM4202 ADC - Single Ended Inputs"
Date "2016-04-20"
Rev "1.1"
Comp "Open Hardware DSP Platform - www.ohdsp.org"
Comment1 "MERCHANTABILITY, SATISFACTORY QUALITY AND FITNESS FOR A PARTICULAR PURPOSE."
Comment2 "is distributed WITHOUT ANY EXPRESS OR IMPLIED WARRANTY, INCLUDING OF"
Comment3 "Licensed under the TAPR Open Hardware License (www.tapr.org/OHL). This documentation"
Comment4 "Copyright Paul Janicki 2016"
$EndDescr
$Comp
L GNDA #PWR068
U 1 1 568EB091
P 750 4600
F 0 "#PWR068" H 750 4350 50  0001 C CNN
F 1 "GNDA" H 750 4450 50  0000 C CNN
F 2 "" H 750 4600 60  0000 C CNN
F 3 "" H 750 4600 60  0000 C CNN
	1    750  4600
	-1   0    0    -1  
$EndComp
$Comp
L +9VA #PWR069
U 1 1 568ED281
P 4750 1350
F 0 "#PWR069" H 4750 1225 50  0001 C CNN
F 1 "+9VA" H 4750 1500 50  0000 C CNN
F 2 "" H 4750 1350 50  0000 C CNN
F 3 "" H 4750 1350 50  0000 C CNN
	1    4750 1350
	1    0    0    -1  
$EndComp
$Comp
L -9VA #PWR070
U 1 1 5748E323
P 4750 2150
F 0 "#PWR070" H 4750 2025 50  0001 C CNN
F 1 "-9VA" H 4750 2300 50  0000 C CNN
F 2 "" H 4750 2150 50  0000 C CNN
F 3 "" H 4750 2150 50  0000 C CNN
	1    4750 2150
	-1   0    0    1   
$EndComp
$Comp
L IC-OPAMP-SINGLE-SOIC8 U405
U 1 1 568EECF9
P 8750 2150
F 0 "U405" H 8800 2400 60  0000 L CNN
F 1 "TLE2071" H 8800 2300 60  0000 L CNN
F 2 "MyKiCadLibs-Footprints:IC_SOIC_8" H 8750 2150 60  0001 C CNN
F 3 "" H 8750 2150 60  0000 C CNN
F 4 "LOW-NOISE HIGH-SPEED JFET-INPUT OPERATIONAL AMPLIFIERS - SINGLE" H 8750 2150 60  0001 C CNN "Description"
	1    8750 2150
	1    0    0    -1  
$EndComp
$Comp
L GNDA #PWR071
U 1 1 568F2111
P 1300 4050
F 0 "#PWR071" H 1300 3800 50  0001 C CNN
F 1 "GNDA" H 1300 3900 50  0000 C CNN
F 2 "" H 1300 4050 60  0000 C CNN
F 3 "" H 1300 4050 60  0000 C CNN
	1    1300 4050
	-1   0    0    -1  
$EndComp
$Comp
L -9VA #PWR072
U 1 1 568F220E
P 1000 4600
F 0 "#PWR072" H 1000 4475 50  0001 C CNN
F 1 "-9VA" H 1000 4750 50  0000 C CNN
F 2 "" H 1000 4600 50  0000 C CNN
F 3 "" H 1000 4600 50  0000 C CNN
	1    1000 4600
	-1   0    0    1   
$EndComp
$Comp
L +9VA #PWR073
U 1 1 5748E327
P 750 4000
F 0 "#PWR073" H 750 3875 50  0001 C CNN
F 1 "+9VA" H 750 4150 50  0000 C CNN
F 2 "" H 750 4000 50  0000 C CNN
F 3 "" H 750 4000 50  0000 C CNN
	1    750  4000
	1    0    0    -1  
$EndComp
$Comp
L +9VA #PWR074
U 1 1 5748E328
P 1400 6750
F 0 "#PWR074" H 1400 6625 50  0001 C CNN
F 1 "+9VA" H 1400 6900 50  0000 C CNN
F 2 "" H 1400 6750 50  0000 C CNN
F 3 "" H 1400 6750 50  0000 C CNN
	1    1400 6750
	1    0    0    -1  
$EndComp
$Comp
L -9VA #PWR075
U 1 1 5748E329
P 1400 7450
F 0 "#PWR075" H 1400 7325 50  0001 C CNN
F 1 "-9VA" H 1400 7600 50  0000 C CNN
F 2 "" H 1400 7450 50  0000 C CNN
F 3 "" H 1400 7450 50  0000 C CNN
	1    1400 7450
	-1   0    0    1   
$EndComp
$Comp
L GNDA #PWR076
U 1 1 568F801E
P 8300 3550
F 0 "#PWR076" H 8300 3300 50  0001 C CNN
F 1 "GNDA" H 8300 3400 50  0000 C CNN
F 2 "" H 8300 3550 60  0000 C CNN
F 3 "" H 8300 3550 60  0000 C CNN
	1    8300 3550
	-1   0    0    -1  
$EndComp
$Comp
L -9VA #PWR077
U 1 1 568F8030
P 8750 2550
F 0 "#PWR077" H 8750 2425 50  0001 C CNN
F 1 "-9VA" H 8750 2700 50  0000 C CNN
F 2 "" H 8750 2550 50  0000 C CNN
F 3 "" H 8750 2550 50  0000 C CNN
	1    8750 2550
	-1   0    0    1   
$EndComp
$Comp
L GNDA #PWR078
U 1 1 568F8036
P 8900 3050
F 0 "#PWR078" H 8900 2800 50  0001 C CNN
F 1 "GNDA" H 8900 2900 50  0000 C CNN
F 2 "" H 8900 3050 60  0000 C CNN
F 3 "" H 8900 3050 60  0000 C CNN
	1    8900 3050
	-1   0    0    -1  
$EndComp
$Comp
L -9VA #PWR079
U 1 1 568F803C
P 8600 3550
F 0 "#PWR079" H 8600 3425 50  0001 C CNN
F 1 "-9VA" H 8600 3700 50  0000 C CNN
F 2 "" H 8600 3550 50  0000 C CNN
F 3 "" H 8600 3550 50  0000 C CNN
	1    8600 3550
	-1   0    0    1   
$EndComp
$Comp
L +9VA #PWR080
U 1 1 568F8042
P 8300 2950
F 0 "#PWR080" H 8300 2825 50  0001 C CNN
F 1 "+9VA" H 8300 3100 50  0000 C CNN
F 2 "" H 8300 2950 50  0000 C CNN
F 3 "" H 8300 2950 50  0000 C CNN
	1    8300 2950
	1    0    0    -1  
$EndComp
$Comp
L +9VA #PWR081
U 1 1 568F804E
P 9650 2900
F 0 "#PWR081" H 9650 2775 50  0001 C CNN
F 1 "+9VA" H 9650 3050 50  0000 C CNN
F 2 "" H 9650 2900 50  0000 C CNN
F 3 "" H 9650 2900 50  0000 C CNN
	1    9650 2900
	1    0    0    -1  
$EndComp
$Comp
L -9VA #PWR082
U 1 1 568F8054
P 9650 3600
F 0 "#PWR082" H 9650 3475 50  0001 C CNN
F 1 "-9VA" H 9650 3750 50  0000 C CNN
F 2 "" H 9650 3600 50  0000 C CNN
F 3 "" H 9650 3600 50  0000 C CNN
	1    9650 3600
	-1   0    0    1   
$EndComp
$Comp
L GNDA #PWR083
U 1 1 568F8E87
P 10250 2800
F 0 "#PWR083" H 10250 2550 50  0001 C CNN
F 1 "GNDA" H 10250 2650 50  0000 C CNN
F 2 "" H 10250 2800 60  0000 C CNN
F 3 "" H 10250 2800 60  0000 C CNN
	1    10250 2800
	-1   0    0    -1  
$EndComp
Text Label 10800 2150 2    60   ~ 0
VCML
$Comp
L +9VA #PWR084
U 1 1 5748E332
P 8750 1750
F 0 "#PWR084" H 8750 1625 50  0001 C CNN
F 1 "+9VA" H 8750 1900 50  0000 C CNN
F 2 "" H 8750 1750 50  0000 C CNN
F 3 "" H 8750 1750 50  0000 C CNN
	1    8750 1750
	1    0    0    -1  
$EndComp
Text HLabel 6950 2050 0    60   Input ~ 0
VCOML
$Comp
L GNDA #PWR085
U 1 1 5748E333
P 7650 2700
F 0 "#PWR085" H 7650 2450 50  0001 C CNN
F 1 "GNDA" H 7650 2550 50  0000 C CNN
F 2 "" H 7650 2700 60  0000 C CNN
F 3 "" H 7650 2700 60  0000 C CNN
	1    7650 2700
	-1   0    0    -1  
$EndComp
Text HLabel 6350 1750 2    60   Output ~ 0
ANAL+
Text HLabel 6350 2950 2    60   Output ~ 0
ANAL-
Text HLabel 6350 5100 2    60   Output ~ 0
ANAR+
Text HLabel 6350 6300 2    60   Output ~ 0
ANAR-
$Comp
L IC-OPAMP-SINGLE-SOIC8 U406
U 1 1 5748E317
P 8750 4650
F 0 "U406" H 8800 4900 60  0000 L CNN
F 1 "TLE2071" H 8800 4800 60  0000 L CNN
F 2 "MyKiCadLibs-Footprints:IC_SOIC_8" H 8750 4650 60  0001 C CNN
F 3 "" H 8750 4650 60  0000 C CNN
F 4 "LOW-NOISE HIGH-SPEED JFET-INPUT OPERATIONAL AMPLIFIERS - SINGLE" H 8750 4650 60  0001 C CNN "Description"
	1    8750 4650
	1    0    0    -1  
$EndComp
$Comp
L GNDA #PWR086
U 1 1 568ED1B7
P 8300 6050
F 0 "#PWR086" H 8300 5800 50  0001 C CNN
F 1 "GNDA" H 8300 5900 50  0000 C CNN
F 2 "" H 8300 6050 60  0000 C CNN
F 3 "" H 8300 6050 60  0000 C CNN
	1    8300 6050
	-1   0    0    -1  
$EndComp
$Comp
L -9VA #PWR087
U 1 1 5748E319
P 8750 5050
F 0 "#PWR087" H 8750 4925 50  0001 C CNN
F 1 "-9VA" H 8750 5200 50  0000 C CNN
F 2 "" H 8750 5050 50  0000 C CNN
F 3 "" H 8750 5050 50  0000 C CNN
	1    8750 5050
	-1   0    0    1   
$EndComp
$Comp
L GNDA #PWR088
U 1 1 568ED1CF
P 8900 5550
F 0 "#PWR088" H 8900 5300 50  0001 C CNN
F 1 "GNDA" H 8900 5400 50  0000 C CNN
F 2 "" H 8900 5550 60  0000 C CNN
F 3 "" H 8900 5550 60  0000 C CNN
	1    8900 5550
	-1   0    0    -1  
$EndComp
$Comp
L -9VA #PWR089
U 1 1 568ED1D5
P 8600 6050
F 0 "#PWR089" H 8600 5925 50  0001 C CNN
F 1 "-9VA" H 8600 6200 50  0000 C CNN
F 2 "" H 8600 6050 50  0000 C CNN
F 3 "" H 8600 6050 50  0000 C CNN
	1    8600 6050
	-1   0    0    1   
$EndComp
$Comp
L +9VA #PWR090
U 1 1 568ED1DB
P 8300 5450
F 0 "#PWR090" H 8300 5325 50  0001 C CNN
F 1 "+9VA" H 8300 5600 50  0000 C CNN
F 2 "" H 8300 5450 50  0000 C CNN
F 3 "" H 8300 5450 50  0000 C CNN
	1    8300 5450
	1    0    0    -1  
$EndComp
$Comp
L +9VA #PWR091
U 1 1 5748E31D
P 9650 5400
F 0 "#PWR091" H 9650 5275 50  0001 C CNN
F 1 "+9VA" H 9650 5550 50  0000 C CNN
F 2 "" H 9650 5400 50  0000 C CNN
F 3 "" H 9650 5400 50  0000 C CNN
	1    9650 5400
	1    0    0    -1  
$EndComp
$Comp
L -9VA #PWR092
U 1 1 568ED1ED
P 9650 6100
F 0 "#PWR092" H 9650 5975 50  0001 C CNN
F 1 "-9VA" H 9650 6250 50  0000 C CNN
F 2 "" H 9650 6100 50  0000 C CNN
F 3 "" H 9650 6100 50  0000 C CNN
	1    9650 6100
	-1   0    0    1   
$EndComp
$Comp
L GNDA #PWR093
U 1 1 5748E31F
P 10250 5300
F 0 "#PWR093" H 10250 5050 50  0001 C CNN
F 1 "GNDA" H 10250 5150 50  0000 C CNN
F 2 "" H 10250 5300 60  0000 C CNN
F 3 "" H 10250 5300 60  0000 C CNN
	1    10250 5300
	-1   0    0    -1  
$EndComp
Text Label 10800 4650 2    60   ~ 0
VCMR
$Comp
L +9VA #PWR094
U 1 1 5748E320
P 8750 4250
F 0 "#PWR094" H 8750 4125 50  0001 C CNN
F 1 "+9VA" H 8750 4400 50  0000 C CNN
F 2 "" H 8750 4250 50  0000 C CNN
F 3 "" H 8750 4250 50  0000 C CNN
	1    8750 4250
	1    0    0    -1  
$EndComp
Text HLabel 6950 4550 0    60   Input ~ 0
VCOMR
$Comp
L GNDA #PWR095
U 1 1 568ED245
P 7650 5200
F 0 "#PWR095" H 7650 4950 50  0001 C CNN
F 1 "GNDA" H 7650 5050 50  0000 C CNN
F 2 "" H 7650 5200 60  0000 C CNN
F 3 "" H 7650 5200 60  0000 C CNN
	1    7650 5200
	-1   0    0    -1  
$EndComp
Text Label 3350 2850 0    60   ~ 0
VCML
$Comp
L GNDA #PWR096
U 1 1 5698DC37
P 2950 1200
F 0 "#PWR096" H 2950 950 50  0001 C CNN
F 1 "GNDA" H 2950 1050 50  0000 C CNN
F 2 "" H 2950 1200 60  0000 C CNN
F 3 "" H 2950 1200 60  0000 C CNN
	1    2950 1200
	-1   0    0    -1  
$EndComp
Text Label 2650 700  0    60   ~ 0
VCML
$Comp
L GNDA #PWR097
U 1 1 5698E383
P 3200 1200
F 0 "#PWR097" H 3200 950 50  0001 C CNN
F 1 "GNDA" H 3200 1050 50  0000 C CNN
F 2 "" H 3200 1200 60  0000 C CNN
F 3 "" H 3200 1200 60  0000 C CNN
	1    3200 1200
	-1   0    0    -1  
$EndComp
$Comp
L GNDA #PWR098
U 1 1 56990117
P 3500 1200
F 0 "#PWR098" H 3500 950 50  0001 C CNN
F 1 "GNDA" H 3500 1050 50  0000 C CNN
F 2 "" H 3500 1200 60  0000 C CNN
F 3 "" H 3500 1200 60  0000 C CNN
	1    3500 1200
	-1   0    0    -1  
$EndComp
$Comp
L GNDA #PWR099
U 1 1 56990128
P 3750 1200
F 0 "#PWR099" H 3750 950 50  0001 C CNN
F 1 "GNDA" H 3750 1050 50  0000 C CNN
F 2 "" H 3750 1200 60  0000 C CNN
F 3 "" H 3750 1200 60  0000 C CNN
	1    3750 1200
	-1   0    0    -1  
$EndComp
Text Notes 800  825  0    118  ~ 0
Input Filters
Text Notes 800  1500 0    60   ~ 0
Op-amps can be any good quality\nfast audio grade devices.\nTLE207x listed as examples.\nOther parts such as NE5532,\nOPA1652, OPA1642 would work for\nU401 and U402.\n\n
$Comp
L R R403
U 1 1 571388FA
P 1600 1850
F 0 "R403" V 1520 1850 40  0000 C CNN
F 1 "100" V 1607 1851 40  0000 C CNN
F 2 "MyKiCadLibs-Footprints:SMD-1206" V 1530 1850 30  0001 C CNN
F 3 "" V 1520 1850 30  0000 C CNN
F 4 "250mW" V 1700 1850 40  0001 C CNN "Power"
F 5 "MELF0204 1% =>250mW or 1206 1% =>250mW" V 1845 1850 40  0001 C CNN "Description"
F 6 "1206" V 1775 1850 40  0001 C CNN "Size"
F 7 "1%" V 1925 1850 40  0001 C CNN "Tolerance"
	1    1600 1850
	0    1    1    0   
$EndComp
$Comp
L C C424
U 1 1 571396AF
P 3200 950
F 0 "C424" H 3200 1050 40  0000 L CNN
F 1 "10u" H 3210 865 40  0000 L CNN
F 2 "MyKiCadLibs-Footprints:SMD-0805" H 3238 800 30  0001 C CNN
F 3 "" H 3200 1050 60  0000 C CNN
F 4 "10V" H 3215 795 40  0000 L CNN "Voltage"
F 5 "X5R" H 3215 725 40  0000 L CNN "Type"
F 6 "Ceramic capacitor" H 3200 1250 40  0001 L CNN "Description"
F 7 "20%" H 3270 585 40  0001 C CNN "Tolerance"
F 8 "0805" H 3210 655 40  0001 L CNN "Size"
	1    3200 950 
	1    0    0    -1  
$EndComp
$Comp
L C C422
U 1 1 571396BA
P 2950 950
F 0 "C422" H 2950 1050 40  0000 L CNN
F 1 "100n" H 2960 865 40  0000 L CNN
F 2 "MyKiCadLibs-Footprints:SMD-0805" H 2988 800 30  0001 C CNN
F 3 "" H 2950 1050 60  0000 C CNN
F 4 "50V" H 2965 795 40  0000 L CNN "Voltage"
F 5 "X7R" H 2965 725 40  0000 L CNN "Type"
F 6 "Ceramic capacitor" H 2950 1250 40  0001 L CNN "Description"
F 7 "10%" H 3020 585 40  0001 C CNN "Tolerance"
F 8 "0805" H 2960 655 40  0001 L CNN "Size"
	1    2950 950 
	1    0    0    -1  
$EndComp
$Comp
L CP1 C414
U 1 1 57139791
P 2900 1850
F 0 "C414" H 2950 1950 50  0000 L CNN
F 1 "100u" H 2950 1750 50  0000 L CNN
F 2 "MyKiCadLibs-Footprints:CAP-TH-D10mmP5mm" H 2900 1850 60  0001 C CNN
F 3 "" H 2900 1850 60  0000 C CNN
F 4 "50V" H 3025 1670 50  0000 C CNN "Voltage"
F 5 "5mm Pitch, 10mm Diameter" H 2900 1850 60  0001 C CNN "Size"
F 6 "Aluminium electrolytic - Panasonic FC, Audio Grade, or Bipolar part" H 2900 1850 60  0001 C CNN "Description"
	1    2900 1850
	0    1    1    0   
$EndComp
$Comp
L C C430
U 1 1 5713A8F1
P 3750 950
F 0 "C430" H 3750 1050 40  0000 L CNN
F 1 "10u" H 3760 865 40  0000 L CNN
F 2 "MyKiCadLibs-Footprints:SMD-0805" H 3788 800 30  0001 C CNN
F 3 "" H 3750 1050 60  0000 C CNN
F 4 "10V" H 3765 795 40  0000 L CNN "Voltage"
F 5 "X5R" H 3765 725 40  0000 L CNN "Type"
F 6 "Ceramic capacitor" H 3750 1250 40  0001 L CNN "Description"
F 7 "20%" H 3820 585 40  0001 C CNN "Tolerance"
F 8 "0805" H 3760 655 40  0001 L CNN "Size"
	1    3750 950 
	1    0    0    -1  
$EndComp
$Comp
L C C427
U 1 1 5713A8FC
P 3500 950
F 0 "C427" H 3500 1050 40  0000 L CNN
F 1 "100n" H 3510 865 40  0000 L CNN
F 2 "MyKiCadLibs-Footprints:SMD-0805" H 3538 800 30  0001 C CNN
F 3 "" H 3500 1050 60  0000 C CNN
F 4 "50V" H 3515 795 40  0000 L CNN "Voltage"
F 5 "X7R" H 3515 725 40  0000 L CNN "Type"
F 6 "Ceramic capacitor" H 3500 1250 40  0001 L CNN "Description"
F 7 "10%" H 3570 585 40  0001 C CNN "Tolerance"
F 8 "0805" H 3510 655 40  0001 L CNN "Size"
	1    3500 950 
	1    0    0    -1  
$EndComp
$Comp
L C C415
U 1 1 5713B64B
P 2900 2150
F 0 "C415" H 2900 2250 40  0000 L CNN
F 1 "100n" H 2910 2065 40  0000 L CNN
F 2 "MyKiCadLibs-Footprints:CAP_TH_5mm" H 2938 2000 30  0001 C CNN
F 3 "" H 2900 2250 60  0000 C CNN
F 4 "63V" H 2915 1995 40  0000 L CNN "Voltage"
F 5 "Film" H 2915 1925 40  0000 L CNN "Type"
F 6 "Polyester capacitor - 5mm pitch - 5.5mm width max" H 2900 2450 40  0001 L CNN "Description"
F 7 "10%" H 2970 1785 40  0001 C CNN "Tolerance"
F 8 "5mm" H 2910 1855 40  0001 L CNN "Size"
	1    2900 2150
	0    -1   1    0   
$EndComp
$Comp
L C C401
U 1 1 5713C93F
P 750 4300
F 0 "C401" H 750 4400 40  0000 L CNN
F 1 "100n" H 760 4215 40  0000 L CNN
F 2 "MyKiCadLibs-Footprints:SMD-0805" H 788 4150 30  0001 C CNN
F 3 "" H 750 4400 60  0000 C CNN
F 4 "50V" H 765 4145 40  0000 L CNN "Voltage"
F 5 "X7R" H 765 4075 40  0000 L CNN "Type"
F 6 "Ceramic capacitor" H 750 4600 40  0001 L CNN "Description"
F 7 "10%" H 820 3935 40  0001 C CNN "Tolerance"
F 8 "0805" H 760 4005 40  0001 L CNN "Size"
	1    750  4300
	1    0    0    -1  
$EndComp
$Comp
L C C403
U 1 1 5713CD65
P 1000 4300
F 0 "C403" H 1000 4400 40  0000 L CNN
F 1 "100n" H 1010 4215 40  0000 L CNN
F 2 "MyKiCadLibs-Footprints:SMD-0805" H 1038 4150 30  0001 C CNN
F 3 "" H 1000 4400 60  0000 C CNN
F 4 "50V" H 1015 4145 40  0000 L CNN "Voltage"
F 5 "X7R" H 1015 4075 40  0000 L CNN "Type"
F 6 "Ceramic capacitor" H 1000 4600 40  0001 L CNN "Description"
F 7 "10%" H 1070 3935 40  0001 C CNN "Tolerance"
F 8 "0805" H 1010 4005 40  0001 L CNN "Size"
	1    1000 4300
	1    0    0    -1  
$EndComp
$Comp
L C C408
U 1 1 5713D153
P 2000 2150
F 0 "C408" H 2000 2250 40  0000 L CNN
F 1 "100p" H 2010 2065 40  0000 L CNN
F 2 "MyKiCadLibs-Footprints:SMD-0805" H 2038 2000 30  0001 C CNN
F 3 "" H 2000 2250 60  0000 C CNN
F 4 "50V" H 2015 1995 40  0000 L CNN "Voltage"
F 5 "C0G" H 2015 1925 40  0000 L CNN "Type"
F 6 "Ceramic capacitor" H 2000 2450 40  0001 L CNN "Description"
F 7 "5%" H 2070 1785 40  0001 C CNN "Tolerance"
F 8 "0805" H 2010 1855 40  0001 L CNN "Size"
	1    2000 2150
	1    0    0    -1  
$EndComp
$Comp
L R R411
U 1 1 5713D677
P 3500 1850
F 0 "R411" V 3420 1850 40  0000 C CNN
F 1 "4k7" V 3507 1851 40  0000 C CNN
F 2 "MyKiCadLibs-Footprints:SMD-1206" V 3430 1850 30  0001 C CNN
F 3 "" V 3420 1850 30  0000 C CNN
F 4 "250mW" V 3600 1850 40  0001 C CNN "Power"
F 5 "MELF0204 1% =>250mW or 1206 1% =>250mW" V 3745 1850 40  0001 C CNN "Description"
F 6 "1206" V 3675 1850 40  0001 C CNN "Size"
F 7 "1%" V 3825 1850 40  0001 C CNN "Tolerance"
	1    3500 1850
	0    -1   -1   0   
$EndComp
$Comp
L R R419
U 1 1 5713ECF8
P 4500 800
F 0 "R419" V 4420 800 40  0000 C CNN
F 1 "10k" V 4507 801 40  0000 C CNN
F 2 "MyKiCadLibs-Footprints:SMD-1206" V 4430 800 30  0001 C CNN
F 3 "" V 4420 800 30  0000 C CNN
F 4 "250mW" V 4600 800 40  0001 C CNN "Power"
F 5 "MELF0204 1% =>250mW or 1206 1% =>250mW" V 4745 800 40  0001 C CNN "Description"
F 6 "1206" V 4675 800 40  0001 C CNN "Size"
F 7 "1%" V 4825 800 40  0001 C CNN "Tolerance"
	1    4500 800 
	0    1    1    0   
$EndComp
$Comp
L C C402
U 1 1 5713FF96
P 900 7050
F 0 "C402" H 900 7150 40  0000 L CNN
F 1 "10u" H 910 6965 40  0000 L CNN
F 2 "MyKiCadLibs-Footprints:SMD-1206" H 938 6900 30  0001 C CNN
F 3 "" H 900 7150 60  0000 C CNN
F 4 "35V" H 915 6895 40  0000 L CNN "Voltage"
F 5 "X5R" H 915 6825 40  0000 L CNN "Type"
F 6 "Ceramic capacitor" H 900 7350 40  0001 L CNN "Description"
F 7 "20%" H 970 6685 40  0001 C CNN "Tolerance"
F 8 "1206" H 910 6755 40  0000 L CNN "Size"
	1    900  7050
	1    0    0    -1  
$EndComp
$Comp
L C C404
U 1 1 5713FFA1
P 1150 7050
F 0 "C404" H 1150 7150 40  0000 L CNN
F 1 "100n" H 1160 6965 40  0000 L CNN
F 2 "MyKiCadLibs-Footprints:SMD-0805" H 1188 6900 30  0001 C CNN
F 3 "" H 1150 7150 60  0000 C CNN
F 4 "50V" H 1165 6895 40  0000 L CNN "Voltage"
F 5 "X7R" H 1165 6825 40  0000 L CNN "Type"
F 6 "Ceramic capacitor" H 1150 7350 40  0001 L CNN "Description"
F 7 "10%" H 1220 6685 40  0001 C CNN "Tolerance"
F 8 "0805" H 1160 6755 40  0001 L CNN "Size"
	1    1150 7050
	1    0    0    -1  
$EndComp
$Comp
L C C405
U 1 1 5714020C
P 1400 7050
F 0 "C405" H 1400 7150 40  0000 L CNN
F 1 "10n" H 1410 6965 40  0000 L CNN
F 2 "MyKiCadLibs-Footprints:SMD-0805" H 1438 6900 30  0001 C CNN
F 3 "" H 1400 7150 60  0000 C CNN
F 4 "50V" H 1415 6895 40  0000 L CNN "Voltage"
F 5 "X7R" H 1415 6825 40  0000 L CNN "Type"
F 6 "Ceramic capacitor" H 1400 7350 40  0001 L CNN "Description"
F 7 "10%" H 1470 6685 40  0001 C CNN "Tolerance"
F 8 "0805" H 1410 6755 40  0001 L CNN "Size"
	1    1400 7050
	1    0    0    -1  
$EndComp
$Comp
L C C432
U 1 1 57141063
P 4450 1000
F 0 "C432" H 4450 1100 40  0000 L CNN
F 1 "47p" H 4460 915 40  0000 L CNN
F 2 "MyKiCadLibs-Footprints:SMD-0805" H 4488 850 30  0001 C CNN
F 3 "" H 4450 1100 60  0000 C CNN
F 4 "50V" H 4465 845 40  0000 L CNN "Voltage"
F 5 "C0G" H 4465 775 40  0000 L CNN "Type"
F 6 "Ceramic capacitor" H 4450 1300 40  0001 L CNN "Description"
F 7 "5%" H 4520 635 40  0001 C CNN "Tolerance"
F 8 "0805" H 4460 705 40  0001 L CNN "Size"
	1    4450 1000
	0    -1   1    0   
$EndComp
$Comp
L R R423
U 1 1 57142BE5
P 5700 1750
F 0 "R423" V 5620 1750 40  0000 C CNN
F 1 "40R2" V 5707 1751 40  0000 C CNN
F 2 "MyKiCadLibs-Footprints:SMD-1206" V 5630 1750 30  0001 C CNN
F 3 "" V 5620 1750 30  0000 C CNN
F 4 "250mW" V 5800 1750 40  0001 C CNN "Power"
F 5 "MELF0204 1% =>250mW or 1206 1% =>250mW" V 5945 1750 40  0001 C CNN "Description"
F 6 "1206" V 5875 1750 40  0001 C CNN "Size"
F 7 "1%" V 6025 1750 40  0001 C CNN "Tolerance"
	1    5700 1750
	0    1    1    0   
$EndComp
$Comp
L R R424
U 1 1 57142FCD
P 5700 2950
F 0 "R424" V 5620 2950 40  0000 C CNN
F 1 "40R2" V 5707 2951 40  0000 C CNN
F 2 "MyKiCadLibs-Footprints:SMD-1206" V 5630 2950 30  0001 C CNN
F 3 "" V 5620 2950 30  0000 C CNN
F 4 "250mW" V 5800 2950 40  0001 C CNN "Power"
F 5 "MELF0204 1% =>250mW or 1206 1% =>250mW" V 5945 2950 40  0001 C CNN "Description"
F 6 "1206" V 5875 2950 40  0001 C CNN "Size"
F 7 "1%" V 6025 2950 40  0001 C CNN "Tolerance"
	1    5700 2950
	0    1    1    0   
$EndComp
$Comp
L R R427
U 1 1 57143E4C
P 7300 2050
F 0 "R427" V 7220 2050 40  0000 C CNN
F 1 "1k" V 7307 2051 40  0000 C CNN
F 2 "MyKiCadLibs-Footprints:SMD-1206" V 7230 2050 30  0001 C CNN
F 3 "" V 7220 2050 30  0000 C CNN
F 4 "250mW" V 7400 2050 40  0001 C CNN "Power"
F 5 "MELF0204 1% =>250mW or 1206 1% =>250mW" V 7545 2050 40  0001 C CNN "Description"
F 6 "1206" V 7475 2050 40  0001 C CNN "Size"
F 7 "1%" V 7625 2050 40  0001 C CNN "Tolerance"
	1    7300 2050
	0    1    -1   0   
$EndComp
$Comp
L C C438
U 1 1 5714648A
P 7650 2350
F 0 "C438" H 7650 2450 40  0000 L CNN
F 1 "100n" H 7660 2265 40  0000 L CNN
F 2 "MyKiCadLibs-Footprints:SMD-0805" H 7688 2200 30  0001 C CNN
F 3 "" H 7650 2450 60  0000 C CNN
F 4 "50V" H 7665 2195 40  0000 L CNN "Voltage"
F 5 "X7R" H 7665 2125 40  0000 L CNN "Type"
F 6 "Ceramic capacitor" H 7650 2650 40  0001 L CNN "Description"
F 7 "10%" H 7720 1985 40  0001 C CNN "Tolerance"
F 8 "0805" H 7660 2055 40  0001 L CNN "Size"
	1    7650 2350
	1    0    0    -1  
$EndComp
$Comp
L C C440
U 1 1 57146B42
P 7900 2350
F 0 "C440" H 7900 2450 40  0000 L CNN
F 1 "10n" H 7910 2265 40  0000 L CNN
F 2 "MyKiCadLibs-Footprints:SMD-0805" H 7938 2200 30  0001 C CNN
F 3 "" H 7900 2450 60  0000 C CNN
F 4 "50V" H 7915 2195 40  0000 L CNN "Voltage"
F 5 "X7R" H 7915 2125 40  0000 L CNN "Type"
F 6 "Ceramic capacitor" H 7900 2650 40  0001 L CNN "Description"
F 7 "10%" H 7970 1985 40  0001 C CNN "Tolerance"
F 8 "0805" H 7910 2055 40  0001 L CNN "Size"
	1    7900 2350
	1    0    0    -1  
$EndComp
$Comp
L C C454
U 1 1 571473F8
P 10550 2450
F 0 "C454" H 10550 2550 40  0000 L CNN
F 1 "100n" H 10560 2365 40  0000 L CNN
F 2 "MyKiCadLibs-Footprints:SMD-0805" H 10588 2300 30  0001 C CNN
F 3 "" H 10550 2550 60  0000 C CNN
F 4 "50V" H 10565 2295 40  0000 L CNN "Voltage"
F 5 "X7R" H 10565 2225 40  0000 L CNN "Type"
F 6 "Ceramic capacitor" H 10550 2750 40  0001 L CNN "Description"
F 7 "10%" H 10620 2085 40  0001 C CNN "Tolerance"
F 8 "0805" H 10560 2155 40  0001 L CNN "Size"
	1    10550 2450
	1    0    0    -1  
$EndComp
$Comp
L C C456
U 1 1 57147403
P 10800 2450
F 0 "C456" H 10800 2550 40  0000 L CNN
F 1 "10n" H 10810 2365 40  0000 L CNN
F 2 "MyKiCadLibs-Footprints:SMD-0805" H 10838 2300 30  0001 C CNN
F 3 "" H 10800 2550 60  0000 C CNN
F 4 "50V" H 10815 2295 40  0000 L CNN "Voltage"
F 5 "X7R" H 10815 2225 40  0000 L CNN "Type"
F 6 "Ceramic capacitor" H 10800 2750 40  0001 L CNN "Description"
F 7 "10%" H 10870 2085 40  0001 C CNN "Tolerance"
F 8 "0805" H 10810 2155 40  0001 L CNN "Size"
	1    10800 2450
	1    0    0    -1  
$EndComp
$Comp
L R R429
U 1 1 571474C5
P 9900 2150
F 0 "R429" V 9820 2150 40  0000 C CNN
F 1 "1k" V 9907 2151 40  0000 C CNN
F 2 "MyKiCadLibs-Footprints:SMD-1206" V 9830 2150 30  0001 C CNN
F 3 "" V 9820 2150 30  0000 C CNN
F 4 "250mW" V 10000 2150 40  0001 C CNN "Power"
F 5 "MELF0204 1% =>250mW or 1206 1% =>250mW" V 10145 2150 40  0001 C CNN "Description"
F 6 "1206" V 10075 2150 40  0001 C CNN "Size"
F 7 "1%" V 10225 2150 40  0001 C CNN "Tolerance"
	1    9900 2150
	0    1    -1   0   
$EndComp
$Comp
L CP1 C452
U 1 1 57148E4C
P 10250 2450
F 0 "C452" H 10300 2550 50  0000 L CNN
F 1 "47u" H 10300 2350 50  0000 L CNN
F 2 "MyKiCadLibs-Footprints:CAP-TH-D6.3mmP2.5mm" H 10250 2450 60  0001 C CNN
F 3 "" H 10250 2450 60  0000 C CNN
F 4 "10V" H 10375 2270 50  0000 C CNN "Voltage"
F 5 "2.5mm Pitch, 6.3mm Diameter" H 10250 2450 60  0001 C CNN "Size"
F 6 "Aluminium electrolytic low impedance capacitor - eg Panasonic FC or FR parts" H 10250 2450 60  0001 C CNN "Description"
	1    10250 2450
	1    0    0    -1  
$EndComp
$Comp
L C C446
U 1 1 5714A4D1
P 9150 3200
F 0 "C446" H 9150 3300 40  0000 L CNN
F 1 "10u" H 9160 3115 40  0000 L CNN
F 2 "MyKiCadLibs-Footprints:SMD-1206" H 9188 3050 30  0001 C CNN
F 3 "" H 9150 3300 60  0000 C CNN
F 4 "35V" H 9165 3045 40  0000 L CNN "Voltage"
F 5 "X5R" H 9165 2975 40  0000 L CNN "Type"
F 6 "Ceramic capacitor" H 9150 3500 40  0001 L CNN "Description"
F 7 "20%" H 9220 2835 40  0001 C CNN "Tolerance"
F 8 "1206" H 9160 2905 40  0000 L CNN "Size"
	1    9150 3200
	1    0    0    -1  
$EndComp
$Comp
L C C448
U 1 1 5714A4DC
P 9400 3200
F 0 "C448" H 9400 3300 40  0000 L CNN
F 1 "100n" H 9410 3115 40  0000 L CNN
F 2 "MyKiCadLibs-Footprints:SMD-0805" H 9438 3050 30  0001 C CNN
F 3 "" H 9400 3300 60  0000 C CNN
F 4 "50V" H 9415 3045 40  0000 L CNN "Voltage"
F 5 "X7R" H 9415 2975 40  0000 L CNN "Type"
F 6 "Ceramic capacitor" H 9400 3500 40  0001 L CNN "Description"
F 7 "10%" H 9470 2835 40  0001 C CNN "Tolerance"
F 8 "0805" H 9410 2905 40  0001 L CNN "Size"
	1    9400 3200
	1    0    0    -1  
$EndComp
$Comp
L C C450
U 1 1 5714A4E7
P 9650 3200
F 0 "C450" H 9650 3300 40  0000 L CNN
F 1 "10n" H 9660 3115 40  0000 L CNN
F 2 "MyKiCadLibs-Footprints:SMD-0805" H 9688 3050 30  0001 C CNN
F 3 "" H 9650 3300 60  0000 C CNN
F 4 "50V" H 9665 3045 40  0000 L CNN "Voltage"
F 5 "X7R" H 9665 2975 40  0000 L CNN "Type"
F 6 "Ceramic capacitor" H 9650 3500 40  0001 L CNN "Description"
F 7 "10%" H 9720 2835 40  0001 C CNN "Tolerance"
F 8 "0805" H 9660 2905 40  0001 L CNN "Size"
	1    9650 3200
	1    0    0    -1  
$EndComp
$Comp
L C C442
U 1 1 5714A627
P 8300 3250
F 0 "C442" H 8300 3350 40  0000 L CNN
F 1 "100n" H 8310 3165 40  0000 L CNN
F 2 "MyKiCadLibs-Footprints:SMD-0805" H 8338 3100 30  0001 C CNN
F 3 "" H 8300 3350 60  0000 C CNN
F 4 "50V" H 8315 3095 40  0000 L CNN "Voltage"
F 5 "X7R" H 8315 3025 40  0000 L CNN "Type"
F 6 "Ceramic capacitor" H 8300 3550 40  0001 L CNN "Description"
F 7 "10%" H 8370 2885 40  0001 C CNN "Tolerance"
F 8 "0805" H 8310 2955 40  0001 L CNN "Size"
	1    8300 3250
	1    0    0    -1  
$EndComp
$Comp
L C C444
U 1 1 5714A632
P 8600 3250
F 0 "C444" H 8600 3350 40  0000 L CNN
F 1 "100n" H 8610 3165 40  0000 L CNN
F 2 "MyKiCadLibs-Footprints:SMD-0805" H 8638 3100 30  0001 C CNN
F 3 "" H 8600 3350 60  0000 C CNN
F 4 "50V" H 8615 3095 40  0000 L CNN "Voltage"
F 5 "X7R" H 8615 3025 40  0000 L CNN "Type"
F 6 "Ceramic capacitor" H 8600 3550 40  0001 L CNN "Description"
F 7 "10%" H 8670 2885 40  0001 C CNN "Tolerance"
F 8 "0805" H 8610 2955 40  0001 L CNN "Size"
	1    8600 3250
	1    0    0    -1  
$EndComp
$Comp
L R R428
U 1 1 5715B9FC
P 7300 4550
F 0 "R428" V 7220 4550 40  0000 C CNN
F 1 "1k" V 7307 4551 40  0000 C CNN
F 2 "MyKiCadLibs-Footprints:SMD-1206" V 7230 4550 30  0001 C CNN
F 3 "" V 7220 4550 30  0000 C CNN
F 4 "250mW" V 7400 4550 40  0001 C CNN "Power"
F 5 "MELF0204 1% =>250mW or 1206 1% =>250mW" V 7545 4550 40  0001 C CNN "Description"
F 6 "1206" V 7475 4550 40  0001 C CNN "Size"
F 7 "1%" V 7625 4550 40  0001 C CNN "Tolerance"
	1    7300 4550
	0    1    -1   0   
$EndComp
$Comp
L C C439
U 1 1 5715BB89
P 7650 4850
F 0 "C439" H 7650 4950 40  0000 L CNN
F 1 "100n" H 7660 4765 40  0000 L CNN
F 2 "MyKiCadLibs-Footprints:SMD-0805" H 7688 4700 30  0001 C CNN
F 3 "" H 7650 4950 60  0000 C CNN
F 4 "50V" H 7665 4695 40  0000 L CNN "Voltage"
F 5 "X7R" H 7665 4625 40  0000 L CNN "Type"
F 6 "Ceramic capacitor" H 7650 5150 40  0001 L CNN "Description"
F 7 "10%" H 7720 4485 40  0001 C CNN "Tolerance"
F 8 "0805" H 7660 4555 40  0001 L CNN "Size"
	1    7650 4850
	1    0    0    -1  
$EndComp
$Comp
L C C441
U 1 1 5715BB94
P 7900 4850
F 0 "C441" H 7900 4950 40  0000 L CNN
F 1 "10n" H 7910 4765 40  0000 L CNN
F 2 "MyKiCadLibs-Footprints:SMD-0805" H 7938 4700 30  0001 C CNN
F 3 "" H 7900 4950 60  0000 C CNN
F 4 "50V" H 7915 4695 40  0000 L CNN "Voltage"
F 5 "X7R" H 7915 4625 40  0000 L CNN "Type"
F 6 "Ceramic capacitor" H 7900 5150 40  0001 L CNN "Description"
F 7 "10%" H 7970 4485 40  0001 C CNN "Tolerance"
F 8 "0805" H 7910 4555 40  0001 L CNN "Size"
	1    7900 4850
	1    0    0    -1  
$EndComp
$Comp
L C C443
U 1 1 5715BC92
P 8300 5750
F 0 "C443" H 8300 5850 40  0000 L CNN
F 1 "100n" H 8310 5665 40  0000 L CNN
F 2 "MyKiCadLibs-Footprints:SMD-0805" H 8338 5600 30  0001 C CNN
F 3 "" H 8300 5850 60  0000 C CNN
F 4 "50V" H 8315 5595 40  0000 L CNN "Voltage"
F 5 "X7R" H 8315 5525 40  0000 L CNN "Type"
F 6 "Ceramic capacitor" H 8300 6050 40  0001 L CNN "Description"
F 7 "10%" H 8370 5385 40  0001 C CNN "Tolerance"
F 8 "0805" H 8310 5455 40  0001 L CNN "Size"
	1    8300 5750
	1    0    0    -1  
$EndComp
$Comp
L C C445
U 1 1 5715BC9D
P 8600 5750
F 0 "C445" H 8600 5850 40  0000 L CNN
F 1 "100n" H 8610 5665 40  0000 L CNN
F 2 "MyKiCadLibs-Footprints:SMD-0805" H 8638 5600 30  0001 C CNN
F 3 "" H 8600 5850 60  0000 C CNN
F 4 "50V" H 8615 5595 40  0000 L CNN "Voltage"
F 5 "X7R" H 8615 5525 40  0000 L CNN "Type"
F 6 "Ceramic capacitor" H 8600 6050 40  0001 L CNN "Description"
F 7 "10%" H 8670 5385 40  0001 C CNN "Tolerance"
F 8 "0805" H 8610 5455 40  0001 L CNN "Size"
	1    8600 5750
	1    0    0    -1  
$EndComp
$Comp
L C C447
U 1 1 5715BDC9
P 9150 5700
F 0 "C447" H 9150 5800 40  0000 L CNN
F 1 "10u" H 9160 5615 40  0000 L CNN
F 2 "MyKiCadLibs-Footprints:SMD-1206" H 9188 5550 30  0001 C CNN
F 3 "" H 9150 5800 60  0000 C CNN
F 4 "35V" H 9165 5545 40  0000 L CNN "Voltage"
F 5 "X5R" H 9165 5475 40  0000 L CNN "Type"
F 6 "Ceramic capacitor" H 9150 6000 40  0001 L CNN "Description"
F 7 "20%" H 9220 5335 40  0001 C CNN "Tolerance"
F 8 "1206" H 9160 5405 40  0000 L CNN "Size"
	1    9150 5700
	1    0    0    -1  
$EndComp
$Comp
L C C449
U 1 1 5715BDD4
P 9400 5700
F 0 "C449" H 9400 5800 40  0000 L CNN
F 1 "100n" H 9410 5615 40  0000 L CNN
F 2 "MyKiCadLibs-Footprints:SMD-0805" H 9438 5550 30  0001 C CNN
F 3 "" H 9400 5800 60  0000 C CNN
F 4 "50V" H 9415 5545 40  0000 L CNN "Voltage"
F 5 "X7R" H 9415 5475 40  0000 L CNN "Type"
F 6 "Ceramic capacitor" H 9400 6000 40  0001 L CNN "Description"
F 7 "10%" H 9470 5335 40  0001 C CNN "Tolerance"
F 8 "0805" H 9410 5405 40  0001 L CNN "Size"
	1    9400 5700
	1    0    0    -1  
$EndComp
$Comp
L C C451
U 1 1 5715BDDF
P 9650 5700
F 0 "C451" H 9650 5800 40  0000 L CNN
F 1 "10n" H 9660 5615 40  0000 L CNN
F 2 "MyKiCadLibs-Footprints:SMD-0805" H 9688 5550 30  0001 C CNN
F 3 "" H 9650 5800 60  0000 C CNN
F 4 "50V" H 9665 5545 40  0000 L CNN "Voltage"
F 5 "X7R" H 9665 5475 40  0000 L CNN "Type"
F 6 "Ceramic capacitor" H 9650 6000 40  0001 L CNN "Description"
F 7 "10%" H 9720 5335 40  0001 C CNN "Tolerance"
F 8 "0805" H 9660 5405 40  0001 L CNN "Size"
	1    9650 5700
	1    0    0    -1  
$EndComp
$Comp
L C C455
U 1 1 5715BEFE
P 10550 4950
F 0 "C455" H 10550 5050 40  0000 L CNN
F 1 "100n" H 10560 4865 40  0000 L CNN
F 2 "MyKiCadLibs-Footprints:SMD-0805" H 10588 4800 30  0001 C CNN
F 3 "" H 10550 5050 60  0000 C CNN
F 4 "50V" H 10565 4795 40  0000 L CNN "Voltage"
F 5 "X7R" H 10565 4725 40  0000 L CNN "Type"
F 6 "Ceramic capacitor" H 10550 5250 40  0001 L CNN "Description"
F 7 "10%" H 10620 4585 40  0001 C CNN "Tolerance"
F 8 "0805" H 10560 4655 40  0001 L CNN "Size"
	1    10550 4950
	1    0    0    -1  
$EndComp
$Comp
L C C457
U 1 1 5715BF09
P 10800 4950
F 0 "C457" H 10800 5050 40  0000 L CNN
F 1 "10n" H 10810 4865 40  0000 L CNN
F 2 "MyKiCadLibs-Footprints:SMD-0805" H 10838 4800 30  0001 C CNN
F 3 "" H 10800 5050 60  0000 C CNN
F 4 "50V" H 10815 4795 40  0000 L CNN "Voltage"
F 5 "X7R" H 10815 4725 40  0000 L CNN "Type"
F 6 "Ceramic capacitor" H 10800 5250 40  0001 L CNN "Description"
F 7 "10%" H 10870 4585 40  0001 C CNN "Tolerance"
F 8 "0805" H 10810 4655 40  0001 L CNN "Size"
	1    10800 4950
	1    0    0    -1  
$EndComp
$Comp
L CP1 C453
U 1 1 5715BF12
P 10250 4950
F 0 "C453" H 10300 5050 50  0000 L CNN
F 1 "47u" H 10300 4850 50  0000 L CNN
F 2 "MyKiCadLibs-Footprints:CAP-TH-D6.3mmP2.5mm" H 10250 4950 60  0001 C CNN
F 3 "" H 10250 4950 60  0000 C CNN
F 4 "10V" H 10375 4770 50  0000 C CNN "Voltage"
F 5 "2.5mm Pitch, 6.3mm Diameter" H 10250 4950 60  0001 C CNN "Size"
F 6 "Aluminium electrolytic low impedance capacitor - eg Panasonic FC or FR parts" H 10250 4950 60  0001 C CNN "Description"
	1    10250 4950
	1    0    0    -1  
$EndComp
$Comp
L R R430
U 1 1 5715BFCB
P 9900 4650
F 0 "R430" V 9820 4650 40  0000 C CNN
F 1 "1k" V 9907 4651 40  0000 C CNN
F 2 "MyKiCadLibs-Footprints:SMD-1206" V 9830 4650 30  0001 C CNN
F 3 "" V 9820 4650 30  0000 C CNN
F 4 "250mW" V 10000 4650 40  0001 C CNN "Power"
F 5 "MELF0204 1% =>250mW or 1206 1% =>250mW" V 10145 4650 40  0001 C CNN "Description"
F 6 "1206" V 10075 4650 40  0001 C CNN "Size"
F 7 "1%" V 10225 4650 40  0001 C CNN "Tolerance"
	1    9900 4650
	0    1    -1   0   
$EndComp
$Comp
L C C436
U 1 1 57460584
P 6150 2300
F 0 "C436" H 6150 2400 40  0000 L CNN
F 1 "2n7" H 6160 2215 40  0000 L CNN
F 2 "MyKiCadLibs-Footprints:SMD-0805" H 6188 2150 30  0001 C CNN
F 3 "" H 6150 2400 60  0000 C CNN
F 4 "50V" H 6165 2145 40  0000 L CNN "Voltage"
F 5 "C0G" H 6165 2075 40  0000 L CNN "Type"
F 6 "Ceramic capacitor" H 6150 2600 40  0001 L CNN "Description"
F 7 "5%" H 6220 1935 40  0001 C CNN "Tolerance"
F 8 "0805" H 6160 2005 40  0001 L CNN "Size"
	1    6150 2300
	1    0    0    -1  
$EndComp
$Comp
L +9VA #PWR0100
U 1 1 57462A23
P 4750 2550
F 0 "#PWR0100" H 4750 2425 50  0001 C CNN
F 1 "+9VA" H 4750 2700 50  0000 C CNN
F 2 "" H 4750 2550 50  0000 C CNN
F 3 "" H 4750 2550 50  0000 C CNN
	1    4750 2550
	1    0    0    -1  
$EndComp
$Comp
L -9VA #PWR0101
U 1 1 57462A29
P 4750 3350
F 0 "#PWR0101" H 4750 3225 50  0001 C CNN
F 1 "-9VA" H 4750 3500 50  0000 C CNN
F 2 "" H 4750 3350 50  0000 C CNN
F 3 "" H 4750 3350 50  0000 C CNN
	1    4750 3350
	-1   0    0    1   
$EndComp
$Comp
L C C434
U 1 1 574632B0
P 4500 3600
F 0 "C434" H 4500 3700 40  0000 L CNN
F 1 "47p" H 4510 3515 40  0000 L CNN
F 2 "MyKiCadLibs-Footprints:SMD-0805" H 4538 3450 30  0001 C CNN
F 3 "" H 4500 3700 60  0000 C CNN
F 4 "50V" H 4515 3445 40  0000 L CNN "Voltage"
F 5 "C0G" H 4515 3375 40  0000 L CNN "Type"
F 6 "Ceramic capacitor" H 4500 3900 40  0001 L CNN "Description"
F 7 "5%" H 4570 3235 40  0001 C CNN "Tolerance"
F 8 "0805" H 4510 3305 40  0001 L CNN "Size"
	1    4500 3600
	0    -1   1    0   
$EndComp
$Comp
L R R421
U 1 1 5746371E
P 4550 3850
F 0 "R421" V 4470 3850 40  0000 C CNN
F 1 "10k" V 4557 3851 40  0000 C CNN
F 2 "MyKiCadLibs-Footprints:SMD-1206" V 4480 3850 30  0001 C CNN
F 3 "" V 4470 3850 30  0000 C CNN
F 4 "250mW" V 4650 3850 40  0001 C CNN "Power"
F 5 "MELF0204 1% =>250mW or 1206 1% =>250mW" V 4795 3850 40  0001 C CNN "Description"
F 6 "1206" V 4725 3850 40  0001 C CNN "Size"
F 7 "1%" V 4875 3850 40  0001 C CNN "Tolerance"
	1    4550 3850
	0    1    1    0   
$EndComp
$Comp
L CP1 C417
U 1 1 5746AEE8
P 2900 3050
F 0 "C417" H 2950 3150 50  0000 L CNN
F 1 "100u" H 2950 2950 50  0000 L CNN
F 2 "MyKiCadLibs-Footprints:CAP-TH-D10mmP5mm" H 2900 3050 60  0001 C CNN
F 3 "" H 2900 3050 60  0000 C CNN
F 4 "50V" H 3025 2870 50  0000 C CNN "Voltage"
F 5 "5mm Pitch, 10mm Diameter" H 2900 3050 60  0001 C CNN "Size"
F 6 "Aluminium electrolytic - Panasonic FC, Audio Grade, or Bipolar part" H 2900 3050 60  0001 C CNN "Description"
	1    2900 3050
	0    1    -1   0   
$EndComp
$Comp
L C C416
U 1 1 5746AEF3
P 2900 2750
F 0 "C416" H 2900 2850 40  0000 L CNN
F 1 "100n" H 2910 2665 40  0000 L CNN
F 2 "MyKiCadLibs-Footprints:CAP_TH_5mm" H 2938 2600 30  0001 C CNN
F 3 "" H 2900 2850 60  0000 C CNN
F 4 "63V" H 2915 2595 40  0000 L CNN "Voltage"
F 5 "Film" H 2915 2525 40  0000 L CNN "Type"
F 6 "Polyester capacitor - 5mm pitch - 5.5mm width max" H 2900 3050 40  0001 L CNN "Description"
F 7 "10%" H 2970 2385 40  0001 C CNN "Tolerance"
F 8 "5mm" H 2910 2455 40  0001 L CNN "Size"
	1    2900 2750
	0    -1   -1   0   
$EndComp
$Comp
L R R412
U 1 1 5746AEFD
P 3500 3050
F 0 "R412" V 3420 3050 40  0000 C CNN
F 1 "4k7" V 3507 3051 40  0000 C CNN
F 2 "MyKiCadLibs-Footprints:SMD-1206" V 3430 3050 30  0001 C CNN
F 3 "" V 3420 3050 30  0000 C CNN
F 4 "250mW" V 3600 3050 40  0001 C CNN "Power"
F 5 "MELF0204 1% =>250mW or 1206 1% =>250mW" V 3745 3050 40  0001 C CNN "Description"
F 6 "1206" V 3675 3050 40  0001 C CNN "Size"
F 7 "1%" V 3825 3050 40  0001 C CNN "Tolerance"
	1    3500 3050
	0    1    1    0   
$EndComp
$Comp
L R R415
U 1 1 5746B7C1
P 3800 1650
F 0 "R415" V 3720 1650 40  0000 C CNN
F 1 "10k" V 3807 1651 40  0000 C CNN
F 2 "MyKiCadLibs-Footprints:SMD-1206" V 3730 1650 30  0001 C CNN
F 3 "" V 3720 1650 30  0000 C CNN
F 4 "250mW" V 3900 1650 40  0001 C CNN "Power"
F 5 "MELF0204 1% =>250mW or 1206 1% =>250mW" V 4045 1650 40  0001 C CNN "Description"
F 6 "1206" V 3975 1650 40  0001 C CNN "Size"
F 7 "1%" V 4125 1650 40  0001 C CNN "Tolerance"
	1    3800 1650
	0    -1   -1   0   
$EndComp
Wire Wire Line
	750  4600 750  4500
Wire Wire Line
	750  4100 750  4000
Wire Wire Line
	1000 4000 1000 4100
Wire Wire Line
	1000 4500 1000 4600
Wire Wire Line
	1300 4050 1300 4000
Wire Wire Line
	4750 1350 4750 1400
Wire Wire Line
	4750 2150 4750 2100
Wire Wire Line
	5250 1750 5450 1750
Wire Wire Line
	5950 1750 6350 1750
Wire Wire Line
	4150 1000 4250 1000
Wire Wire Line
	4250 800  4150 800 
Wire Wire Line
	3100 1850 3250 1850
Wire Wire Line
	3100 2150 3150 2150
Wire Wire Line
	3150 2150 3150 1850
Connection ~ 3150 1850
Wire Wire Line
	5250 2950 5450 2950
Wire Wire Line
	5950 2950 6350 2950
Wire Wire Line
	1400 7250 1400 7450
Wire Wire Line
	1400 6750 1400 6850
Wire Wire Line
	900  6800 1400 6800
Wire Wire Line
	1150 6800 1150 6850
Connection ~ 1400 6800
Wire Wire Line
	900  6800 900  6850
Connection ~ 1150 6800
Wire Wire Line
	1150 7250 1150 7400
Wire Wire Line
	900  7400 1400 7400
Connection ~ 1400 7400
Wire Wire Line
	900  7250 900  7400
Connection ~ 1150 7400
Wire Wire Line
	2650 1850 2650 2150
Wire Wire Line
	2650 2150 2700 2150
Wire Wire Line
	8300 3550 8300 3450
Wire Wire Line
	8300 3050 8300 2950
Wire Wire Line
	8600 3000 8600 3050
Wire Wire Line
	8600 3450 8600 3550
Wire Wire Line
	8900 3050 8900 3000
Wire Wire Line
	8900 3000 8600 3000
Wire Wire Line
	9650 3400 9650 3600
Wire Wire Line
	9650 2900 9650 3000
Wire Wire Line
	9150 2950 9650 2950
Wire Wire Line
	9400 2950 9400 3000
Connection ~ 9650 2950
Wire Wire Line
	9150 2950 9150 3000
Connection ~ 9400 2950
Wire Wire Line
	9400 3400 9400 3550
Wire Wire Line
	9150 3550 9650 3550
Connection ~ 9650 3550
Wire Wire Line
	9150 3400 9150 3550
Connection ~ 9400 3550
Wire Wire Line
	8750 2550 8750 2500
Wire Wire Line
	8250 2250 8200 2250
Wire Wire Line
	8200 2250 8200 2750
Wire Wire Line
	8200 2750 9350 2750
Wire Wire Line
	9350 2750 9350 2150
Wire Wire Line
	9250 2150 9650 2150
Wire Wire Line
	10550 2150 10550 2250
Wire Wire Line
	10150 2150 10800 2150
Wire Wire Line
	10800 2150 10800 2250
Connection ~ 10550 2150
Wire Wire Line
	10550 2650 10550 2750
Wire Wire Line
	10800 2750 10800 2650
Wire Wire Line
	10250 2750 10800 2750
Connection ~ 10550 2750
Connection ~ 9350 2150
Wire Wire Line
	8750 1750 8750 1800
Wire Wire Line
	7050 2050 6950 2050
Wire Wire Line
	7550 2050 8250 2050
Wire Wire Line
	7650 2150 7650 2050
Wire Wire Line
	7900 2050 7900 2150
Wire Wire Line
	7650 2550 7650 2700
Wire Wire Line
	7900 2550 7900 2650
Wire Wire Line
	7900 2650 7650 2650
Connection ~ 7650 2650
Connection ~ 7650 2050
Connection ~ 7900 2050
Connection ~ 2650 1850
Wire Wire Line
	8300 6050 8300 5950
Wire Wire Line
	8300 5550 8300 5450
Wire Wire Line
	8600 5500 8600 5550
Wire Wire Line
	8600 5950 8600 6050
Wire Wire Line
	8900 5550 8900 5500
Wire Wire Line
	8900 5500 8600 5500
Wire Wire Line
	9650 5900 9650 6100
Wire Wire Line
	9650 5400 9650 5500
Wire Wire Line
	9150 5450 9650 5450
Wire Wire Line
	9400 5450 9400 5500
Connection ~ 9650 5450
Wire Wire Line
	9150 5450 9150 5500
Connection ~ 9400 5450
Wire Wire Line
	9400 5900 9400 6050
Wire Wire Line
	9150 6050 9650 6050
Connection ~ 9650 6050
Wire Wire Line
	9150 5900 9150 6050
Connection ~ 9400 6050
Wire Wire Line
	8750 5050 8750 5000
Wire Wire Line
	8250 4750 8200 4750
Wire Wire Line
	8200 4750 8200 5250
Wire Wire Line
	8200 5250 9350 5250
Wire Wire Line
	9350 5250 9350 4650
Wire Wire Line
	9250 4650 9650 4650
Wire Wire Line
	10550 4650 10550 4750
Wire Wire Line
	10150 4650 10800 4650
Wire Wire Line
	10800 4650 10800 4750
Connection ~ 10550 4650
Wire Wire Line
	10550 5150 10550 5250
Wire Wire Line
	10800 5250 10800 5150
Wire Wire Line
	10250 5250 10800 5250
Connection ~ 10550 5250
Connection ~ 9350 4650
Wire Wire Line
	8750 4250 8750 4300
Wire Wire Line
	7050 4550 6950 4550
Wire Wire Line
	7550 4550 8250 4550
Wire Wire Line
	7650 4650 7650 4550
Wire Wire Line
	7900 4550 7900 4650
Wire Wire Line
	7650 5050 7650 5200
Wire Wire Line
	7900 5050 7900 5150
Wire Wire Line
	7900 5150 7650 5150
Connection ~ 7650 5150
Connection ~ 7650 4550
Connection ~ 7900 4550
Wire Wire Line
	10250 2650 10250 2800
Connection ~ 10250 2750
Wire Wire Line
	10250 2250 10250 2150
Connection ~ 10250 2150
Wire Wire Line
	10250 5150 10250 5300
Connection ~ 10250 5250
Wire Wire Line
	10250 4750 10250 4650
Connection ~ 10250 4650
Wire Wire Line
	1300 4000 1000 4000
Wire Wire Line
	2950 1200 2950 1150
Wire Wire Line
	2650 700  3750 700 
Wire Wire Line
	2950 700  2950 750 
Wire Wire Line
	3200 700  3200 750 
Connection ~ 2950 700 
Wire Wire Line
	3200 1200 3200 1150
Wire Wire Line
	3500 1200 3500 1150
Wire Wire Line
	3500 700  3500 750 
Wire Wire Line
	3750 700  3750 750 
Connection ~ 3500 700 
Wire Wire Line
	3750 1200 3750 1150
Connection ~ 3200 700 
Wire Wire Line
	4650 1000 5350 1000
Wire Wire Line
	5350 800  5350 1750
Connection ~ 5350 1750
Connection ~ 4150 1000
Wire Wire Line
	6150 2100 6150 1750
Connection ~ 6150 1750
Wire Wire Line
	6150 2500 6150 2950
Connection ~ 6150 2950
Wire Wire Line
	4750 2550 4750 2600
Wire Wire Line
	4750 3350 4750 3300
Wire Wire Line
	4300 3600 4150 3600
Wire Wire Line
	4150 3050 4150 3850
Wire Wire Line
	3750 3050 4250 3050
Wire Wire Line
	4700 3600 5350 3600
Wire Wire Line
	5350 2950 5350 3850
Connection ~ 5350 2950
Wire Wire Line
	4150 3850 4300 3850
Connection ~ 4150 3600
Wire Wire Line
	3750 1850 4250 1850
Wire Wire Line
	3100 3050 3250 3050
Wire Wire Line
	3150 2750 3150 3050
Connection ~ 3150 3050
Wire Wire Line
	2650 3050 2650 2750
Connection ~ 2650 3050
Wire Wire Line
	1850 3050 2700 3050
Wire Wire Line
	2650 2750 2700 2750
Wire Wire Line
	3100 2750 3150 2750
$Comp
L R R418
U 1 1 57470C5E
P 3900 2850
F 0 "R418" V 3820 2850 40  0000 C CNN
F 1 "10k" V 3907 2851 40  0000 C CNN
F 2 "MyKiCadLibs-Footprints:SMD-1206" V 3830 2850 30  0001 C CNN
F 3 "" V 3820 2850 30  0000 C CNN
F 4 "250mW" V 4000 2850 40  0001 C CNN "Power"
F 5 "MELF0204 1% =>250mW or 1206 1% =>250mW" V 4145 2850 40  0001 C CNN "Description"
F 6 "1206" V 4075 2850 40  0001 C CNN "Size"
F 7 "1%" V 4225 2850 40  0001 C CNN "Tolerance"
	1    3900 2850
	0    1    1    0   
$EndComp
$Comp
L CONN_3x1 P401
U 1 1 57474D92
P 1100 2250
F 0 "P401" V 1585 2045 40  0000 C CNN
F 1 "CONN_3x1" V 1530 2160 40  0000 C CNN
F 2 "MyKiCadLibs-Footprints:CONN_SIL_3_1MM" H 1440 2140 60  0001 C CNN
F 3 "" H 1440 2140 60  0000 C CNN
F 4 "1x3 2.54mm pitch pin header" H 1350 1950 40  0001 C CNN "Description"
	1    1100 2250
	-1   0    0    -1  
$EndComp
$Comp
L GNDA #PWR0102
U 1 1 57475E15
P 1150 2500
F 0 "#PWR0102" H 1150 2250 50  0001 C CNN
F 1 "GNDA" H 1150 2350 50  0000 C CNN
F 2 "" H 1150 2500 60  0000 C CNN
F 3 "" H 1150 2500 60  0000 C CNN
	1    1150 2500
	-1   0    0    -1  
$EndComp
Wire Wire Line
	1850 1850 2700 1850
$Comp
L R R407
U 1 1 5747B590
P 2300 2200
F 0 "R407" V 2220 2200 40  0000 C CNN
F 1 "100k" V 2307 2201 40  0000 C CNN
F 2 "MyKiCadLibs-Footprints:SMD-1206" V 2230 2200 30  0001 C CNN
F 3 "" V 2220 2200 30  0000 C CNN
F 4 "250mW" V 2400 2200 40  0001 C CNN "Power"
F 5 "MELF0204 1% =>250mW or 1206 1% =>250mW" V 2545 2200 40  0001 C CNN "Description"
F 6 "1206" V 2475 2200 40  0001 C CNN "Size"
F 7 "1%" V 2625 2200 40  0001 C CNN "Tolerance"
	1    2300 2200
	-1   0    0    1   
$EndComp
$Comp
L R R408
U 1 1 5747C541
P 2300 3400
F 0 "R408" V 2220 3400 40  0000 C CNN
F 1 "100k" V 2307 3401 40  0000 C CNN
F 2 "MyKiCadLibs-Footprints:SMD-1206" V 2230 3400 30  0001 C CNN
F 3 "" V 2220 3400 30  0000 C CNN
F 4 "250mW" V 2400 3400 40  0001 C CNN "Power"
F 5 "MELF0204 1% =>250mW or 1206 1% =>250mW" V 2545 3400 40  0001 C CNN "Description"
F 6 "1206" V 2475 3400 40  0001 C CNN "Size"
F 7 "1%" V 2625 3400 40  0001 C CNN "Tolerance"
	1    2300 3400
	-1   0    0    1   
$EndComp
$Comp
L R R404
U 1 1 5747C690
P 1600 3050
F 0 "R404" V 1520 3050 40  0000 C CNN
F 1 "100" V 1607 3051 40  0000 C CNN
F 2 "MyKiCadLibs-Footprints:SMD-1206" V 1530 3050 30  0001 C CNN
F 3 "" V 1520 3050 30  0000 C CNN
F 4 "250mW" V 1700 3050 40  0001 C CNN "Power"
F 5 "MELF0204 1% =>250mW or 1206 1% =>250mW" V 1845 3050 40  0001 C CNN "Description"
F 6 "1206" V 1775 3050 40  0001 C CNN "Size"
F 7 "1%" V 1925 3050 40  0001 C CNN "Tolerance"
	1    1600 3050
	0    1    1    0   
$EndComp
Wire Wire Line
	1250 1850 1350 1850
Wire Wire Line
	1250 3050 1350 3050
Wire Wire Line
	1450 2200 1450 2100
Wire Wire Line
	1450 2100 1250 2100
Connection ~ 1250 2100
Wire Wire Line
	1450 2700 1450 2800
Wire Wire Line
	1450 2800 1250 2800
Connection ~ 1250 2800
$Comp
L +9VA #PWR0103
U 1 1 57481F95
P 4750 4700
F 0 "#PWR0103" H 4750 4575 50  0001 C CNN
F 1 "+9VA" H 4750 4850 50  0000 C CNN
F 2 "" H 4750 4700 50  0000 C CNN
F 3 "" H 4750 4700 50  0000 C CNN
	1    4750 4700
	1    0    0    -1  
$EndComp
$Comp
L -9VA #PWR0104
U 1 1 57481F9B
P 4750 5500
F 0 "#PWR0104" H 4750 5375 50  0001 C CNN
F 1 "-9VA" H 4750 5650 50  0000 C CNN
F 2 "" H 4750 5500 50  0000 C CNN
F 3 "" H 4750 5500 50  0000 C CNN
	1    4750 5500
	-1   0    0    1   
$EndComp
$Comp
L GNDA #PWR0105
U 1 1 57481FA5
P 2950 4550
F 0 "#PWR0105" H 2950 4300 50  0001 C CNN
F 1 "GNDA" H 2950 4400 50  0000 C CNN
F 2 "" H 2950 4550 60  0000 C CNN
F 3 "" H 2950 4550 60  0000 C CNN
	1    2950 4550
	-1   0    0    -1  
$EndComp
$Comp
L GNDA #PWR0106
U 1 1 57481FAC
P 3200 4550
F 0 "#PWR0106" H 3200 4300 50  0001 C CNN
F 1 "GNDA" H 3200 4400 50  0000 C CNN
F 2 "" H 3200 4550 60  0000 C CNN
F 3 "" H 3200 4550 60  0000 C CNN
	1    3200 4550
	-1   0    0    -1  
$EndComp
$Comp
L GNDA #PWR0107
U 1 1 57481FB2
P 3500 4550
F 0 "#PWR0107" H 3500 4300 50  0001 C CNN
F 1 "GNDA" H 3500 4400 50  0000 C CNN
F 2 "" H 3500 4550 60  0000 C CNN
F 3 "" H 3500 4550 60  0000 C CNN
	1    3500 4550
	-1   0    0    -1  
$EndComp
$Comp
L GNDA #PWR0108
U 1 1 57481FB8
P 3750 4550
F 0 "#PWR0108" H 3750 4300 50  0001 C CNN
F 1 "GNDA" H 3750 4400 50  0000 C CNN
F 2 "" H 3750 4550 60  0000 C CNN
F 3 "" H 3750 4550 60  0000 C CNN
	1    3750 4550
	-1   0    0    -1  
$EndComp
$Comp
L R R405
U 1 1 57481FC4
P 1600 5200
F 0 "R405" V 1520 5200 40  0000 C CNN
F 1 "100" V 1607 5201 40  0000 C CNN
F 2 "MyKiCadLibs-Footprints:SMD-1206" V 1530 5200 30  0001 C CNN
F 3 "" V 1520 5200 30  0000 C CNN
F 4 "250mW" V 1700 5200 40  0001 C CNN "Power"
F 5 "MELF0204 1% =>250mW or 1206 1% =>250mW" V 1845 5200 40  0001 C CNN "Description"
F 6 "1206" V 1775 5200 40  0001 C CNN "Size"
F 7 "1%" V 1925 5200 40  0001 C CNN "Tolerance"
	1    1600 5200
	0    1    1    0   
$EndComp
$Comp
L C C425
U 1 1 57481FCF
P 3200 4300
F 0 "C425" H 3200 4400 40  0000 L CNN
F 1 "10u" H 3210 4215 40  0000 L CNN
F 2 "MyKiCadLibs-Footprints:SMD-0805" H 3238 4150 30  0001 C CNN
F 3 "" H 3200 4400 60  0000 C CNN
F 4 "10V" H 3215 4145 40  0000 L CNN "Voltage"
F 5 "X5R" H 3215 4075 40  0000 L CNN "Type"
F 6 "Ceramic capacitor" H 3200 4600 40  0001 L CNN "Description"
F 7 "20%" H 3270 3935 40  0001 C CNN "Tolerance"
F 8 "0805" H 3210 4005 40  0001 L CNN "Size"
	1    3200 4300
	1    0    0    -1  
$EndComp
$Comp
L C C423
U 1 1 57481FDA
P 2950 4300
F 0 "C423" H 2950 4400 40  0000 L CNN
F 1 "100n" H 2960 4215 40  0000 L CNN
F 2 "MyKiCadLibs-Footprints:SMD-0805" H 2988 4150 30  0001 C CNN
F 3 "" H 2950 4400 60  0000 C CNN
F 4 "50V" H 2965 4145 40  0000 L CNN "Voltage"
F 5 "X7R" H 2965 4075 40  0000 L CNN "Type"
F 6 "Ceramic capacitor" H 2950 4600 40  0001 L CNN "Description"
F 7 "10%" H 3020 3935 40  0001 C CNN "Tolerance"
F 8 "0805" H 2960 4005 40  0001 L CNN "Size"
	1    2950 4300
	1    0    0    -1  
$EndComp
$Comp
L CP1 C418
U 1 1 57481FE3
P 2900 5200
F 0 "C418" H 2950 5300 50  0000 L CNN
F 1 "100u" H 2950 5100 50  0000 L CNN
F 2 "MyKiCadLibs-Footprints:CAP-TH-D10mmP5mm" H 2900 5200 60  0001 C CNN
F 3 "" H 2900 5200 60  0000 C CNN
F 4 "50V" H 3025 5020 50  0000 C CNN "Voltage"
F 5 "5mm Pitch, 10mm Diameter" H 2900 5200 60  0001 C CNN "Size"
F 6 "Aluminium electrolytic - Panasonic FC, Audio Grade, or Bipolar part" H 2900 5200 60  0001 C CNN "Description"
	1    2900 5200
	0    1    1    0   
$EndComp
$Comp
L C C431
U 1 1 57481FEE
P 3750 4300
F 0 "C431" H 3750 4400 40  0000 L CNN
F 1 "10u" H 3760 4215 40  0000 L CNN
F 2 "MyKiCadLibs-Footprints:SMD-0805" H 3788 4150 30  0001 C CNN
F 3 "" H 3750 4400 60  0000 C CNN
F 4 "10V" H 3765 4145 40  0000 L CNN "Voltage"
F 5 "X5R" H 3765 4075 40  0000 L CNN "Type"
F 6 "Ceramic capacitor" H 3750 4600 40  0001 L CNN "Description"
F 7 "20%" H 3820 3935 40  0001 C CNN "Tolerance"
F 8 "0805" H 3760 4005 40  0001 L CNN "Size"
	1    3750 4300
	1    0    0    -1  
$EndComp
$Comp
L C C428
U 1 1 57481FF9
P 3500 4300
F 0 "C428" H 3500 4400 40  0000 L CNN
F 1 "100n" H 3510 4215 40  0000 L CNN
F 2 "MyKiCadLibs-Footprints:SMD-0805" H 3538 4150 30  0001 C CNN
F 3 "" H 3500 4400 60  0000 C CNN
F 4 "50V" H 3515 4145 40  0000 L CNN "Voltage"
F 5 "X7R" H 3515 4075 40  0000 L CNN "Type"
F 6 "Ceramic capacitor" H 3500 4600 40  0001 L CNN "Description"
F 7 "10%" H 3570 3935 40  0001 C CNN "Tolerance"
F 8 "0805" H 3510 4005 40  0001 L CNN "Size"
	1    3500 4300
	1    0    0    -1  
$EndComp
$Comp
L C C419
U 1 1 57482004
P 2900 5500
F 0 "C419" H 2900 5600 40  0000 L CNN
F 1 "100n" H 2910 5415 40  0000 L CNN
F 2 "MyKiCadLibs-Footprints:CAP_TH_5mm" H 2938 5350 30  0001 C CNN
F 3 "" H 2900 5600 60  0000 C CNN
F 4 "63V" H 2915 5345 40  0000 L CNN "Voltage"
F 5 "Film" H 2915 5275 40  0000 L CNN "Type"
F 6 "Polyester capacitor - 5mm pitch - 5.5mm width max" H 2900 5800 40  0001 L CNN "Description"
F 7 "10%" H 2970 5135 40  0001 C CNN "Tolerance"
F 8 "5mm" H 2910 5205 40  0001 L CNN "Size"
	1    2900 5500
	0    -1   1    0   
$EndComp
$Comp
L C C410
U 1 1 5748200F
P 2000 5500
F 0 "C410" H 2000 5600 40  0000 L CNN
F 1 "100p" H 2010 5415 40  0000 L CNN
F 2 "MyKiCadLibs-Footprints:SMD-0805" H 2038 5350 30  0001 C CNN
F 3 "" H 2000 5600 60  0000 C CNN
F 4 "50V" H 2015 5345 40  0000 L CNN "Voltage"
F 5 "C0G" H 2015 5275 40  0000 L CNN "Type"
F 6 "Ceramic capacitor" H 2000 5800 40  0001 L CNN "Description"
F 7 "5%" H 2070 5135 40  0001 C CNN "Tolerance"
F 8 "0805" H 2010 5205 40  0001 L CNN "Size"
	1    2000 5500
	1    0    0    -1  
$EndComp
$Comp
L R R413
U 1 1 57482019
P 3500 5200
F 0 "R413" V 3420 5200 40  0000 C CNN
F 1 "4k7" V 3507 5201 40  0000 C CNN
F 2 "MyKiCadLibs-Footprints:SMD-1206" V 3430 5200 30  0001 C CNN
F 3 "" V 3420 5200 30  0000 C CNN
F 4 "250mW" V 3600 5200 40  0001 C CNN "Power"
F 5 "MELF0204 1% =>250mW or 1206 1% =>250mW" V 3745 5200 40  0001 C CNN "Description"
F 6 "1206" V 3675 5200 40  0001 C CNN "Size"
F 7 "1%" V 3825 5200 40  0001 C CNN "Tolerance"
	1    3500 5200
	0    -1   -1   0   
$EndComp
$Comp
L R R420
U 1 1 57482023
P 4500 4150
F 0 "R420" V 4420 4150 40  0000 C CNN
F 1 "10k" V 4507 4151 40  0000 C CNN
F 2 "MyKiCadLibs-Footprints:SMD-1206" V 4430 4150 30  0001 C CNN
F 3 "" V 4420 4150 30  0000 C CNN
F 4 "250mW" V 4600 4150 40  0001 C CNN "Power"
F 5 "MELF0204 1% =>250mW or 1206 1% =>250mW" V 4745 4150 40  0001 C CNN "Description"
F 6 "1206" V 4675 4150 40  0001 C CNN "Size"
F 7 "1%" V 4825 4150 40  0001 C CNN "Tolerance"
	1    4500 4150
	0    1    1    0   
$EndComp
$Comp
L C C433
U 1 1 5748202E
P 4450 4350
F 0 "C433" H 4450 4450 40  0000 L CNN
F 1 "47p" H 4460 4265 40  0000 L CNN
F 2 "MyKiCadLibs-Footprints:SMD-0805" H 4488 4200 30  0001 C CNN
F 3 "" H 4450 4450 60  0000 C CNN
F 4 "50V" H 4465 4195 40  0000 L CNN "Voltage"
F 5 "C0G" H 4465 4125 40  0000 L CNN "Type"
F 6 "Ceramic capacitor" H 4450 4650 40  0001 L CNN "Description"
F 7 "5%" H 4520 3985 40  0001 C CNN "Tolerance"
F 8 "0805" H 4460 4055 40  0001 L CNN "Size"
	1    4450 4350
	0    -1   1    0   
$EndComp
$Comp
L R R425
U 1 1 57482038
P 5700 5100
F 0 "R425" V 5620 5100 40  0000 C CNN
F 1 "40R2" V 5707 5101 40  0000 C CNN
F 2 "MyKiCadLibs-Footprints:SMD-1206" V 5630 5100 30  0001 C CNN
F 3 "" V 5620 5100 30  0000 C CNN
F 4 "250mW" V 5800 5100 40  0001 C CNN "Power"
F 5 "MELF0204 1% =>250mW or 1206 1% =>250mW" V 5945 5100 40  0001 C CNN "Description"
F 6 "1206" V 5875 5100 40  0001 C CNN "Size"
F 7 "1%" V 6025 5100 40  0001 C CNN "Tolerance"
	1    5700 5100
	0    1    1    0   
$EndComp
$Comp
L R R426
U 1 1 57482042
P 5700 6300
F 0 "R426" V 5620 6300 40  0000 C CNN
F 1 "40R2" V 5707 6301 40  0000 C CNN
F 2 "MyKiCadLibs-Footprints:SMD-1206" V 5630 6300 30  0001 C CNN
F 3 "" V 5620 6300 30  0000 C CNN
F 4 "250mW" V 5800 6300 40  0001 C CNN "Power"
F 5 "MELF0204 1% =>250mW or 1206 1% =>250mW" V 5945 6300 40  0001 C CNN "Description"
F 6 "1206" V 5875 6300 40  0001 C CNN "Size"
F 7 "1%" V 6025 6300 40  0001 C CNN "Tolerance"
	1    5700 6300
	0    1    1    0   
$EndComp
$Comp
L C C437
U 1 1 57482068
P 6150 5650
F 0 "C437" H 6150 5750 40  0000 L CNN
F 1 "2n7" H 6160 5565 40  0000 L CNN
F 2 "MyKiCadLibs-Footprints:SMD-0805" H 6188 5500 30  0001 C CNN
F 3 "" H 6150 5750 60  0000 C CNN
F 4 "50V" H 6165 5495 40  0000 L CNN "Voltage"
F 5 "C0G" H 6165 5425 40  0000 L CNN "Type"
F 6 "Ceramic capacitor" H 6150 5950 40  0001 L CNN "Description"
F 7 "5%" H 6220 5285 40  0001 C CNN "Tolerance"
F 8 "0805" H 6160 5355 40  0001 L CNN "Size"
	1    6150 5650
	1    0    0    -1  
$EndComp
$Comp
L +9VA #PWR0109
U 1 1 5748206E
P 4750 5900
F 0 "#PWR0109" H 4750 5775 50  0001 C CNN
F 1 "+9VA" H 4750 6050 50  0000 C CNN
F 2 "" H 4750 5900 50  0000 C CNN
F 3 "" H 4750 5900 50  0000 C CNN
	1    4750 5900
	1    0    0    -1  
$EndComp
$Comp
L -9VA #PWR0110
U 1 1 57482074
P 4750 6700
F 0 "#PWR0110" H 4750 6575 50  0001 C CNN
F 1 "-9VA" H 4750 6850 50  0000 C CNN
F 2 "" H 4750 6700 50  0000 C CNN
F 3 "" H 4750 6700 50  0000 C CNN
	1    4750 6700
	-1   0    0    1   
$EndComp
$Comp
L C C435
U 1 1 57482086
P 4500 6950
F 0 "C435" H 4500 7050 40  0000 L CNN
F 1 "47p" H 4510 6865 40  0000 L CNN
F 2 "MyKiCadLibs-Footprints:SMD-0805" H 4538 6800 30  0001 C CNN
F 3 "" H 4500 7050 60  0000 C CNN
F 4 "50V" H 4515 6795 40  0000 L CNN "Voltage"
F 5 "C0G" H 4515 6725 40  0000 L CNN "Type"
F 6 "Ceramic capacitor" H 4500 7250 40  0001 L CNN "Description"
F 7 "5%" H 4570 6585 40  0001 C CNN "Tolerance"
F 8 "0805" H 4510 6655 40  0001 L CNN "Size"
	1    4500 6950
	0    -1   1    0   
$EndComp
$Comp
L R R422
U 1 1 57482090
P 4550 7200
F 0 "R422" V 4470 7200 40  0000 C CNN
F 1 "10k" V 4557 7201 40  0000 C CNN
F 2 "MyKiCadLibs-Footprints:SMD-1206" V 4480 7200 30  0001 C CNN
F 3 "" V 4470 7200 30  0000 C CNN
F 4 "250mW" V 4650 7200 40  0001 C CNN "Power"
F 5 "MELF0204 1% =>250mW or 1206 1% =>250mW" V 4795 7200 40  0001 C CNN "Description"
F 6 "1206" V 4725 7200 40  0001 C CNN "Size"
F 7 "1%" V 4875 7200 40  0001 C CNN "Tolerance"
	1    4550 7200
	0    1    1    0   
$EndComp
$Comp
L CP1 C421
U 1 1 57482099
P 2900 6400
F 0 "C421" H 2950 6500 50  0000 L CNN
F 1 "100u" H 2950 6300 50  0000 L CNN
F 2 "MyKiCadLibs-Footprints:CAP-TH-D10mmP5mm" H 2900 6400 60  0001 C CNN
F 3 "" H 2900 6400 60  0000 C CNN
F 4 "50V" H 3025 6220 50  0000 C CNN "Voltage"
F 5 "5mm Pitch, 10mm Diameter" H 2900 6400 60  0001 C CNN "Size"
F 6 "Aluminium electrolytic - Panasonic FC, Audio Grade, or Bipolar part" H 2900 6400 60  0001 C CNN "Description"
	1    2900 6400
	0    1    -1   0   
$EndComp
$Comp
L C C420
U 1 1 574820A4
P 2900 6100
F 0 "C420" H 2900 6200 40  0000 L CNN
F 1 "100n" H 2910 6015 40  0000 L CNN
F 2 "MyKiCadLibs-Footprints:CAP_TH_5mm" H 2938 5950 30  0001 C CNN
F 3 "" H 2900 6200 60  0000 C CNN
F 4 "63V" H 2915 5945 40  0000 L CNN "Voltage"
F 5 "Film" H 2915 5875 40  0000 L CNN "Type"
F 6 "Polyester capacitor - 5mm pitch - 5.5mm width max" H 2900 6400 40  0001 L CNN "Description"
F 7 "10%" H 2970 5735 40  0001 C CNN "Tolerance"
F 8 "5mm" H 2910 5805 40  0001 L CNN "Size"
	1    2900 6100
	0    -1   -1   0   
$EndComp
$Comp
L R R414
U 1 1 574820AE
P 3500 6400
F 0 "R414" V 3420 6400 40  0000 C CNN
F 1 "4k7" V 3507 6401 40  0000 C CNN
F 2 "MyKiCadLibs-Footprints:SMD-1206" V 3430 6400 30  0001 C CNN
F 3 "" V 3420 6400 30  0000 C CNN
F 4 "250mW" V 3600 6400 40  0001 C CNN "Power"
F 5 "MELF0204 1% =>250mW or 1206 1% =>250mW" V 3745 6400 40  0001 C CNN "Description"
F 6 "1206" V 3675 6400 40  0001 C CNN "Size"
F 7 "1%" V 3825 6400 40  0001 C CNN "Tolerance"
	1    3500 6400
	0    1    1    0   
$EndComp
$Comp
L R R416
U 1 1 574820B8
P 3800 5000
F 0 "R416" V 3720 5000 40  0000 C CNN
F 1 "10k" V 3807 5001 40  0000 C CNN
F 2 "MyKiCadLibs-Footprints:SMD-1206" V 3730 5000 30  0001 C CNN
F 3 "" V 3720 5000 30  0000 C CNN
F 4 "250mW" V 3900 5000 40  0001 C CNN "Power"
F 5 "MELF0204 1% =>250mW or 1206 1% =>250mW" V 4045 5000 40  0001 C CNN "Description"
F 6 "1206" V 3975 5000 40  0001 C CNN "Size"
F 7 "1%" V 4125 5000 40  0001 C CNN "Tolerance"
	1    3800 5000
	0    -1   -1   0   
$EndComp
Wire Wire Line
	4750 4700 4750 4750
Wire Wire Line
	4750 5500 4750 5450
Wire Wire Line
	5250 5100 5450 5100
Wire Wire Line
	5950 5100 6350 5100
Wire Wire Line
	4150 4350 4250 4350
Wire Wire Line
	4250 4150 4150 4150
Wire Wire Line
	3100 5200 3250 5200
Wire Wire Line
	3100 5500 3150 5500
Wire Wire Line
	3150 5500 3150 5200
Connection ~ 3150 5200
Wire Wire Line
	5250 6300 5450 6300
Wire Wire Line
	5950 6300 6350 6300
Wire Wire Line
	2650 5200 2650 5500
Wire Wire Line
	2650 5500 2700 5500
Connection ~ 2650 5200
Wire Wire Line
	2950 4550 2950 4500
Wire Wire Line
	2650 4050 3750 4050
Wire Wire Line
	2950 4050 2950 4100
Wire Wire Line
	3200 4050 3200 4100
Connection ~ 2950 4050
Wire Wire Line
	3200 4550 3200 4500
Wire Wire Line
	3500 4550 3500 4500
Wire Wire Line
	3500 4050 3500 4100
Wire Wire Line
	3750 4050 3750 4100
Connection ~ 3500 4050
Wire Wire Line
	3750 4550 3750 4500
Connection ~ 3200 4050
Wire Wire Line
	4650 4350 5350 4350
Wire Wire Line
	5350 4150 5350 5100
Connection ~ 5350 5100
Wire Wire Line
	4150 4150 4150 5200
Wire Wire Line
	3750 5200 4250 5200
Connection ~ 4150 4350
Wire Wire Line
	6150 5450 6150 5100
Connection ~ 6150 5100
Wire Wire Line
	6150 5850 6150 6300
Connection ~ 6150 6300
Wire Wire Line
	4750 5900 4750 5950
Wire Wire Line
	4750 6700 4750 6650
Wire Wire Line
	4300 6950 4150 6950
Wire Wire Line
	4150 6400 4150 7200
Wire Wire Line
	3750 6400 4250 6400
Wire Wire Line
	4700 6950 5350 6950
Wire Wire Line
	5350 6300 5350 7200
Connection ~ 5350 6300
Wire Wire Line
	4150 7200 4300 7200
Connection ~ 4150 6950
Wire Wire Line
	3100 6400 3250 6400
Wire Wire Line
	3150 6100 3150 6400
Connection ~ 3150 6400
Wire Wire Line
	2650 6400 2650 6100
Connection ~ 2650 6400
Wire Wire Line
	1850 6400 2700 6400
Wire Wire Line
	2650 6100 2700 6100
Wire Wire Line
	3100 6100 3150 6100
$Comp
L R R417
U 1 1 57482108
P 3850 6200
F 0 "R417" V 3770 6200 40  0000 C CNN
F 1 "10k" V 3857 6201 40  0000 C CNN
F 2 "MyKiCadLibs-Footprints:SMD-1206" V 3780 6200 30  0001 C CNN
F 3 "" V 3770 6200 30  0000 C CNN
F 4 "250mW" V 3950 6200 40  0001 C CNN "Power"
F 5 "MELF0204 1% =>250mW or 1206 1% =>250mW" V 4095 6200 40  0001 C CNN "Description"
F 6 "1206" V 4025 6200 40  0001 C CNN "Size"
F 7 "1%" V 4175 6200 40  0001 C CNN "Tolerance"
	1    3850 6200
	0    1    1    0   
$EndComp
$Comp
L CONN_3x1 P402
U 1 1 57482113
P 1100 5600
F 0 "P402" V 1585 5395 40  0000 C CNN
F 1 "CONN_3x1" V 1530 5510 40  0000 C CNN
F 2 "MyKiCadLibs-Footprints:CONN_SIL_3_1MM" H 1440 5490 60  0001 C CNN
F 3 "" H 1440 5490 60  0000 C CNN
F 4 "1x3 2.54mm pitch pin header" H 1350 5300 40  0001 C CNN "Description"
	1    1100 5600
	-1   0    0    -1  
$EndComp
$Comp
L GNDA #PWR0111
U 1 1 57482119
P 1150 5850
F 0 "#PWR0111" H 1150 5600 50  0001 C CNN
F 1 "GNDA" H 1150 5700 50  0000 C CNN
F 2 "" H 1150 5850 60  0000 C CNN
F 3 "" H 1150 5850 60  0000 C CNN
	1    1150 5850
	-1   0    0    -1  
$EndComp
Wire Wire Line
	1150 5850 1150 5800
Wire Wire Line
	1150 5800 1100 5800
Wire Wire Line
	1850 5200 2700 5200
$Comp
L R R409
U 1 1 57482126
P 2300 5550
F 0 "R409" V 2220 5550 40  0000 C CNN
F 1 "100k" V 2307 5551 40  0000 C CNN
F 2 "MyKiCadLibs-Footprints:SMD-1206" V 2230 5550 30  0001 C CNN
F 3 "" V 2220 5550 30  0000 C CNN
F 4 "250mW" V 2400 5550 40  0001 C CNN "Power"
F 5 "MELF0204 1% =>250mW or 1206 1% =>250mW" V 2545 5550 40  0001 C CNN "Description"
F 6 "1206" V 2475 5550 40  0001 C CNN "Size"
F 7 "1%" V 2625 5550 40  0001 C CNN "Tolerance"
	1    2300 5550
	-1   0    0    1   
$EndComp
Wire Wire Line
	2000 5300 2000 5200
Connection ~ 2000 5200
$Comp
L R R410
U 1 1 57482132
P 2300 6750
F 0 "R410" V 2220 6750 40  0000 C CNN
F 1 "100k" V 2307 6751 40  0000 C CNN
F 2 "MyKiCadLibs-Footprints:SMD-1206" V 2230 6750 30  0001 C CNN
F 3 "" V 2220 6750 30  0000 C CNN
F 4 "250mW" V 2400 6750 40  0001 C CNN "Power"
F 5 "MELF0204 1% =>250mW or 1206 1% =>250mW" V 2545 6750 40  0001 C CNN "Description"
F 6 "1206" V 2475 6750 40  0001 C CNN "Size"
F 7 "1%" V 2625 6750 40  0001 C CNN "Tolerance"
	1    2300 6750
	-1   0    0    1   
$EndComp
$Comp
L R R406
U 1 1 5748213C
P 1600 6400
F 0 "R406" V 1520 6400 40  0000 C CNN
F 1 "100" V 1607 6401 40  0000 C CNN
F 2 "MyKiCadLibs-Footprints:SMD-1206" V 1530 6400 30  0001 C CNN
F 3 "" V 1520 6400 30  0000 C CNN
F 4 "250mW" V 1700 6400 40  0001 C CNN "Power"
F 5 "MELF0204 1% =>250mW or 1206 1% =>250mW" V 1845 6400 40  0001 C CNN "Description"
F 6 "1206" V 1775 6400 40  0001 C CNN "Size"
F 7 "1%" V 1925 6400 40  0001 C CNN "Tolerance"
	1    1600 6400
	0    1    1    0   
$EndComp
Wire Wire Line
	1250 5600 1100 5600
Wire Wire Line
	1250 5200 1250 5600
Wire Wire Line
	1250 5200 1350 5200
Wire Wire Line
	1100 5700 1250 5700
Wire Wire Line
	1250 5700 1250 6400
Wire Wire Line
	1250 6400 1350 6400
$Comp
L R R402
U 1 1 5748214F
P 1450 5800
F 0 "R402" V 1370 5800 40  0000 C CNN
F 1 "10k" V 1457 5801 40  0000 C CNN
F 2 "MyKiCadLibs-Footprints:SMD-1206" V 1380 5800 30  0001 C CNN
F 3 "" V 1370 5800 30  0000 C CNN
F 4 "250mW" V 1550 5800 40  0001 C CNN "Power"
F 5 "MELF0204 1% =>250mW or 1206 1% =>250mW" V 1695 5800 40  0001 C CNN "Description"
F 6 "1206" V 1625 5800 40  0001 C CNN "Size"
F 7 "1%" V 1775 5800 40  0001 C CNN "Tolerance"
	1    1450 5800
	-1   0    0    1   
$EndComp
Wire Wire Line
	1450 5550 1450 5450
Wire Wire Line
	1450 5450 1250 5450
Connection ~ 1250 5450
Wire Wire Line
	1450 6050 1450 6150
Wire Wire Line
	1450 6150 1250 6150
Connection ~ 1250 6150
Text Label 2650 4050 0    60   ~ 0
VCMR
Text Label 3200 5000 0    60   ~ 0
VCMR
$Comp
L GNDA #PWR0116
U 1 1 5748DD36
P 2600 7400
F 0 "#PWR0116" H 2600 7150 50  0001 C CNN
F 1 "GNDA" H 2600 7250 50  0000 C CNN
F 2 "" H 2600 7400 60  0000 C CNN
F 3 "" H 2600 7400 60  0000 C CNN
	1    2600 7400
	-1   0    0    -1  
$EndComp
$Comp
L GNDA #PWR0117
U 1 1 5748DD3C
P 3150 6850
F 0 "#PWR0117" H 3150 6600 50  0001 C CNN
F 1 "GNDA" H 3150 6700 50  0000 C CNN
F 2 "" H 3150 6850 60  0000 C CNN
F 3 "" H 3150 6850 60  0000 C CNN
	1    3150 6850
	-1   0    0    -1  
$EndComp
$Comp
L -9VA #PWR0118
U 1 1 5748DD42
P 2850 7400
F 0 "#PWR0118" H 2850 7275 50  0001 C CNN
F 1 "-9VA" H 2850 7550 50  0000 C CNN
F 2 "" H 2850 7400 50  0000 C CNN
F 3 "" H 2850 7400 50  0000 C CNN
	1    2850 7400
	-1   0    0    1   
$EndComp
$Comp
L +9VA #PWR0119
U 1 1 5748DD48
P 2600 6800
F 0 "#PWR0119" H 2600 6675 50  0001 C CNN
F 1 "+9VA" H 2600 6950 50  0000 C CNN
F 2 "" H 2600 6800 50  0000 C CNN
F 3 "" H 2600 6800 50  0000 C CNN
	1    2600 6800
	1    0    0    -1  
$EndComp
$Comp
L C C412
U 1 1 5748DD53
P 2600 7100
F 0 "C412" H 2600 7200 40  0000 L CNN
F 1 "100n" H 2610 7015 40  0000 L CNN
F 2 "MyKiCadLibs-Footprints:SMD-0805" H 2638 6950 30  0001 C CNN
F 3 "" H 2600 7200 60  0000 C CNN
F 4 "50V" H 2615 6945 40  0000 L CNN "Voltage"
F 5 "X7R" H 2615 6875 40  0000 L CNN "Type"
F 6 "Ceramic capacitor" H 2600 7400 40  0001 L CNN "Description"
F 7 "10%" H 2670 6735 40  0001 C CNN "Tolerance"
F 8 "0805" H 2610 6805 40  0001 L CNN "Size"
	1    2600 7100
	1    0    0    -1  
$EndComp
$Comp
L C C413
U 1 1 5748DD5E
P 2850 7100
F 0 "C413" H 2850 7200 40  0000 L CNN
F 1 "100n" H 2860 7015 40  0000 L CNN
F 2 "MyKiCadLibs-Footprints:SMD-0805" H 2888 6950 30  0001 C CNN
F 3 "" H 2850 7200 60  0000 C CNN
F 4 "50V" H 2865 6945 40  0000 L CNN "Voltage"
F 5 "X7R" H 2865 6875 40  0000 L CNN "Type"
F 6 "Ceramic capacitor" H 2850 7400 40  0001 L CNN "Description"
F 7 "10%" H 2920 6735 40  0001 C CNN "Tolerance"
F 8 "0805" H 2860 6805 40  0001 L CNN "Size"
	1    2850 7100
	1    0    0    -1  
$EndComp
Wire Wire Line
	2600 7400 2600 7300
Wire Wire Line
	2600 6900 2600 6800
Wire Wire Line
	2850 6800 2850 6900
Wire Wire Line
	2850 7300 2850 7400
Wire Wire Line
	3150 6850 3150 6800
Wire Wire Line
	3150 6800 2850 6800
$Comp
L R R401
U 1 1 5747FA67
P 1450 2450
F 0 "R401" V 1370 2450 40  0000 C CNN
F 1 "10k" V 1457 2451 40  0000 C CNN
F 2 "MyKiCadLibs-Footprints:SMD-1206" V 1380 2450 30  0001 C CNN
F 3 "" V 1370 2450 30  0000 C CNN
F 4 "250mW" V 1550 2450 40  0001 C CNN "Power"
F 5 "MELF0204 1% =>250mW or 1206 1% =>250mW" V 1695 2450 40  0001 C CNN "Description"
F 6 "1206" V 1625 2450 40  0001 C CNN "Size"
F 7 "1%" V 1775 2450 40  0001 C CNN "Tolerance"
	1    1450 2450
	-1   0    0    1   
$EndComp
Wire Wire Line
	5350 800  4750 800 
Connection ~ 5350 1000
Wire Wire Line
	4150 800  4150 1850
Connection ~ 4150 1850
Connection ~ 4150 3050
Wire Wire Line
	4150 2850 4250 2850
Wire Wire Line
	3350 2850 3650 2850
Wire Wire Line
	4050 1650 4250 1650
Text Label 3250 1650 0    60   ~ 0
VCML
Wire Wire Line
	3250 1650 3550 1650
Wire Wire Line
	5350 3850 4800 3850
Connection ~ 5350 3600
Wire Wire Line
	1100 2450 1150 2450
Wire Wire Line
	1150 2450 1150 2500
Wire Wire Line
	1250 2250 1100 2250
Wire Wire Line
	1100 2350 1250 2350
Wire Wire Line
	1250 1850 1250 2250
Wire Wire Line
	1250 2350 1250 3050
Connection ~ 4150 6400
Connection ~ 4150 5200
Wire Wire Line
	5350 7200 4800 7200
Connection ~ 5350 6950
Wire Wire Line
	4750 4150 5350 4150
Connection ~ 5350 4350
Wire Wire Line
	3200 5000 3550 5000
Text Label 3250 6200 0    60   ~ 0
VCMR
Wire Wire Line
	3250 6200 3600 6200
Wire Wire Line
	4100 6200 4250 6200
Wire Wire Line
	4250 5000 4050 5000
Wire Wire Line
	2000 1950 2000 1850
Connection ~ 2000 1850
Wire Wire Line
	2300 1950 2300 1850
Connection ~ 2300 1850
$Comp
L GNDA #PWR0124
U 1 1 574E4638
P 2000 2500
F 0 "#PWR0124" H 2000 2250 50  0001 C CNN
F 1 "GNDA" H 2000 2350 50  0000 C CNN
F 2 "" H 2000 2500 60  0000 C CNN
F 3 "" H 2000 2500 60  0000 C CNN
	1    2000 2500
	-1   0    0    -1  
$EndComp
Wire Wire Line
	2000 2500 2000 2350
$Comp
L GNDA #PWR0125
U 1 1 574E4A14
P 2300 2500
F 0 "#PWR0125" H 2300 2250 50  0001 C CNN
F 1 "GNDA" H 2300 2350 50  0000 C CNN
F 2 "" H 2300 2500 60  0000 C CNN
F 3 "" H 2300 2500 60  0000 C CNN
	1    2300 2500
	-1   0    0    -1  
$EndComp
Wire Wire Line
	2300 2500 2300 2450
$Comp
L C C409
U 1 1 574E557B
P 2000 3350
F 0 "C409" H 2000 3450 40  0000 L CNN
F 1 "100p" H 2010 3265 40  0000 L CNN
F 2 "MyKiCadLibs-Footprints:SMD-0805" H 2038 3200 30  0001 C CNN
F 3 "" H 2000 3450 60  0000 C CNN
F 4 "50V" H 2015 3195 40  0000 L CNN "Voltage"
F 5 "C0G" H 2015 3125 40  0000 L CNN "Type"
F 6 "Ceramic capacitor" H 2000 3650 40  0001 L CNN "Description"
F 7 "5%" H 2070 2985 40  0001 C CNN "Tolerance"
F 8 "0805" H 2010 3055 40  0001 L CNN "Size"
	1    2000 3350
	1    0    0    -1  
$EndComp
Wire Wire Line
	2300 3150 2300 3050
Connection ~ 2300 3050
Wire Wire Line
	2000 3150 2000 3050
Connection ~ 2000 3050
$Comp
L GNDA #PWR0126
U 1 1 574E6165
P 2000 3700
F 0 "#PWR0126" H 2000 3450 50  0001 C CNN
F 1 "GNDA" H 2000 3550 50  0000 C CNN
F 2 "" H 2000 3700 60  0000 C CNN
F 3 "" H 2000 3700 60  0000 C CNN
	1    2000 3700
	-1   0    0    -1  
$EndComp
Wire Wire Line
	2000 3700 2000 3550
$Comp
L GNDA #PWR0127
U 1 1 574E616C
P 2300 3700
F 0 "#PWR0127" H 2300 3450 50  0001 C CNN
F 1 "GNDA" H 2300 3550 50  0000 C CNN
F 2 "" H 2300 3700 60  0000 C CNN
F 3 "" H 2300 3700 60  0000 C CNN
	1    2300 3700
	-1   0    0    -1  
$EndComp
Wire Wire Line
	2300 3700 2300 3650
$Comp
L GNDA #PWR0128
U 1 1 574E02B4
P 2000 5850
F 0 "#PWR0128" H 2000 5600 50  0001 C CNN
F 1 "GNDA" H 2000 5700 50  0000 C CNN
F 2 "" H 2000 5850 60  0000 C CNN
F 3 "" H 2000 5850 60  0000 C CNN
	1    2000 5850
	-1   0    0    -1  
$EndComp
$Comp
L GNDA #PWR0129
U 1 1 574E06C9
P 2300 5850
F 0 "#PWR0129" H 2300 5600 50  0001 C CNN
F 1 "GNDA" H 2300 5700 50  0000 C CNN
F 2 "" H 2300 5850 60  0000 C CNN
F 3 "" H 2300 5850 60  0000 C CNN
	1    2300 5850
	-1   0    0    -1  
$EndComp
Wire Wire Line
	2300 5850 2300 5800
Wire Wire Line
	2000 5850 2000 5700
Wire Wire Line
	2300 5200 2300 5300
Connection ~ 2300 5200
$Comp
L C C411
U 1 1 574E1DB8
P 2000 6700
F 0 "C411" H 2000 6800 40  0000 L CNN
F 1 "100p" H 2010 6615 40  0000 L CNN
F 2 "MyKiCadLibs-Footprints:SMD-0805" H 2038 6550 30  0001 C CNN
F 3 "" H 2000 6800 60  0000 C CNN
F 4 "50V" H 2015 6545 40  0000 L CNN "Voltage"
F 5 "C0G" H 2015 6475 40  0000 L CNN "Type"
F 6 "Ceramic capacitor" H 2000 7000 40  0001 L CNN "Description"
F 7 "5%" H 2070 6335 40  0001 C CNN "Tolerance"
F 8 "0805" H 2010 6405 40  0001 L CNN "Size"
	1    2000 6700
	1    0    0    -1  
$EndComp
$Comp
L GNDA #PWR0130
U 1 1 574E1DBE
P 2000 7050
F 0 "#PWR0130" H 2000 6800 50  0001 C CNN
F 1 "GNDA" H 2000 6900 50  0000 C CNN
F 2 "" H 2000 7050 60  0000 C CNN
F 3 "" H 2000 7050 60  0000 C CNN
	1    2000 7050
	-1   0    0    -1  
$EndComp
Wire Wire Line
	2000 7050 2000 6900
Wire Wire Line
	2000 6500 2000 6400
Connection ~ 2000 6400
Wire Wire Line
	2300 6400 2300 6500
Connection ~ 2300 6400
$Comp
L GNDA #PWR0131
U 1 1 574E275E
P 2300 7050
F 0 "#PWR0131" H 2300 6800 50  0001 C CNN
F 1 "GNDA" H 2300 6900 50  0000 C CNN
F 2 "" H 2300 7050 60  0000 C CNN
F 3 "" H 2300 7050 60  0000 C CNN
	1    2300 7050
	-1   0    0    -1  
$EndComp
Wire Wire Line
	2300 7050 2300 7000
Text Notes 2500 3850 0    60   ~ 0
Adjust R411 through to R414 \nto change gain. Keep all values\nthe same.\n\n
Text Notes 2500 3400 0    118  ~ 0
Note
$Comp
L IC-OPAMP-DUAL-SOIC8 U401
U 1 1 574E8E4E
P 4750 1750
F 0 "U401" H 4800 1600 60  0000 L CNN
F 1 "TLE2072" H 4800 1500 60  0000 L CNN
F 2 "MyKiCadLibs-Footprints:IC_SOIC_8" H 4750 1750 60  0001 C CNN
F 3 "" H 4750 1750 60  0000 C CNN
	1    4750 1750
	1    0    0    -1  
$EndComp
$Comp
L IC-OPAMP-DUAL-SOIC8 U401
U 2 1 574E8F45
P 4750 2950
F 0 "U401" H 4800 2800 60  0000 L CNN
F 1 "TLE2072" H 4800 2700 60  0000 L CNN
F 2 "MyKiCadLibs-Footprints:IC_SOIC_8" H 4750 2950 60  0001 C CNN
F 3 "" H 4750 2950 60  0000 C CNN
	2    4750 2950
	1    0    0    -1  
$EndComp
$Comp
L IC-OPAMP-DUAL-SOIC8 U402
U 1 1 574E99EB
P 4750 5100
F 0 "U402" H 4800 4950 60  0000 L CNN
F 1 "TLE2072" H 4800 4850 60  0000 L CNN
F 2 "MyKiCadLibs-Footprints:IC_SOIC_8" H 4750 5100 60  0001 C CNN
F 3 "" H 4750 5100 60  0000 C CNN
	1    4750 5100
	1    0    0    -1  
$EndComp
$Comp
L IC-OPAMP-DUAL-SOIC8 U402
U 2 1 574E9B3F
P 4750 6300
F 0 "U402" H 4800 6150 60  0000 L CNN
F 1 "TLE2072" H 4800 6050 60  0000 L CNN
F 2 "MyKiCadLibs-Footprints:IC_SOIC_8" H 4750 6300 60  0001 C CNN
F 3 "" H 4750 6300 60  0000 C CNN
	2    4750 6300
	1    0    0    -1  
$EndComp
$EndSCHEMATC
