EESchema Schematic File Version 2
LIBS:power
LIBS:MyKiCadLibs-Lib
LIBS:ADC-PCM4202-cache
EELAYER 25 0
EELAYER END
$Descr A3 16535 11693
encoding utf-8
Sheet 3 4
Title "PCM4202 ADC - Single Ended Inputs"
Date "2016-04-20"
Rev "1.1"
Comp "Open Hardware DSP Platform - www.ohdsp.org"
Comment1 "MERCHANTABILITY, SATISFACTORY QUALITY AND FITNESS FOR A PARTICULAR PURPOSE."
Comment2 "is distributed WITHOUT ANY EXPRESS OR IMPLIED WARRANTY, INCLUDING OF"
Comment3 "Licensed under the TAPR Open Hardware License (www.tapr.org/OHL). This documentation"
Comment4 "Copyright Paul Janicki 2016"
$EndDescr
$Comp
L GNDD #PWR026
U 1 1 54DACD02
P 5200 2200
F 0 "#PWR026" H 5200 1950 60  0001 C CNN
F 1 "GNDD" H 5200 2050 60  0000 C CNN
F 2 "" H 5200 2200 60  0000 C CNN
F 3 "" H 5200 2200 60  0000 C CNN
	1    5200 2200
	1    0    0    -1  
$EndComp
Text Label 7000 1050 2    60   ~ 0
DVDD
$Comp
L VDD #PWR027
U 1 1 54DB0DB8
P 4200 900
F 0 "#PWR027" H 4200 750 60  0001 C CNN
F 1 "VDD" H 4200 1050 60  0000 C CNN
F 2 "" H 4200 900 60  0000 C CNN
F 3 "" H 4200 900 60  0000 C CNN
	1    4200 900 
	1    0    0    -1  
$EndComp
$Comp
L VAA #PWR028
U 1 1 54DB3C56
P 7550 900
F 0 "#PWR028" H 7550 750 60  0001 C CNN
F 1 "VAA" H 7550 1050 60  0000 C CNN
F 2 "" H 7550 900 60  0000 C CNN
F 3 "" H 7550 900 60  0000 C CNN
	1    7550 900 
	1    0    0    -1  
$EndComp
Text Notes 7275 8850 0    59   ~ 0
Generate a global reset based on 3V3 rail\nUse ADM811TART (3V08 threshold)
Text Notes 7250 8625 0    118  ~ 0
Voltage Monitor Reset
$Comp
L GNDD #PWR029
U 1 1 54EA141D
P 9650 10600
F 0 "#PWR029" H 9650 10350 60  0001 C CNN
F 1 "GNDD" H 9650 10450 60  0000 C CNN
F 2 "" H 9650 10600 60  0000 C CNN
F 3 "" H 9650 10600 60  0000 C CNN
	1    9650 10600
	-1   0    0    -1  
$EndComp
$Comp
L GNDD #PWR030
U 1 1 54EA2F14
P 7950 10350
F 0 "#PWR030" H 7950 10100 60  0001 C CNN
F 1 "GNDD" H 7950 10200 60  0000 C CNN
F 2 "" H 7950 10350 60  0000 C CNN
F 3 "" H 7950 10350 60  0000 C CNN
	1    7950 10350
	-1   0    0    -1  
$EndComp
$Comp
L GNDD #PWR031
U 1 1 54EA451E
P 8600 9800
F 0 "#PWR031" H 8600 9550 60  0001 C CNN
F 1 "GNDD" H 8600 9650 60  0000 C CNN
F 2 "" H 8600 9800 60  0000 C CNN
F 3 "" H 8600 9800 60  0000 C CNN
	1    8600 9800
	-1   0    0    -1  
$EndComp
$Comp
L GNDD #PWR032
U 1 1 54FF363C
P 10450 10700
F 0 "#PWR032" H 10450 10450 60  0001 C CNN
F 1 "GNDD" H 10450 10550 60  0000 C CNN
F 2 "" H 10450 10700 60  0000 C CNN
F 3 "" H 10450 10700 60  0000 C CNN
	1    10450 10700
	-1   0    0    -1  
$EndComp
$Comp
L GNDD #PWR033
U 1 1 54FF7C76
P 9900 9450
F 0 "#PWR033" H 9900 9200 60  0001 C CNN
F 1 "GNDD" H 9900 9300 60  0000 C CNN
F 2 "" H 9900 9450 60  0000 C CNN
F 3 "" H 9900 9450 60  0000 C CNN
	1    9900 9450
	-1   0    0    -1  
$EndComp
Text Label 11350 8700 2    60   ~ 0
ADC_RESET
$Comp
L GNDD #PWR034
U 1 1 551DB2BB
P 11350 9250
F 0 "#PWR034" H 11350 9000 60  0001 C CNN
F 1 "GNDD" H 11350 9100 60  0000 C CNN
F 2 "" H 11350 9250 60  0000 C CNN
F 3 "" H 11350 9250 60  0000 C CNN
	1    11350 9250
	-1   0    0    -1  
$EndComp
$Comp
L IC-RST-ADM811 U302
U 1 1 5630C25C
P 8650 9550
F 0 "U302" H 8900 9800 60  0000 C CNN
F 1 "ADM811TART" H 9150 9700 60  0000 C CNN
F 2 "MyKiCadLibs-Footprints:IC-SOT143" H 8650 9700 60  0001 C CNN
F 3 "" H 8650 9700 60  0000 C CNN
F 4 "Microprocessor Supervisory - 3V08 Typical Threshold" H 8650 9550 60  0001 C CNN "Description"
	1    8650 9550
	1    0    0    -1  
$EndComp
$Comp
L GNDD #PWR035
U 1 1 5630E7E9
P 10200 9450
F 0 "#PWR035" H 10200 9200 60  0001 C CNN
F 1 "GNDD" H 10200 9300 60  0000 C CNN
F 2 "" H 10200 9450 60  0000 C CNN
F 3 "" H 10200 9450 60  0000 C CNN
	1    10200 9450
	-1   0    0    -1  
$EndComp
$Comp
L GNDD #PWR036
U 1 1 54DB551F
P 6850 5650
F 0 "#PWR036" H 6850 5400 60  0001 C CNN
F 1 "GNDD" H 6850 5500 60  0000 C CNN
F 2 "" H 6850 5650 60  0000 C CNN
F 3 "" H 6850 5650 60  0000 C CNN
	1    6850 5650
	1    0    0    -1  
$EndComp
$Comp
L VDD #PWR037
U 1 1 5631D924
P 7300 9450
F 0 "#PWR037" H 7300 9300 60  0001 C CNN
F 1 "VDD" H 7300 9600 60  0000 C CNN
F 2 "" H 7300 9450 60  0000 C CNN
F 3 "" H 7300 9450 60  0000 C CNN
	1    7300 9450
	1    0    0    -1  
$EndComp
$Comp
L GNDD #PWR038
U 1 1 5632E40F
P 1350 10550
F 0 "#PWR038" H 1350 10300 60  0001 C CNN
F 1 "GNDD" H 1350 10400 60  0000 C CNN
F 2 "" H 1350 10550 60  0000 C CNN
F 3 "" H 1350 10550 60  0000 C CNN
	1    1350 10550
	1    0    0    -1  
$EndComp
Wire Wire Line
	5200 1050 5200 1100
Wire Wire Line
	5200 1600 5200 1650
Connection ~ 5200 1050
Wire Wire Line
	5900 1050 5900 1450
Connection ~ 5550 1050
Connection ~ 5900 1050
Wire Wire Line
	5200 2050 5200 2200
Wire Wire Line
	5550 2150 5550 1850
Connection ~ 5200 2150
Wire Wire Line
	5900 2150 5900 1850
Connection ~ 5550 2150
Connection ~ 5900 2150
Wire Wire Line
	6200 1050 6200 1450
Wire Wire Line
	6200 2150 6200 1850
Connection ~ 6200 2150
Wire Wire Line
	6750 2150 6750 1850
Wire Wire Line
	7000 2150 7000 1850
Connection ~ 6200 1050
Wire Wire Line
	6750 1050 6750 1450
Wire Wire Line
	7000 1050 7000 1450
Wire Wire Line
	4200 900  4200 1050
Wire Wire Line
	4200 1050 4300 1050
Wire Wire Line
	9650 10600 9650 10550
Wire Wire Line
	10450 10050 10450 10250
Wire Wire Line
	7950 10100 7950 10350
Wire Wire Line
	8250 10100 8250 10300
Wire Wire Line
	8250 10300 7950 10300
Connection ~ 7950 10300
Wire Wire Line
	7950 9550 7950 9700
Wire Wire Line
	8250 9550 8250 9700
Connection ~ 7950 9550
Connection ~ 8250 9550
Wire Wire Line
	8600 9800 8600 9700
Wire Wire Line
	8600 9700 8650 9700
Connection ~ 10450 10150
Wire Wire Line
	9650 9700 9650 10150
Connection ~ 9650 10050
Wire Wire Line
	10450 10700 10450 10650
Wire Wire Line
	9900 9450 9900 9400
Wire Wire Line
	9650 8700 10300 8700
Wire Wire Line
	9650 8700 9650 9550
Wire Wire Line
	10800 8700 11350 8700
Wire Wire Line
	11350 8700 11350 8800
Wire Wire Line
	11350 9250 11350 9200
Wire Wire Line
	9650 10050 9700 10050
Wire Wire Line
	9600 9700 9650 9700
Wire Wire Line
	9900 9000 9900 8700
Connection ~ 9900 8700
Wire Wire Line
	9650 9550 9600 9550
Wire Wire Line
	10200 8900 10200 8700
Connection ~ 10200 8700
Wire Wire Line
	10200 9450 10200 9400
Wire Wire Line
	7300 9450 7300 9550
Wire Wire Line
	7300 9550 8650 9550
Wire Wire Line
	1350 9150 1350 9250
Wire Wire Line
	1350 9750 1350 9950
Wire Wire Line
	1300 10050 1350 10050
Wire Wire Line
	1350 10050 1350 10550
Wire Wire Line
	1300 9950 1550 9950
Wire Wire Line
	1550 9950 1550 9200
Wire Wire Line
	10200 10050 10450 10050
Wire Wire Line
	10900 10400 10850 10400
Wire Wire Line
	10850 10400 10850 10150
$Comp
L GNDD #PWR039
U 1 1 563AA3FF
P 10850 10700
F 0 "#PWR039" H 10850 10450 60  0001 C CNN
F 1 "GNDD" H 10850 10550 60  0000 C CNN
F 2 "" H 10850 10700 60  0000 C CNN
F 3 "" H 10850 10700 60  0000 C CNN
	1    10850 10700
	-1   0    0    -1  
$EndComp
Wire Wire Line
	10850 10700 10850 10500
Wire Wire Line
	10850 10500 10900 10500
Wire Wire Line
	5550 1050 5550 1450
$Comp
L IC-ADC-PCM4202 U301
U 1 1 568EAFAD
P 6900 4300
F 0 "U301" H 7450 4550 60  0000 C CNN
F 1 "PCM4202DBT" H 7450 4450 60  0000 C CNN
F 2 "MyKiCadLibs-Footprints:IC-SSOP28" H 6900 4300 60  0001 C CNN
F 3 "" H 6900 4300 60  0000 C CNN
F 4 "High-Performance 24-Bit, 216kHz Sampling Stereo Audio Analog-to-Digital Converter" H 6900 4300 60  0001 C CNN "Description"
	1    6900 4300
	1    0    0    -1  
$EndComp
Wire Wire Line
	4900 1050 7000 1050
Wire Wire Line
	5200 2150 7000 2150
$Comp
L GNDD #PWR040
U 1 1 568EFC5F
P 8550 2200
F 0 "#PWR040" H 8550 1950 60  0001 C CNN
F 1 "GNDD" H 8550 2050 60  0000 C CNN
F 2 "" H 8550 2200 60  0000 C CNN
F 3 "" H 8550 2200 60  0000 C CNN
	1    8550 2200
	1    0    0    -1  
$EndComp
Wire Wire Line
	8550 1050 8550 1100
Wire Wire Line
	8550 1600 8550 1650
Connection ~ 8550 1050
Wire Wire Line
	9250 1050 9250 1450
Connection ~ 8900 1050
Connection ~ 9250 1050
Wire Wire Line
	8550 2050 8550 2200
Wire Wire Line
	8900 2150 8900 1850
Connection ~ 8550 2150
Wire Wire Line
	9250 2150 9250 1850
Connection ~ 8900 2150
Connection ~ 9250 2150
Wire Wire Line
	9550 1050 9550 1450
Wire Wire Line
	9550 2150 9550 1850
Connection ~ 9550 2150
Wire Wire Line
	10350 2150 10350 1850
Connection ~ 9550 1050
Wire Wire Line
	10350 1050 10350 1450
Wire Wire Line
	7550 900  7550 1050
Wire Wire Line
	7550 1050 7650 1050
Wire Wire Line
	8900 1050 8900 1450
Wire Wire Line
	8250 1050 10350 1050
Wire Wire Line
	8550 2150 10350 2150
Wire Wire Line
	8050 5400 9300 5400
Wire Wire Line
	8050 5500 9200 5500
Wire Wire Line
	8050 5600 9100 5600
Text Label 6450 5600 0    60   ~ 0
DVDD
Wire Wire Line
	6850 4400 6850 5650
Wire Wire Line
	8050 5300 10250 5300
Text Label 8700 5200 2    60   ~ 0
ADC_RESET
Wire Wire Line
	8700 5200 8050 5200
$Comp
L GNDD #PWR041
U 1 1 569031AB
P 8100 5650
F 0 "#PWR041" H 8100 5400 60  0001 C CNN
F 1 "GNDD" H 8100 5500 60  0000 C CNN
F 2 "" H 8100 5650 60  0000 C CNN
F 3 "" H 8100 5650 60  0000 C CNN
	1    8100 5650
	1    0    0    -1  
$EndComp
Wire Wire Line
	8100 4400 8100 5650
Wire Wire Line
	8100 4800 8050 4800
Text Label 8700 4900 2    60   ~ 0
AVCC
Wire Wire Line
	8700 4900 8050 4900
Wire Wire Line
	6850 4400 6900 4400
Wire Wire Line
	8050 4400 8100 4400
Connection ~ 8100 4800
$Comp
L GNDD #PWR042
U 1 1 5690836C
P 5200 4150
F 0 "#PWR042" H 5200 3900 60  0001 C CNN
F 1 "GNDD" H 5200 4000 60  0000 C CNN
F 2 "" H 5200 4150 60  0000 C CNN
F 3 "" H 5200 4150 60  0000 C CNN
	1    5200 4150
	1    0    0    -1  
$EndComp
Wire Wire Line
	5200 3950 5200 4150
Wire Wire Line
	5200 4050 6150 4050
Wire Wire Line
	5550 4050 5550 3950
Connection ~ 5200 4050
Wire Wire Line
	5850 4050 5850 3950
Connection ~ 5550 4050
Wire Wire Line
	6150 4050 6150 3950
Connection ~ 5850 4050
Wire Wire Line
	6900 4300 6850 4300
Wire Wire Line
	6850 4300 6850 3500
Wire Wire Line
	6850 3500 5200 3500
Wire Wire Line
	6150 3500 6150 3550
Wire Wire Line
	5850 3500 5850 3550
Connection ~ 6150 3500
Wire Wire Line
	5550 3500 5550 3550
Connection ~ 5850 3500
Wire Wire Line
	5200 3500 5200 3550
Connection ~ 5550 3500
$Comp
L GNDD #PWR043
U 1 1 56908D14
P 9750 4100
F 0 "#PWR043" H 9750 3850 60  0001 C CNN
F 1 "GNDD" H 9750 3950 60  0000 C CNN
F 2 "" H 9750 4100 60  0000 C CNN
F 3 "" H 9750 4100 60  0000 C CNN
	1    9750 4100
	-1   0    0    -1  
$EndComp
Wire Wire Line
	9750 3950 9750 4100
Wire Wire Line
	8800 4050 9750 4050
Wire Wire Line
	9400 4050 9400 3950
Connection ~ 9750 4050
Wire Wire Line
	9100 4050 9100 3950
Connection ~ 9400 4050
Wire Wire Line
	8800 4050 8800 3950
Connection ~ 9100 4050
Wire Wire Line
	8050 4300 8100 4300
Wire Wire Line
	8100 4300 8100 3500
Wire Wire Line
	8100 3500 9750 3500
Wire Wire Line
	8800 3500 8800 3550
Wire Wire Line
	9100 3500 9100 3550
Connection ~ 8800 3500
Wire Wire Line
	9400 3500 9400 3550
Connection ~ 9100 3500
Wire Wire Line
	9750 3500 9750 3550
Connection ~ 9400 3500
$Comp
L GNDD #PWR044
U 1 1 56909954
P 5400 5150
F 0 "#PWR044" H 5400 4900 60  0001 C CNN
F 1 "GNDD" H 5400 5000 60  0000 C CNN
F 2 "" H 5400 5150 60  0000 C CNN
F 3 "" H 5400 5150 60  0000 C CNN
	1    5400 5150
	1    0    0    -1  
$EndComp
Wire Wire Line
	5400 4950 5400 5150
Wire Wire Line
	5400 5100 5700 5100
Wire Wire Line
	5700 5100 5700 4950
Connection ~ 5400 5100
Wire Wire Line
	5250 4500 6900 4500
Wire Wire Line
	5700 4500 5700 4550
Wire Wire Line
	5400 4500 5400 4550
Connection ~ 5700 4500
$Comp
L GNDD #PWR045
U 1 1 56909FAE
P 9400 5150
F 0 "#PWR045" H 9400 4900 60  0001 C CNN
F 1 "GNDD" H 9400 5000 60  0000 C CNN
F 2 "" H 9400 5150 60  0000 C CNN
F 3 "" H 9400 5150 60  0000 C CNN
	1    9400 5150
	-1   0    0    -1  
$EndComp
Wire Wire Line
	9400 4950 9400 5150
Wire Wire Line
	9400 5100 9100 5100
Wire Wire Line
	9100 5100 9100 4950
Connection ~ 9400 5100
Wire Wire Line
	8050 4500 9550 4500
Wire Wire Line
	9100 4500 9100 4550
Wire Wire Line
	9400 4500 9400 4550
Connection ~ 9100 4500
Text HLabel 8300 4600 2    60   Input ~ 0
VINR+
Text HLabel 8300 4700 2    60   Input ~ 0
VINR-
Text HLabel 6300 4600 0    60   Input ~ 0
VINL+
Text HLabel 6300 4700 0    60   Input ~ 0
VINL-
Wire Wire Line
	6300 4600 6900 4600
Wire Wire Line
	6900 4700 6300 4700
Wire Wire Line
	8050 4600 8300 4600
Wire Wire Line
	8300 4700 8050 4700
$Comp
L TRAN-NPN-BC847 TR301
U 1 1 5690C77E
P 13400 9000
F 0 "TR301" V 13700 9000 60  0000 C CNN
F 1 "BC847" V 13800 9000 60  0000 C CNN
F 2 "MyKiCadLibs-Footprints:IC-SOT23" H 13400 9000 60  0001 C CNN
F 3 "" H 13400 9000 60  0000 C CNN
F 4 "45 V, 100 mA NPN general-purpose transistors" V 13400 9000 60  0001 C CNN "Description"
	1    13400 9000
	1    0    0    -1  
$EndComp
$Comp
L LED D301
U 1 1 5690C9AA
P 13600 8300
F 0 "D301" H 13600 8400 50  0000 C CNN
F 1 "Red LED 1206" H 13600 8150 50  0000 C CNN
F 2 "MyKiCadLibs-Footprints:SMD-1206" H 13600 8300 60  0001 C CNN
F 3 "" H 13600 8300 60  0000 C CNN
F 4 "Red LED - SMD - Vf 1.8V to 2.2V" H 13600 8300 60  0001 C CNN "Description"
F 5 "1206" H 13600 8300 60  0001 C CNN "Size"
	1    13600 8300
	0    -1   1    0   
$EndComp
Wire Wire Line
	13600 8000 13600 8100
Wire Wire Line
	13600 8500 13600 8800
$Comp
L VDD #PWR046
U 1 1 5690E681
P 13600 7250
F 0 "#PWR046" H 13600 7100 60  0001 C CNN
F 1 "VDD" H 13600 7400 60  0000 C CNN
F 2 "" H 13600 7250 60  0000 C CNN
F 3 "" H 13600 7250 60  0000 C CNN
	1    13600 7250
	1    0    0    -1  
$EndComp
Wire Wire Line
	13600 7250 13600 7500
$Comp
L GNDD #PWR047
U 1 1 5690F6BD
P 13600 9450
F 0 "#PWR047" H 13600 9200 60  0001 C CNN
F 1 "GNDD" H 13600 9300 60  0000 C CNN
F 2 "" H 13600 9450 60  0000 C CNN
F 3 "" H 13600 9450 60  0000 C CNN
	1    13600 9450
	-1   0    0    -1  
$EndComp
Wire Wire Line
	13600 9450 13600 9200
Wire Wire Line
	13150 9000 13400 9000
$Comp
L TRAN-NPN-BC847 TR302
U 1 1 56916E70
P 15150 9000
F 0 "TR302" V 15450 9000 60  0000 C CNN
F 1 "BC847" V 15550 9000 60  0000 C CNN
F 2 "MyKiCadLibs-Footprints:IC-SOT23" H 15150 9000 60  0001 C CNN
F 3 "" H 15150 9000 60  0000 C CNN
F 4 "45 V, 100 mA NPN general-purpose transistors" V 15150 9000 60  0001 C CNN "Description"
	1    15150 9000
	1    0    0    -1  
$EndComp
Wire Wire Line
	15350 8000 15350 8100
Wire Wire Line
	15350 8500 15350 8800
$Comp
L VDD #PWR048
U 1 1 56916E84
P 15350 7250
F 0 "#PWR048" H 15350 7100 60  0001 C CNN
F 1 "VDD" H 15350 7400 60  0000 C CNN
F 2 "" H 15350 7250 60  0000 C CNN
F 3 "" H 15350 7250 60  0000 C CNN
	1    15350 7250
	1    0    0    -1  
$EndComp
Wire Wire Line
	15350 7250 15350 7500
$Comp
L GNDD #PWR049
U 1 1 56916E8B
P 15350 9450
F 0 "#PWR049" H 15350 9200 60  0001 C CNN
F 1 "GNDD" H 15350 9300 60  0000 C CNN
F 2 "" H 15350 9450 60  0000 C CNN
F 3 "" H 15350 9450 60  0000 C CNN
	1    15350 9450
	-1   0    0    -1  
$EndComp
Wire Wire Line
	15350 9450 15350 9200
Wire Wire Line
	14900 9000 15150 9000
Text Label 8700 5000 2    60   ~ 0
CLIPL
Text Label 8700 5100 2    60   ~ 0
CLIPR
Text Label 14050 9000 0    60   ~ 0
CLIPL
Text Label 12300 9000 0    60   ~ 0
CLIPR
Wire Wire Line
	14050 9000 14400 9000
Wire Wire Line
	12300 9000 12650 9000
Wire Wire Line
	8700 5000 8050 5000
Wire Wire Line
	8050 5100 8700 5100
$Comp
L CONN_2x1 JP301
U 1 1 5691A1BA
P 1300 9950
F 0 "JP301" V 1800 9900 40  0000 C CNN
F 1 "CONN_2x1" V 1750 9900 40  0000 C CNN
F 2 "MyKiCadLibs-Footprints:CONN_SIL_2_1MM" H 1300 9950 60  0001 C CNN
F 3 "" H 1300 9950 60  0000 C CNN
F 4 "1x2 2.54mm pitch pin header" V 1300 9950 60  0001 C CNN "Description"
	1    1300 9950
	-1   0    0    -1  
$EndComp
$Comp
L VDD #PWR050
U 1 1 5691C04D
P 1350 9150
F 0 "#PWR050" H 1350 9000 60  0001 C CNN
F 1 "VDD" H 1350 9300 60  0000 C CNN
F 2 "" H 1350 9150 60  0000 C CNN
F 3 "" H 1350 9150 60  0000 C CNN
	1    1350 9150
	1    0    0    -1  
$EndComp
Connection ~ 1350 9950
Text Label 1550 9200 3    60   ~ 0
FMT0
$Comp
L GNDD #PWR051
U 1 1 5691E875
P 2250 10550
F 0 "#PWR051" H 2250 10300 60  0001 C CNN
F 1 "GNDD" H 2250 10400 60  0000 C CNN
F 2 "" H 2250 10550 60  0000 C CNN
F 3 "" H 2250 10550 60  0000 C CNN
	1    2250 10550
	1    0    0    -1  
$EndComp
Wire Wire Line
	2250 9150 2250 9250
Wire Wire Line
	2250 9750 2250 9950
Wire Wire Line
	2200 10050 2250 10050
Wire Wire Line
	2250 10050 2250 10550
Wire Wire Line
	2200 9950 2450 9950
Wire Wire Line
	2450 9950 2450 9200
$Comp
L VDD #PWR052
U 1 1 5691E88D
P 2250 9150
F 0 "#PWR052" H 2250 9000 60  0001 C CNN
F 1 "VDD" H 2250 9300 60  0000 C CNN
F 2 "" H 2250 9150 60  0000 C CNN
F 3 "" H 2250 9150 60  0000 C CNN
	1    2250 9150
	1    0    0    -1  
$EndComp
Connection ~ 2250 9950
Text Label 2450 9200 3    60   ~ 0
FMT1
$Comp
L GNDD #PWR053
U 1 1 5691E8FA
P 3100 10550
F 0 "#PWR053" H 3100 10300 60  0001 C CNN
F 1 "GNDD" H 3100 10400 60  0000 C CNN
F 2 "" H 3100 10550 60  0000 C CNN
F 3 "" H 3100 10550 60  0000 C CNN
	1    3100 10550
	1    0    0    -1  
$EndComp
Wire Wire Line
	3100 9150 3100 9250
Wire Wire Line
	3100 9750 3100 9950
Wire Wire Line
	3050 10050 3100 10050
Wire Wire Line
	3100 10050 3100 10550
Wire Wire Line
	3050 9950 3300 9950
Wire Wire Line
	3300 9950 3300 9200
$Comp
L VDD #PWR054
U 1 1 5691E912
P 3100 9150
F 0 "#PWR054" H 3100 9000 60  0001 C CNN
F 1 "VDD" H 3100 9300 60  0000 C CNN
F 2 "" H 3100 9150 60  0000 C CNN
F 3 "" H 3100 9150 60  0000 C CNN
	1    3100 9150
	1    0    0    -1  
$EndComp
Connection ~ 3100 9950
Text Label 3300 9200 3    60   ~ 0
SLAVE
$Comp
L GNDD #PWR055
U 1 1 5691EE09
P 3950 10550
F 0 "#PWR055" H 3950 10300 60  0001 C CNN
F 1 "GNDD" H 3950 10400 60  0000 C CNN
F 2 "" H 3950 10550 60  0000 C CNN
F 3 "" H 3950 10550 60  0000 C CNN
	1    3950 10550
	1    0    0    -1  
$EndComp
Wire Wire Line
	3950 9150 3950 9250
Wire Wire Line
	3950 9750 3950 9950
Wire Wire Line
	3900 10050 3950 10050
Wire Wire Line
	3950 10050 3950 10550
Wire Wire Line
	3900 9950 4150 9950
Wire Wire Line
	4150 9950 4150 9200
$Comp
L VDD #PWR056
U 1 1 5691EE21
P 3950 9150
F 0 "#PWR056" H 3950 9000 60  0001 C CNN
F 1 "VDD" H 3950 9300 60  0000 C CNN
F 2 "" H 3950 9150 60  0000 C CNN
F 3 "" H 3950 9150 60  0000 C CNN
	1    3950 9150
	1    0    0    -1  
$EndComp
Connection ~ 3950 9950
Text Label 4150 9200 3    60   ~ 0
FS0
$Comp
L GNDD #PWR057
U 1 1 5691EE29
P 4850 10550
F 0 "#PWR057" H 4850 10300 60  0001 C CNN
F 1 "GNDD" H 4850 10400 60  0000 C CNN
F 2 "" H 4850 10550 60  0000 C CNN
F 3 "" H 4850 10550 60  0000 C CNN
	1    4850 10550
	1    0    0    -1  
$EndComp
Wire Wire Line
	4850 9150 4850 9250
Wire Wire Line
	4850 9750 4850 9950
Wire Wire Line
	4800 10050 4850 10050
Wire Wire Line
	4850 10050 4850 10550
Wire Wire Line
	4800 9950 5050 9950
Wire Wire Line
	5050 9950 5050 9200
$Comp
L VDD #PWR058
U 1 1 5691EE41
P 4850 9150
F 0 "#PWR058" H 4850 9000 60  0001 C CNN
F 1 "VDD" H 4850 9300 60  0000 C CNN
F 2 "" H 4850 9150 60  0000 C CNN
F 3 "" H 4850 9150 60  0000 C CNN
	1    4850 9150
	1    0    0    -1  
$EndComp
Connection ~ 4850 9950
Text Label 5050 9200 3    60   ~ 0
FS1
$Comp
L GNDD #PWR059
U 1 1 5691EE49
P 5700 10550
F 0 "#PWR059" H 5700 10300 60  0001 C CNN
F 1 "GNDD" H 5700 10400 60  0000 C CNN
F 2 "" H 5700 10550 60  0000 C CNN
F 3 "" H 5700 10550 60  0000 C CNN
	1    5700 10550
	1    0    0    -1  
$EndComp
Wire Wire Line
	5700 9150 5700 9250
Wire Wire Line
	5700 9750 5700 9950
Wire Wire Line
	5650 10050 5700 10050
Wire Wire Line
	5700 10050 5700 10550
Wire Wire Line
	5650 9950 5900 9950
Wire Wire Line
	5900 9950 5900 9200
$Comp
L VDD #PWR060
U 1 1 5691EE61
P 5700 9150
F 0 "#PWR060" H 5700 9000 60  0001 C CNN
F 1 "VDD" H 5700 9300 60  0000 C CNN
F 2 "" H 5700 9150 60  0000 C CNN
F 3 "" H 5700 9150 60  0000 C CNN
	1    5700 9150
	1    0    0    -1  
$EndComp
Connection ~ 5700 9950
Text Label 5900 9200 3    60   ~ 0
FS2
$Comp
L GNDD #PWR061
U 1 1 5691F143
P 6550 10550
F 0 "#PWR061" H 6550 10300 60  0001 C CNN
F 1 "GNDD" H 6550 10400 60  0000 C CNN
F 2 "" H 6550 10550 60  0000 C CNN
F 3 "" H 6550 10550 60  0000 C CNN
	1    6550 10550
	1    0    0    -1  
$EndComp
Wire Wire Line
	6550 9150 6550 9250
Wire Wire Line
	6550 9750 6550 9950
Wire Wire Line
	6500 10050 6550 10050
Wire Wire Line
	6550 10050 6550 10550
Wire Wire Line
	6500 9950 6750 9950
Wire Wire Line
	6750 9950 6750 9200
$Comp
L VDD #PWR062
U 1 1 5691F15B
P 6550 9150
F 0 "#PWR062" H 6550 9000 60  0001 C CNN
F 1 "VDD" H 6550 9300 60  0000 C CNN
F 2 "" H 6550 9150 60  0000 C CNN
F 3 "" H 6550 9150 60  0000 C CNN
	1    6550 9150
	1    0    0    -1  
$EndComp
Connection ~ 6550 9950
Text Label 6750 9200 3    60   ~ 0
HPFD
Text Label 6450 5000 0    60   ~ 0
SLAVE
Text Label 6450 4900 0    60   ~ 0
FMT1
Text Label 6450 4800 0    60   ~ 0
FMT0
Text Label 6450 5100 0    60   ~ 0
FS0
Text Label 6450 5200 0    60   ~ 0
FS1
Text Label 6450 5300 0    60   ~ 0
FS2
Wire Wire Line
	6450 4800 6900 4800
Wire Wire Line
	6900 4900 6450 4900
Wire Wire Line
	6450 5000 6900 5000
Wire Wire Line
	6900 5100 6450 5100
Wire Wire Line
	6450 5200 6900 5200
Wire Wire Line
	6900 5300 6450 5300
Wire Wire Line
	6900 5400 6450 5400
Text Label 6450 5400 0    60   ~ 0
HPFD
$Comp
L GNDD #PWR063
U 1 1 5692EC47
P 11600 6700
F 0 "#PWR063" H 11600 6450 60  0001 C CNN
F 1 "GNDD" H 11600 6550 60  0000 C CNN
F 2 "" H 11600 6700 60  0000 C CNN
F 3 "" H 11600 6700 60  0000 C CNN
	1    11600 6700
	-1   0    0    -1  
$EndComp
$Comp
L GNDD #PWR064
U 1 1 5692EC54
P 11800 5950
F 0 "#PWR064" H 11800 5700 60  0001 C CNN
F 1 "GNDD" H 11800 5800 60  0000 C CNN
F 2 "" H 11800 5950 60  0000 C CNN
F 3 "" H 11800 5950 60  0000 C CNN
	1    11800 5950
	1    0    0    -1  
$EndComp
$Comp
L GNDD #PWR065
U 1 1 5692EC5A
P 12400 5950
F 0 "#PWR065" H 12400 5700 60  0001 C CNN
F 1 "GNDD" H 12400 5800 60  0000 C CNN
F 2 "" H 12400 5950 60  0000 C CNN
F 3 "" H 12400 5950 60  0000 C CNN
	1    12400 5950
	1    0    0    -1  
$EndComp
Wire Wire Line
	11300 5500 11300 5950
Wire Wire Line
	11850 5500 11650 5500
Wire Wire Line
	11800 5900 11850 5900
Wire Wire Line
	11600 5900 10750 5900
Wire Wire Line
	11600 5800 11600 5950
Wire Wire Line
	11850 5800 11600 5800
Wire Wire Line
	10750 5700 11850 5700
Wire Wire Line
	10750 5500 11600 5500
Wire Wire Line
	11600 5500 11600 5600
Wire Wire Line
	11600 5600 11850 5600
Wire Wire Line
	11450 5950 11450 5700
Wire Wire Line
	11600 6450 11600 6700
Connection ~ 11450 6600
Wire Wire Line
	11300 6600 11300 6450
Connection ~ 11600 6600
Wire Wire Line
	11150 6600 11600 6600
Wire Wire Line
	11450 6450 11450 6600
Wire Wire Line
	12400 5500 12400 5950
Wire Wire Line
	12400 5900 12350 5900
Wire Wire Line
	12400 5800 12350 5800
Connection ~ 12400 5900
Wire Wire Line
	12400 5700 12350 5700
Connection ~ 12400 5800
Wire Wire Line
	12400 5600 12350 5600
Connection ~ 12400 5700
Wire Wire Line
	12400 5500 12350 5500
Connection ~ 12400 5600
Wire Wire Line
	11650 5500 11650 5300
Wire Wire Line
	11650 5300 10750 5300
Wire Wire Line
	11800 5900 11800 5950
Wire Wire Line
	11150 6600 11150 6450
Connection ~ 11300 6600
Wire Wire Line
	11150 5300 11150 5950
Wire Wire Line
	9100 5900 10250 5900
Wire Wire Line
	9200 5700 10250 5700
Wire Wire Line
	9300 5500 10250 5500
Wire Wire Line
	9100 5600 9100 5900
Wire Wire Line
	9200 5500 9200 5700
Wire Wire Line
	9300 5400 9300 5500
Text HLabel 5250 4500 0    60   Output ~ 0
VCOML
Connection ~ 5400 4500
Text HLabel 9550 4500 2    60   Output ~ 0
VCOMR
Connection ~ 9400 4500
Wire Wire Line
	10850 10150 10450 10150
$Comp
L CONN_3x1 P302
U 1 1 5692B9F5
P 11200 4250
F 0 "P302" H 11450 3950 40  0000 L CNN
F 1 "N/F" H 11450 3875 40  0000 L CNN
F 2 "MyKiCadLibs-Footprints:CONN_SIL_3_1MM" H 11540 4140 60  0001 C CNN
F 3 "" H 11540 4140 60  0000 C CNN
F 4 "1x3 2.54mm pitch pin header" H 11200 4250 60  0001 C CNN "Description"
	1    11200 4250
	1    0    0    -1  
$EndComp
$Comp
L GNDD #PWR066
U 1 1 5692BC4E
P 11150 4600
F 0 "#PWR066" H 11150 4350 60  0001 C CNN
F 1 "GNDD" H 11150 4450 60  0000 C CNN
F 2 "" H 11150 4600 60  0000 C CNN
F 3 "" H 11150 4600 60  0000 C CNN
	1    11150 4600
	1    0    0    -1  
$EndComp
Wire Wire Line
	11150 4250 11150 4600
Wire Wire Line
	11150 4450 11200 4450
Wire Wire Line
	11200 4250 11150 4250
Connection ~ 11150 4450
Wire Wire Line
	10750 4350 11200 4350
Wire Wire Line
	10250 4350 10150 4350
Wire Wire Line
	10150 4350 10150 5300
Connection ~ 10150 5300
Wire Wire Line
	10850 4450 10850 4350
Connection ~ 10850 4350
$Comp
L GNDD #PWR067
U 1 1 56992E22
P 10850 5000
F 0 "#PWR067" H 10850 4750 60  0001 C CNN
F 1 "GNDD" H 10850 4850 60  0000 C CNN
F 2 "" H 10850 5000 60  0000 C CNN
F 3 "" H 10850 5000 60  0000 C CNN
	1    10850 5000
	1    0    0    -1  
$EndComp
Wire Wire Line
	10850 5000 10850 4950
Connection ~ 11150 5300
Connection ~ 11300 5500
Connection ~ 11450 5700
Connection ~ 11600 5900
Text Notes 850  8625 0    118  ~ 0
Configuration Pins
Text Notes 875  8775 0    60   ~ 0
Refer to datasheet for information on configuration
Text Notes 12350 6875 0    118  ~ 0
Left/Right Clipping Indicators
Text Notes 11875 5300 0    60   ~ 0
I2S Output\n(90ohm trace impedance)
Text Notes 11050 4150 0    60   ~ 0
External MCLK input\n(90ohm trace impedance)
Text Notes 950  900  0    118  ~ 0
PCM4202 ADC
Text Label 10350 1050 2    60   ~ 0
AVCC
Connection ~ 6750 1050
Connection ~ 6750 2150
Wire Wire Line
	10100 1450 10100 1050
Connection ~ 10100 1050
Wire Wire Line
	10100 1850 10100 2150
Connection ~ 10100 2150
Wire Wire Line
	6900 5600 6450 5600
Wire Wire Line
	6900 5500 6850 5500
Connection ~ 6850 5500
Text Notes 9000 6450 0    79   ~ 0
Value of R322 and R323:\n75R if PCM4202 set as master\n0R if PCM4202 set as slave
Text Notes 9800 5300 0    60   ~ 0
MCLK
Text Notes 9800 5500 0    60   ~ 0
LRCLK
Text Notes 9800 5700 0    60   ~ 0
BCLK
Text Notes 9800 5900 0    60   ~ 0
SDATA
$Comp
L CP1 C304
U 1 1 570DEF21
P 5550 1650
F 0 "C304" H 5600 1750 50  0000 L CNN
F 1 "220u" H 5600 1550 50  0000 L CNN
F 2 "MyKiCadLibs-Footprints:CAP-TH-D6.3mmP2.5mm" H 5550 1650 60  0001 C CNN
F 3 "" H 5550 1650 60  0000 C CNN
F 4 "10V" H 5675 1470 50  0000 C CNN "Voltage"
F 5 "2.5mm Pitch, 6.3mm Diameter" H 5550 1650 60  0001 C CNN "Size"
F 6 "Aluminium electrolytic low impedance capacitor - eg Panasonic FC or FR parts" H 5550 1650 60  0001 C CNN "Description"
	1    5550 1650
	1    0    0    -1  
$EndComp
$Comp
L CONN_02X05 P303
U 1 1 570BD222
P 12100 5700
F 0 "P303" H 12100 6000 50  0000 C CNN
F 1 "CONN_02X05" H 12100 5400 50  0000 C CNN
F 2 "MyKiCadLibs-Footprints:CONN_DIL_2X5_BOX_1MM" H 12100 4500 60  0001 C CNN
F 3 "" H 12100 4500 60  0000 C CNN
F 4 "2x5 2.54mm pitch box header" H 12100 5300 40  0001 C CNN "Description"
	1    12100 5700
	-1   0    0    -1  
$EndComp
$Comp
L CONN_2x1 JP302
U 1 1 570B98B9
P 2200 9950
F 0 "JP302" V 2700 9900 40  0000 C CNN
F 1 "CONN_2x1" V 2650 9900 40  0000 C CNN
F 2 "MyKiCadLibs-Footprints:CONN_SIL_2_1MM" H 2200 9950 60  0001 C CNN
F 3 "" H 2200 9950 60  0000 C CNN
F 4 "1x2 2.54mm pitch pin header" V 2200 9950 60  0001 C CNN "Description"
	1    2200 9950
	-1   0    0    -1  
$EndComp
$Comp
L CONN_2x1 JP303
U 1 1 570B9C11
P 3050 9950
F 0 "JP303" V 3550 9900 40  0000 C CNN
F 1 "CONN_2x1" V 3500 9900 40  0000 C CNN
F 2 "MyKiCadLibs-Footprints:CONN_SIL_2_1MM" H 3050 9950 60  0001 C CNN
F 3 "" H 3050 9950 60  0000 C CNN
F 4 "1x2 2.54mm pitch pin header" V 3050 9950 60  0001 C CNN "Description"
	1    3050 9950
	-1   0    0    -1  
$EndComp
$Comp
L CONN_2x1 JP304
U 1 1 570B9F67
P 3900 9950
F 0 "JP304" V 4400 9900 40  0000 C CNN
F 1 "CONN_2x1" V 4350 9900 40  0000 C CNN
F 2 "MyKiCadLibs-Footprints:CONN_SIL_2_1MM" H 3900 9950 60  0001 C CNN
F 3 "" H 3900 9950 60  0000 C CNN
F 4 "1x2 2.54mm pitch pin header" V 3900 9950 60  0001 C CNN "Description"
	1    3900 9950
	-1   0    0    -1  
$EndComp
$Comp
L CONN_2x1 JP305
U 1 1 570BA2BD
P 4800 9950
F 0 "JP305" V 5300 9900 40  0000 C CNN
F 1 "CONN_2x1" V 5250 9900 40  0000 C CNN
F 2 "MyKiCadLibs-Footprints:CONN_SIL_2_1MM" H 4800 9950 60  0001 C CNN
F 3 "" H 4800 9950 60  0000 C CNN
F 4 "1x2 2.54mm pitch pin header" V 4800 9950 60  0001 C CNN "Description"
	1    4800 9950
	-1   0    0    -1  
$EndComp
$Comp
L CONN_2x1 JP306
U 1 1 570BA61B
P 5650 9950
F 0 "JP306" V 6150 9900 40  0000 C CNN
F 1 "CONN_2x1" V 6100 9900 40  0000 C CNN
F 2 "MyKiCadLibs-Footprints:CONN_SIL_2_1MM" H 5650 9950 60  0001 C CNN
F 3 "" H 5650 9950 60  0000 C CNN
F 4 "1x2 2.54mm pitch pin header" V 5650 9950 60  0001 C CNN "Description"
	1    5650 9950
	-1   0    0    -1  
$EndComp
$Comp
L CONN_2x1 JP307
U 1 1 570BAA66
P 6500 9950
F 0 "JP307" V 7000 9900 40  0000 C CNN
F 1 "CONN_2x1" V 6950 9900 40  0000 C CNN
F 2 "MyKiCadLibs-Footprints:CONN_SIL_2_1MM" H 6500 9950 60  0001 C CNN
F 3 "" H 6500 9950 60  0000 C CNN
F 4 "1x2 2.54mm pitch pin header" V 6500 9950 60  0001 C CNN "Description"
	1    6500 9950
	-1   0    0    -1  
$EndComp
$Comp
L CONN_2x1 P301
U 1 1 570BB410
P 10900 10400
F 0 "P301" V 11400 10350 40  0000 C CNN
F 1 "CONN_2x1" V 11350 10350 40  0000 C CNN
F 2 "MyKiCadLibs-Footprints:CONN_SIL_2_1MM" H 10900 10400 60  0001 C CNN
F 3 "" H 10900 10400 60  0000 C CNN
F 4 "1x2 2.54mm pitch pin header" V 10900 10400 60  0001 C CNN "Description"
	1    10900 10400
	1    0    0    -1  
$EndComp
$Comp
L C C301
U 1 1 570E7785
P 5200 1850
F 0 "C301" H 5200 1950 40  0000 L CNN
F 1 "100p" H 5210 1765 40  0000 L CNN
F 2 "MyKiCadLibs-Footprints:SMD-0805" H 5238 1700 30  0001 C CNN
F 3 "" H 5200 1950 60  0000 C CNN
F 4 "50V" H 5215 1695 40  0000 L CNN "Voltage"
F 5 "C0G" H 5215 1625 40  0000 L CNN "Type"
F 6 "Ceramic capacitor" H 5200 2150 40  0001 L CNN "Description"
F 7 "5%" H 5270 1485 40  0001 C CNN "Tolerance"
F 8 "0805" H 5210 1555 40  0001 L CNN "Size"
	1    5200 1850
	1    0    0    -1  
$EndComp
$Comp
L R R306
U 1 1 570E83CA
P 5200 1350
F 0 "R306" V 5120 1350 40  0000 C CNN
F 1 "47" V 5207 1351 40  0000 C CNN
F 2 "MyKiCadLibs-Footprints:SMD-0805" V 5130 1350 30  0001 C CNN
F 3 "" V 5120 1350 30  0000 C CNN
F 4 "100mW" V 5300 1350 40  0001 C CNN "Power"
F 5 "Thick or thin film resistor" V 5445 1350 40  0001 C CNN "Description"
F 6 "0805" V 5375 1350 40  0001 C CNN "Size"
F 7 "1%" V 5525 1350 40  0001 C CNN "Tolerance"
	1    5200 1350
	1    0    0    -1  
$EndComp
$Comp
L C C308
U 1 1 570E9474
P 5900 1650
F 0 "C308" H 5900 1750 40  0000 L CNN
F 1 "22u" H 5910 1565 40  0000 L CNN
F 2 "MyKiCadLibs-Footprints:SMD-0805" H 5938 1500 30  0001 C CNN
F 3 "" H 5900 1750 60  0000 C CNN
F 4 "10V" H 5915 1495 40  0000 L CNN "Voltage"
F 5 "X5R" H 5915 1425 40  0000 L CNN "Type"
F 6 "Ceramic capacitor" H 5900 1950 40  0001 L CNN "Description"
F 7 "20%" H 5970 1285 40  0001 C CNN "Tolerance"
F 8 "0805" H 5910 1355 40  0001 L CNN "Size"
	1    5900 1650
	1    0    0    -1  
$EndComp
$Comp
L C C310
U 1 1 570EB434
P 6200 1650
F 0 "C310" H 6200 1750 40  0000 L CNN
F 1 "100n" H 6210 1565 40  0000 L CNN
F 2 "MyKiCadLibs-Footprints:SMD-0805" H 6238 1500 30  0001 C CNN
F 3 "" H 6200 1750 60  0000 C CNN
F 4 "50V" H 6215 1495 40  0000 L CNN "Voltage"
F 5 "X7R" H 6215 1425 40  0000 L CNN "Type"
F 6 "Ceramic capacitor" H 6200 1950 40  0001 L CNN "Description"
F 7 "10%" H 6270 1285 40  0001 C CNN "Tolerance"
F 8 "0805" H 6210 1355 40  0001 L CNN "Size"
	1    6200 1650
	1    0    0    -1  
$EndComp
$Comp
L C C311
U 1 1 570EBDF5
P 6750 1650
F 0 "C311" H 6750 1750 40  0000 L CNN
F 1 "100n" H 6760 1565 40  0000 L CNN
F 2 "MyKiCadLibs-Footprints:SMD-0805" H 6788 1500 30  0001 C CNN
F 3 "" H 6750 1750 60  0000 C CNN
F 4 "50V" H 6765 1495 40  0000 L CNN "Voltage"
F 5 "X7R" H 6765 1425 40  0000 L CNN "Type"
F 6 "Ceramic capacitor" H 6750 1950 40  0001 L CNN "Description"
F 7 "10%" H 6820 1285 40  0001 C CNN "Tolerance"
F 8 "0805" H 6760 1355 40  0001 L CNN "Size"
	1    6750 1650
	1    0    0    -1  
$EndComp
$Comp
L C C312
U 1 1 570EC31A
P 7000 1650
F 0 "C312" H 7000 1750 40  0000 L CNN
F 1 "10n" H 7010 1565 40  0000 L CNN
F 2 "MyKiCadLibs-Footprints:SMD-0805" H 7038 1500 30  0001 C CNN
F 3 "" H 7000 1750 60  0000 C CNN
F 4 "50V" H 7015 1495 40  0000 L CNN "Voltage"
F 5 "X7R" H 7015 1425 40  0000 L CNN "Type"
F 6 "Ceramic capacitor" H 7000 1950 40  0001 L CNN "Description"
F 7 "10%" H 7070 1285 40  0001 C CNN "Tolerance"
F 8 "0805" H 7010 1355 40  0001 L CNN "Size"
	1    7000 1650
	1    0    0    -1  
$EndComp
$Comp
L C C315
U 1 1 570ED061
P 8550 1850
F 0 "C315" H 8550 1950 40  0000 L CNN
F 1 "100p" H 8560 1765 40  0000 L CNN
F 2 "MyKiCadLibs-Footprints:SMD-0805" H 8588 1700 30  0001 C CNN
F 3 "" H 8550 1950 60  0000 C CNN
F 4 "50V" H 8565 1695 40  0000 L CNN "Voltage"
F 5 "C0G" H 8565 1625 40  0000 L CNN "Type"
F 6 "Ceramic capacitor" H 8550 2150 40  0001 L CNN "Description"
F 7 "5%" H 8620 1485 40  0001 C CNN "Tolerance"
F 8 "0805" H 8560 1555 40  0001 L CNN "Size"
	1    8550 1850
	1    0    0    -1  
$EndComp
$Comp
L C C320
U 1 1 570ED225
P 9250 1650
F 0 "C320" H 9250 1750 40  0000 L CNN
F 1 "22u" H 9260 1565 40  0000 L CNN
F 2 "MyKiCadLibs-Footprints:SMD-0805" H 9288 1500 30  0001 C CNN
F 3 "" H 9250 1750 60  0000 C CNN
F 4 "10V" H 9265 1495 40  0000 L CNN "Voltage"
F 5 "X5R" H 9265 1425 40  0000 L CNN "Type"
F 6 "Ceramic capacitor" H 9250 1950 40  0001 L CNN "Description"
F 7 "20%" H 9320 1285 40  0001 C CNN "Tolerance"
F 8 "0805" H 9260 1355 40  0001 L CNN "Size"
	1    9250 1650
	1    0    0    -1  
$EndComp
$Comp
L C C323
U 1 1 570ED230
P 9550 1650
F 0 "C323" H 9550 1750 40  0000 L CNN
F 1 "100n" H 9560 1565 40  0000 L CNN
F 2 "MyKiCadLibs-Footprints:SMD-0805" H 9588 1500 30  0001 C CNN
F 3 "" H 9550 1750 60  0000 C CNN
F 4 "50V" H 9565 1495 40  0000 L CNN "Voltage"
F 5 "X7R" H 9565 1425 40  0000 L CNN "Type"
F 6 "Ceramic capacitor" H 9550 1950 40  0001 L CNN "Description"
F 7 "10%" H 9620 1285 40  0001 C CNN "Tolerance"
F 8 "0805" H 9560 1355 40  0001 L CNN "Size"
	1    9550 1650
	1    0    0    -1  
$EndComp
$Comp
L C C327
U 1 1 570ED246
P 10100 1650
F 0 "C327" H 10100 1750 40  0000 L CNN
F 1 "100n" H 10110 1565 40  0000 L CNN
F 2 "MyKiCadLibs-Footprints:SMD-0805" H 10138 1500 30  0001 C CNN
F 3 "" H 10100 1750 60  0000 C CNN
F 4 "50V" H 10115 1495 40  0000 L CNN "Voltage"
F 5 "X7R" H 10115 1425 40  0000 L CNN "Type"
F 6 "Ceramic capacitor" H 10100 1950 40  0001 L CNN "Description"
F 7 "10%" H 10170 1285 40  0001 C CNN "Tolerance"
F 8 "0805" H 10110 1355 40  0001 L CNN "Size"
	1    10100 1650
	1    0    0    -1  
$EndComp
$Comp
L C C328
U 1 1 570ED251
P 10350 1650
F 0 "C328" H 10350 1750 40  0000 L CNN
F 1 "10n" H 10360 1565 40  0000 L CNN
F 2 "MyKiCadLibs-Footprints:SMD-0805" H 10388 1500 30  0001 C CNN
F 3 "" H 10350 1750 60  0000 C CNN
F 4 "50V" H 10365 1495 40  0000 L CNN "Voltage"
F 5 "X7R" H 10365 1425 40  0000 L CNN "Type"
F 6 "Ceramic capacitor" H 10350 1950 40  0001 L CNN "Description"
F 7 "10%" H 10420 1285 40  0001 C CNN "Tolerance"
F 8 "0805" H 10360 1355 40  0001 L CNN "Size"
	1    10350 1650
	1    0    0    -1  
$EndComp
$Comp
L R R309
U 1 1 570EE411
P 8550 1350
F 0 "R309" V 8470 1350 40  0000 C CNN
F 1 "47" V 8557 1351 40  0000 C CNN
F 2 "MyKiCadLibs-Footprints:SMD-0805" V 8480 1350 30  0001 C CNN
F 3 "" V 8470 1350 30  0000 C CNN
F 4 "100mW" V 8650 1350 40  0001 C CNN "Power"
F 5 "Thick or thin film resistor" V 8795 1350 40  0001 C CNN "Description"
F 6 "0805" V 8725 1350 40  0001 C CNN "Size"
F 7 "1%" V 8875 1350 40  0001 C CNN "Tolerance"
	1    8550 1350
	1    0    0    -1  
$EndComp
$Comp
L C C321
U 1 1 570F03BF
P 9400 3750
F 0 "C321" H 9400 3850 40  0000 L CNN
F 1 "22u" H 9410 3665 40  0000 L CNN
F 2 "MyKiCadLibs-Footprints:SMD-0805" H 9438 3600 30  0001 C CNN
F 3 "" H 9400 3850 60  0000 C CNN
F 4 "10V" H 9415 3595 40  0000 L CNN "Voltage"
F 5 "X5R" H 9415 3525 40  0000 L CNN "Type"
F 6 "Ceramic capacitor" H 9400 4050 40  0001 L CNN "Description"
F 7 "20%" H 9470 3385 40  0001 C CNN "Tolerance"
F 8 "0805" H 9410 3455 40  0001 L CNN "Size"
	1    9400 3750
	1    0    0    -1  
$EndComp
$Comp
L C C318
U 1 1 570F03CA
P 9100 3750
F 0 "C318" H 9100 3850 40  0000 L CNN
F 1 "100n" H 9110 3665 40  0000 L CNN
F 2 "MyKiCadLibs-Footprints:SMD-0805" H 9138 3600 30  0001 C CNN
F 3 "" H 9100 3850 60  0000 C CNN
F 4 "50V" H 9115 3595 40  0000 L CNN "Voltage"
F 5 "X7R" H 9115 3525 40  0000 L CNN "Type"
F 6 "Ceramic capacitor" H 9100 4050 40  0001 L CNN "Description"
F 7 "10%" H 9170 3385 40  0001 C CNN "Tolerance"
F 8 "0805" H 9110 3455 40  0001 L CNN "Size"
	1    9100 3750
	1    0    0    -1  
$EndComp
$Comp
L CP1 C317
U 1 1 570F0636
P 8900 1650
F 0 "C317" H 8950 1750 50  0000 L CNN
F 1 "220u" H 8950 1550 50  0000 L CNN
F 2 "MyKiCadLibs-Footprints:CAP-TH-D6.3mmP2.5mm" H 8900 1650 60  0001 C CNN
F 3 "" H 8900 1650 60  0000 C CNN
F 4 "10V" H 9025 1470 50  0000 C CNN "Voltage"
F 5 "2.5mm Pitch, 6.3mm Diameter" H 8900 1650 60  0001 C CNN "Size"
F 6 "Aluminium electrolytic low impedance capacitor - eg Panasonic FC or FR parts" H 8900 1650 60  0001 C CNN "Description"
	1    8900 1650
	1    0    0    -1  
$EndComp
$Comp
L CP1 C325
U 1 1 570F0ACB
P 9750 3750
F 0 "C325" H 9800 3850 50  0000 L CNN
F 1 "220u" H 9800 3650 50  0000 L CNN
F 2 "MyKiCadLibs-Footprints:CAP-TH-D6.3mmP2.5mm" H 9750 3750 60  0001 C CNN
F 3 "" H 9750 3750 60  0000 C CNN
F 4 "10V" H 9875 3570 50  0000 C CNN "Voltage"
F 5 "2.5mm Pitch, 6.3mm Diameter" H 9750 3750 60  0001 C CNN "Size"
F 6 "Aluminium electrolytic low impedance capacitor - eg Panasonic FC or FR parts" H 9750 3750 60  0001 C CNN "Description"
	1    9750 3750
	1    0    0    -1  
$EndComp
$Comp
L CP1 C302
U 1 1 570F0F18
P 5200 3750
F 0 "C302" H 5250 3850 50  0000 L CNN
F 1 "220u" H 5250 3650 50  0000 L CNN
F 2 "MyKiCadLibs-Footprints:CAP-TH-D6.3mmP2.5mm" H 5200 3750 60  0001 C CNN
F 3 "" H 5200 3750 60  0000 C CNN
F 4 "10V" H 5325 3570 50  0000 C CNN "Voltage"
F 5 "2.5mm Pitch, 6.3mm Diameter" H 5200 3750 60  0001 C CNN "Size"
F 6 "Aluminium electrolytic low impedance capacitor - eg Panasonic FC or FR parts" H 5200 3750 60  0001 C CNN "Description"
	1    5200 3750
	1    0    0    -1  
$EndComp
$Comp
L C C316
U 1 1 570F148C
P 8800 3750
F 0 "C316" H 8800 3850 40  0000 L CNN
F 1 "10n" H 8810 3665 40  0000 L CNN
F 2 "MyKiCadLibs-Footprints:SMD-0805" H 8838 3600 30  0001 C CNN
F 3 "" H 8800 3850 60  0000 C CNN
F 4 "50V" H 8815 3595 40  0000 L CNN "Voltage"
F 5 "X7R" H 8815 3525 40  0000 L CNN "Type"
F 6 "Ceramic capacitor" H 8800 4050 40  0001 L CNN "Description"
F 7 "10%" H 8870 3385 40  0001 C CNN "Tolerance"
F 8 "0805" H 8810 3455 40  0001 L CNN "Size"
	1    8800 3750
	1    0    0    -1  
$EndComp
$Comp
L C C305
U 1 1 570F1C81
P 5550 3750
F 0 "C305" H 5550 3850 40  0000 L CNN
F 1 "22u" H 5560 3665 40  0000 L CNN
F 2 "MyKiCadLibs-Footprints:SMD-0805" H 5588 3600 30  0001 C CNN
F 3 "" H 5550 3850 60  0000 C CNN
F 4 "10V" H 5565 3595 40  0000 L CNN "Voltage"
F 5 "X5R" H 5565 3525 40  0000 L CNN "Type"
F 6 "Ceramic capacitor" H 5550 4050 40  0001 L CNN "Description"
F 7 "20%" H 5620 3385 40  0001 C CNN "Tolerance"
F 8 "0805" H 5560 3455 40  0001 L CNN "Size"
	1    5550 3750
	1    0    0    -1  
$EndComp
$Comp
L C C307
U 1 1 570F1C8C
P 5850 3750
F 0 "C307" H 5850 3850 40  0000 L CNN
F 1 "100n" H 5860 3665 40  0000 L CNN
F 2 "MyKiCadLibs-Footprints:SMD-0805" H 5888 3600 30  0001 C CNN
F 3 "" H 5850 3850 60  0000 C CNN
F 4 "50V" H 5865 3595 40  0000 L CNN "Voltage"
F 5 "X7R" H 5865 3525 40  0000 L CNN "Type"
F 6 "Ceramic capacitor" H 5850 4050 40  0001 L CNN "Description"
F 7 "10%" H 5920 3385 40  0001 C CNN "Tolerance"
F 8 "0805" H 5860 3455 40  0001 L CNN "Size"
	1    5850 3750
	1    0    0    -1  
$EndComp
$Comp
L C C309
U 1 1 570F1C97
P 6150 3750
F 0 "C309" H 6150 3850 40  0000 L CNN
F 1 "10n" H 6160 3665 40  0000 L CNN
F 2 "MyKiCadLibs-Footprints:SMD-0805" H 6188 3600 30  0001 C CNN
F 3 "" H 6150 3850 60  0000 C CNN
F 4 "50V" H 6165 3595 40  0000 L CNN "Voltage"
F 5 "X7R" H 6165 3525 40  0000 L CNN "Type"
F 6 "Ceramic capacitor" H 6150 4050 40  0001 L CNN "Description"
F 7 "10%" H 6220 3385 40  0001 C CNN "Tolerance"
F 8 "0805" H 6160 3455 40  0001 L CNN "Size"
	1    6150 3750
	1    0    0    -1  
$EndComp
$Comp
L C C303
U 1 1 570F387D
P 5400 4750
F 0 "C303" H 5400 4850 40  0000 L CNN
F 1 "100n" H 5410 4665 40  0000 L CNN
F 2 "MyKiCadLibs-Footprints:SMD-0805" H 5438 4600 30  0001 C CNN
F 3 "" H 5400 4850 60  0000 C CNN
F 4 "50V" H 5415 4595 40  0000 L CNN "Voltage"
F 5 "X7R" H 5415 4525 40  0000 L CNN "Type"
F 6 "Ceramic capacitor" H 5400 5050 40  0001 L CNN "Description"
F 7 "10%" H 5470 4385 40  0001 C CNN "Tolerance"
F 8 "0805" H 5410 4455 40  0000 L CNN "Size"
	1    5400 4750
	1    0    0    -1  
$EndComp
$Comp
L C C306
U 1 1 570F3888
P 5700 4750
F 0 "C306" H 5700 4850 40  0000 L CNN
F 1 "10n" H 5710 4665 40  0000 L CNN
F 2 "MyKiCadLibs-Footprints:SMD-0805" H 5738 4600 30  0001 C CNN
F 3 "" H 5700 4850 60  0000 C CNN
F 4 "50V" H 5715 4595 40  0000 L CNN "Voltage"
F 5 "X7R" H 5715 4525 40  0000 L CNN "Type"
F 6 "Ceramic capacitor" H 5700 5050 40  0001 L CNN "Description"
F 7 "10%" H 5770 4385 40  0001 C CNN "Tolerance"
F 8 "0805" H 5710 4455 40  0000 L CNN "Size"
	1    5700 4750
	1    0    0    -1  
$EndComp
$Comp
L C C322
U 1 1 570F6D25
P 9400 4750
F 0 "C322" H 9400 4850 40  0000 L CNN
F 1 "100n" H 9410 4665 40  0000 L CNN
F 2 "MyKiCadLibs-Footprints:SMD-0805" H 9438 4600 30  0001 C CNN
F 3 "" H 9400 4850 60  0000 C CNN
F 4 "50V" H 9415 4595 40  0000 L CNN "Voltage"
F 5 "X7R" H 9415 4525 40  0000 L CNN "Type"
F 6 "Ceramic capacitor" H 9400 5050 40  0001 L CNN "Description"
F 7 "10%" H 9470 4385 40  0001 C CNN "Tolerance"
F 8 "0805" H 9410 4455 40  0000 L CNN "Size"
	1    9400 4750
	1    0    0    -1  
$EndComp
$Comp
L C C319
U 1 1 570F6D30
P 9100 4750
F 0 "C319" H 9100 4850 40  0000 L CNN
F 1 "10n" H 9110 4665 40  0000 L CNN
F 2 "MyKiCadLibs-Footprints:SMD-0805" H 9138 4600 30  0001 C CNN
F 3 "" H 9100 4850 60  0000 C CNN
F 4 "50V" H 9115 4595 40  0000 L CNN "Voltage"
F 5 "X7R" H 9115 4525 40  0000 L CNN "Type"
F 6 "Ceramic capacitor" H 9100 5050 40  0001 L CNN "Description"
F 7 "10%" H 9170 4385 40  0001 C CNN "Tolerance"
F 8 "0805" H 9110 4455 40  0000 L CNN "Size"
	1    9100 4750
	1    0    0    -1  
$EndComp
$Comp
L R R312
U 1 1 570F7C74
P 10500 4350
F 0 "R312" V 10420 4350 40  0000 C CNN
F 1 "N/F" V 10507 4351 40  0000 C CNN
F 2 "MyKiCadLibs-Footprints:SMD-0805" V 10430 4350 30  0001 C CNN
F 3 "" V 10420 4350 30  0000 C CNN
F 4 "100mW" V 10600 4350 40  0001 C CNN "Power"
F 5 "Thick or thin film resistor" V 10745 4350 40  0001 C CNN "Description"
F 6 "0805" V 10675 4350 40  0001 C CNN "Size"
F 7 "1%" V 10825 4350 40  0001 C CNN "Tolerance"
	1    10500 4350
	0    1    1    0   
$EndComp
$Comp
L R R318
U 1 1 570F8D48
P 10850 4700
F 0 "R318" V 10770 4700 40  0000 C CNN
F 1 "N/F" V 10857 4701 40  0000 C CNN
F 2 "MyKiCadLibs-Footprints:SMD-0805" V 10780 4700 30  0001 C CNN
F 3 "" V 10770 4700 30  0000 C CNN
F 4 "100mW" V 10950 4700 40  0001 C CNN "Power"
F 5 "Thick or thin film resistor" V 11095 4700 40  0001 C CNN "Description"
F 6 "0805" V 11025 4700 40  0001 C CNN "Size"
F 7 "1%" V 11175 4700 40  0001 C CNN "Tolerance"
	1    10850 4700
	1    0    0    1   
$EndComp
$Comp
L R R313
U 1 1 570FA011
P 10500 5300
F 0 "R313" V 10420 5300 40  0000 C CNN
F 1 "0" V 10507 5301 40  0000 C CNN
F 2 "MyKiCadLibs-Footprints:SMD-0805" V 10430 5300 30  0001 C CNN
F 3 "" V 10420 5300 30  0000 C CNN
F 4 "100mW" V 10600 5300 40  0001 C CNN "Power"
F 5 "Thick or thin film resistor" V 10745 5300 40  0001 C CNN "Description"
F 6 "0805" V 10675 5300 40  0001 C CNN "Size"
F 7 "1%" V 10825 5300 40  0001 C CNN "Tolerance"
	1    10500 5300
	0    1    1    0   
$EndComp
$Comp
L R R314
U 1 1 570FA3FF
P 10500 5500
F 0 "R314" V 10420 5500 40  0000 C CNN
F 1 "0" V 10507 5501 40  0000 C CNN
F 2 "MyKiCadLibs-Footprints:SMD-0805" V 10430 5500 30  0001 C CNN
F 3 "" V 10420 5500 30  0000 C CNN
F 4 "100mW" V 10600 5500 40  0001 C CNN "Power"
F 5 "Thick or thin film resistor" V 10745 5500 40  0001 C CNN "Description"
F 6 "0805" V 10675 5500 40  0001 C CNN "Size"
F 7 "1%" V 10825 5500 40  0001 C CNN "Tolerance"
	1    10500 5500
	0    1    1    0   
$EndComp
$Comp
L R R315
U 1 1 570FA714
P 10500 5700
F 0 "R315" V 10420 5700 40  0000 C CNN
F 1 "0" V 10507 5701 40  0000 C CNN
F 2 "MyKiCadLibs-Footprints:SMD-0805" V 10430 5700 30  0001 C CNN
F 3 "" V 10420 5700 30  0000 C CNN
F 4 "100mW" V 10600 5700 40  0001 C CNN "Power"
F 5 "Thick or thin film resistor" V 10745 5700 40  0001 C CNN "Description"
F 6 "0805" V 10675 5700 40  0001 C CNN "Size"
F 7 "1%" V 10825 5700 40  0001 C CNN "Tolerance"
	1    10500 5700
	0    1    1    0   
$EndComp
$Comp
L R R316
U 1 1 570FA823
P 10500 5900
F 0 "R316" V 10420 5900 40  0000 C CNN
F 1 "75" V 10507 5901 40  0000 C CNN
F 2 "MyKiCadLibs-Footprints:SMD-0805" V 10430 5900 30  0001 C CNN
F 3 "" V 10420 5900 30  0000 C CNN
F 4 "100mW" V 10600 5900 40  0001 C CNN "Power"
F 5 "Thick or thin film resistor" V 10745 5900 40  0001 C CNN "Description"
F 6 "0805" V 10675 5900 40  0001 C CNN "Size"
F 7 "1%" V 10825 5900 40  0001 C CNN "Tolerance"
	1    10500 5900
	0    1    1    0   
$EndComp
$Comp
L R R319
U 1 1 570FB5C6
P 11150 6200
F 0 "R319" V 11100 6500 40  0000 C CNN
F 1 "N/F" V 11157 6201 40  0000 C CNN
F 2 "MyKiCadLibs-Footprints:SMD-0805" V 11080 6200 30  0001 C CNN
F 3 "" V 11070 6200 30  0000 C CNN
F 4 "100mW" V 11250 6200 40  0001 C CNN "Power"
F 5 "Thick or thin film resistor" V 11395 6200 40  0001 C CNN "Description"
F 6 "0805" V 11325 6200 40  0001 C CNN "Size"
F 7 "1%" V 11475 6200 40  0001 C CNN "Tolerance"
	1    11150 6200
	1    0    0    1   
$EndComp
$Comp
L R R320
U 1 1 570FBA22
P 11300 6200
F 0 "R320" V 11250 6500 40  0000 C CNN
F 1 "N/F" V 11307 6201 40  0000 C CNN
F 2 "MyKiCadLibs-Footprints:SMD-0805" V 11230 6200 30  0001 C CNN
F 3 "" V 11220 6200 30  0000 C CNN
F 4 "100mW" V 11400 6200 40  0001 C CNN "Power"
F 5 "Thick or thin film resistor" V 11545 6200 40  0001 C CNN "Description"
F 6 "0805" V 11475 6200 40  0001 C CNN "Size"
F 7 "1%" V 11625 6200 40  0001 C CNN "Tolerance"
	1    11300 6200
	1    0    0    1   
$EndComp
$Comp
L R R321
U 1 1 570FBCFE
P 11450 6200
F 0 "R321" V 11400 6500 40  0000 C CNN
F 1 "N/F" V 11457 6201 40  0000 C CNN
F 2 "MyKiCadLibs-Footprints:SMD-0805" V 11380 6200 30  0001 C CNN
F 3 "" V 11370 6200 30  0000 C CNN
F 4 "100mW" V 11550 6200 40  0001 C CNN "Power"
F 5 "Thick or thin film resistor" V 11695 6200 40  0001 C CNN "Description"
F 6 "0805" V 11625 6200 40  0001 C CNN "Size"
F 7 "1%" V 11775 6200 40  0001 C CNN "Tolerance"
	1    11450 6200
	1    0    0    1   
$EndComp
$Comp
L R R322
U 1 1 570FBDF9
P 11600 6200
F 0 "R322" V 11550 6500 40  0000 C CNN
F 1 "N/F" V 11607 6201 40  0000 C CNN
F 2 "MyKiCadLibs-Footprints:SMD-0805" V 11530 6200 30  0001 C CNN
F 3 "" V 11520 6200 30  0000 C CNN
F 4 "100mW" V 11700 6200 40  0001 C CNN "Power"
F 5 "Thick or thin film resistor" V 11845 6200 40  0001 C CNN "Description"
F 6 "0805" V 11775 6200 40  0001 C CNN "Size"
F 7 "1%" V 11925 6200 40  0001 C CNN "Tolerance"
	1    11600 6200
	1    0    0    1   
$EndComp
$Comp
L INDUCTOR L301
U 1 1 570FDD2B
P 4600 1050
F 0 "L301" V 4550 1050 40  0000 C CNN
F 1 "600R@100MHz" V 4700 1050 40  0000 C CNN
F 2 "MyKiCadLibs-Footprints:SMD-0805" H 4600 1050 60  0001 C CNN
F 3 "" H 4600 1050 60  0000 C CNN
F 4 "=>0.3A" V 4750 1050 40  0000 C CNN "Current"
F 5 "Ferrite bead, current rating 0.3A or higher, 600R@100MHz" V 4800 1100 40  0001 C CNN "Description"
F 6 "0805" V 4855 1050 40  0001 C CNN "Size"
	1    4600 1050
	0    -1   -1   0   
$EndComp
$Comp
L INDUCTOR L302
U 1 1 570FEB0D
P 7950 1050
F 0 "L302" V 7900 1050 40  0000 C CNN
F 1 "600R@100MHz" V 8050 1050 40  0000 C CNN
F 2 "MyKiCadLibs-Footprints:SMD-0805" H 7950 1050 60  0001 C CNN
F 3 "" H 7950 1050 60  0000 C CNN
F 4 "=>0.3A" V 8100 1050 40  0000 C CNN "Current"
F 5 "Ferrite bead, current rating 0.3A or higher, 600R@100MHz" V 8150 1100 40  0001 C CNN "Description"
F 6 "0805" V 8205 1050 40  0001 C CNN "Size"
	1    7950 1050
	0    -1   -1   0   
$EndComp
$Comp
L R R324
U 1 1 571016AD
P 13600 7750
F 0 "R324" V 13520 7750 40  0000 C CNN
F 1 "470" V 13607 7751 40  0000 C CNN
F 2 "MyKiCadLibs-Footprints:SMD-0805" V 13530 7750 30  0001 C CNN
F 3 "" V 13520 7750 30  0000 C CNN
F 4 "100mW" V 13700 7750 40  0001 C CNN "Power"
F 5 "Thick or thin film resistor" V 13845 7750 40  0001 C CNN "Description"
F 6 "0805" V 13775 7750 40  0001 C CNN "Size"
F 7 "1%" V 13925 7750 40  0001 C CNN "Tolerance"
	1    13600 7750
	1    0    0    1   
$EndComp
$Comp
L R R326
U 1 1 57102A1F
P 15350 7750
F 0 "R326" V 15270 7750 40  0000 C CNN
F 1 "470" V 15357 7751 40  0000 C CNN
F 2 "MyKiCadLibs-Footprints:SMD-0805" V 15280 7750 30  0001 C CNN
F 3 "" V 15270 7750 30  0000 C CNN
F 4 "100mW" V 15450 7750 40  0001 C CNN "Power"
F 5 "Thick or thin film resistor" V 15595 7750 40  0001 C CNN "Description"
F 6 "0805" V 15525 7750 40  0001 C CNN "Size"
F 7 "1%" V 15675 7750 40  0001 C CNN "Tolerance"
	1    15350 7750
	1    0    0    1   
$EndComp
$Comp
L R R323
U 1 1 571036C4
P 12900 9000
F 0 "R323" V 12820 9000 40  0000 C CNN
F 1 "1k" V 12907 9001 40  0000 C CNN
F 2 "MyKiCadLibs-Footprints:SMD-0805" V 12830 9000 30  0001 C CNN
F 3 "" V 12820 9000 30  0000 C CNN
F 4 "100mW" V 13000 9000 40  0001 C CNN "Power"
F 5 "Thick or thin film resistor" V 13145 9000 40  0001 C CNN "Description"
F 6 "0805" V 13075 9000 40  0001 C CNN "Size"
F 7 "1%" V 13225 9000 40  0001 C CNN "Tolerance"
	1    12900 9000
	0    -1   1    0   
$EndComp
$Comp
L R R325
U 1 1 57103E0A
P 14650 9000
F 0 "R325" V 14570 9000 40  0000 C CNN
F 1 "1k" V 14657 9001 40  0000 C CNN
F 2 "MyKiCadLibs-Footprints:SMD-0805" V 14580 9000 30  0001 C CNN
F 3 "" V 14570 9000 30  0000 C CNN
F 4 "100mW" V 14750 9000 40  0001 C CNN "Power"
F 5 "Thick or thin film resistor" V 14895 9000 40  0001 C CNN "Description"
F 6 "0805" V 14825 9000 40  0001 C CNN "Size"
F 7 "1%" V 14975 9000 40  0001 C CNN "Tolerance"
	1    14650 9000
	0    -1   1    0   
$EndComp
$Comp
L LED D302
U 1 1 57105533
P 15350 8300
F 0 "D302" H 15350 8400 50  0000 C CNN
F 1 "Red LED 1206" H 15350 8150 50  0000 C CNN
F 2 "MyKiCadLibs-Footprints:SMD-1206" H 15350 8300 60  0001 C CNN
F 3 "" H 15350 8300 60  0000 C CNN
F 4 "Red LED - SMD - Vf 1.8V to 2.2V" H 15350 8300 60  0001 C CNN "Description"
F 5 "1206" H 15350 8300 60  0001 C CNN "Size"
	1    15350 8300
	0    -1   1    0   
$EndComp
$Comp
L R R301
U 1 1 571064CC
P 1350 9500
F 0 "R301" V 1270 9500 40  0000 C CNN
F 1 "10k" V 1357 9501 40  0000 C CNN
F 2 "MyKiCadLibs-Footprints:SMD-0805" V 1280 9500 30  0001 C CNN
F 3 "" V 1270 9500 30  0000 C CNN
F 4 "100mW" V 1450 9500 40  0001 C CNN "Power"
F 5 "Thick or thin film resistor" V 1595 9500 40  0001 C CNN "Description"
F 6 "0805" V 1525 9500 40  0001 C CNN "Size"
F 7 "1%" V 1675 9500 40  0001 C CNN "Tolerance"
	1    1350 9500
	1    0    0    -1  
$EndComp
$Comp
L R R302
U 1 1 571076A0
P 2250 9500
F 0 "R302" V 2170 9500 40  0000 C CNN
F 1 "10k" V 2257 9501 40  0000 C CNN
F 2 "MyKiCadLibs-Footprints:SMD-0805" V 2180 9500 30  0001 C CNN
F 3 "" V 2170 9500 30  0000 C CNN
F 4 "100mW" V 2350 9500 40  0001 C CNN "Power"
F 5 "Thick or thin film resistor" V 2495 9500 40  0001 C CNN "Description"
F 6 "0805" V 2425 9500 40  0001 C CNN "Size"
F 7 "1%" V 2575 9500 40  0001 C CNN "Tolerance"
	1    2250 9500
	1    0    0    -1  
$EndComp
$Comp
L R R303
U 1 1 57107AEB
P 3100 9500
F 0 "R303" V 3020 9500 40  0000 C CNN
F 1 "10k" V 3107 9501 40  0000 C CNN
F 2 "MyKiCadLibs-Footprints:SMD-0805" V 3030 9500 30  0001 C CNN
F 3 "" V 3020 9500 30  0000 C CNN
F 4 "100mW" V 3200 9500 40  0001 C CNN "Power"
F 5 "Thick or thin film resistor" V 3345 9500 40  0001 C CNN "Description"
F 6 "0805" V 3275 9500 40  0001 C CNN "Size"
F 7 "1%" V 3425 9500 40  0001 C CNN "Tolerance"
	1    3100 9500
	1    0    0    -1  
$EndComp
$Comp
L R R304
U 1 1 57108514
P 3950 9500
F 0 "R304" V 3870 9500 40  0000 C CNN
F 1 "10k" V 3957 9501 40  0000 C CNN
F 2 "MyKiCadLibs-Footprints:SMD-0805" V 3880 9500 30  0001 C CNN
F 3 "" V 3870 9500 30  0000 C CNN
F 4 "100mW" V 4050 9500 40  0001 C CNN "Power"
F 5 "Thick or thin film resistor" V 4195 9500 40  0001 C CNN "Description"
F 6 "0805" V 4125 9500 40  0001 C CNN "Size"
F 7 "1%" V 4275 9500 40  0001 C CNN "Tolerance"
	1    3950 9500
	1    0    0    -1  
$EndComp
$Comp
L R R305
U 1 1 571088C5
P 4850 9500
F 0 "R305" V 4770 9500 40  0000 C CNN
F 1 "10k" V 4857 9501 40  0000 C CNN
F 2 "MyKiCadLibs-Footprints:SMD-0805" V 4780 9500 30  0001 C CNN
F 3 "" V 4770 9500 30  0000 C CNN
F 4 "100mW" V 4950 9500 40  0001 C CNN "Power"
F 5 "Thick or thin film resistor" V 5095 9500 40  0001 C CNN "Description"
F 6 "0805" V 5025 9500 40  0001 C CNN "Size"
F 7 "1%" V 5175 9500 40  0001 C CNN "Tolerance"
	1    4850 9500
	1    0    0    -1  
$EndComp
$Comp
L R R307
U 1 1 57108C12
P 5700 9500
F 0 "R307" V 5620 9500 40  0000 C CNN
F 1 "10k" V 5707 9501 40  0000 C CNN
F 2 "MyKiCadLibs-Footprints:SMD-0805" V 5630 9500 30  0001 C CNN
F 3 "" V 5620 9500 30  0000 C CNN
F 4 "100mW" V 5800 9500 40  0001 C CNN "Power"
F 5 "Thick or thin film resistor" V 5945 9500 40  0001 C CNN "Description"
F 6 "0805" V 5875 9500 40  0001 C CNN "Size"
F 7 "1%" V 6025 9500 40  0001 C CNN "Tolerance"
	1    5700 9500
	1    0    0    -1  
$EndComp
$Comp
L R R308
U 1 1 57109719
P 6550 9500
F 0 "R308" V 6470 9500 40  0000 C CNN
F 1 "10k" V 6557 9501 40  0000 C CNN
F 2 "MyKiCadLibs-Footprints:SMD-0805" V 6480 9500 30  0001 C CNN
F 3 "" V 6470 9500 30  0000 C CNN
F 4 "100mW" V 6650 9500 40  0001 C CNN "Power"
F 5 "Thick or thin film resistor" V 6795 9500 40  0001 C CNN "Description"
F 6 "0805" V 6725 9500 40  0001 C CNN "Size"
F 7 "1%" V 6875 9500 40  0001 C CNN "Tolerance"
	1    6550 9500
	1    0    0    -1  
$EndComp
$Comp
L R R317
U 1 1 5710A56F
P 10550 8700
F 0 "R317" V 10470 8700 40  0000 C CNN
F 1 "100R" V 10557 8701 40  0000 C CNN
F 2 "MyKiCadLibs-Footprints:SMD-0805" V 10480 8700 30  0001 C CNN
F 3 "" V 10470 8700 30  0000 C CNN
F 4 "100mW" V 10650 8700 40  0001 C CNN "Power"
F 5 "Thick or thin film resistor" V 10795 8700 40  0001 C CNN "Description"
F 6 "0805" V 10725 8700 40  0001 C CNN "Size"
F 7 "1%" V 10875 8700 40  0001 C CNN "Tolerance"
	1    10550 8700
	0    1    1    0   
$EndComp
$Comp
L R R311
U 1 1 5710A6B8
P 10200 9150
F 0 "R311" V 10120 9150 40  0000 C CNN
F 1 "100k" V 10207 9151 40  0000 C CNN
F 2 "MyKiCadLibs-Footprints:SMD-0805" V 10130 9150 30  0001 C CNN
F 3 "" V 10120 9150 30  0000 C CNN
F 4 "100mW" V 10300 9150 40  0001 C CNN "Power"
F 5 "Thick or thin film resistor" V 10445 9150 40  0001 C CNN "Description"
F 6 "0805" V 10375 9150 40  0001 C CNN "Size"
F 7 "1%" V 10525 9150 40  0001 C CNN "Tolerance"
	1    10200 9150
	-1   0    0    1   
$EndComp
$Comp
L C C330
U 1 1 5710BB6B
P 11350 9000
F 0 "C330" H 11350 9100 40  0000 L CNN
F 1 "100n" H 11360 8915 40  0000 L CNN
F 2 "MyKiCadLibs-Footprints:SMD-0805" H 11388 8850 30  0001 C CNN
F 3 "" H 11350 9100 60  0000 C CNN
F 4 "50V" H 11365 8845 40  0000 L CNN "Voltage"
F 5 "X7R" H 11365 8775 40  0000 L CNN "Type"
F 6 "Ceramic capacitor" H 11350 9300 40  0001 L CNN "Description"
F 7 "10%" H 11420 8635 40  0001 C CNN "Tolerance"
F 8 "0805" H 11360 8705 40  0001 L CNN "Size"
	1    11350 9000
	1    0    0    -1  
$EndComp
$Comp
L C C326
U 1 1 5710C438
P 9900 9200
F 0 "C326" H 9900 9300 40  0000 L CNN
F 1 "N/F" H 9910 9115 40  0000 L CNN
F 2 "MyKiCadLibs-Footprints:SMD-0805" H 9938 9050 30  0001 C CNN
F 3 "" H 9900 9300 60  0000 C CNN
F 4 "50V" H 9915 9045 40  0001 L CNN "Voltage"
F 5 "X7R" H 9915 8975 40  0001 L CNN "Type"
F 6 "Ceramic capacitor" H 9900 9500 40  0001 L CNN "Description"
F 7 "10%" H 9970 8835 40  0001 C CNN "Tolerance"
F 8 "0805" H 9910 8905 40  0001 L CNN "Size"
	1    9900 9200
	1    0    0    -1  
$EndComp
$Comp
L R R310
U 1 1 5710D23A
P 9950 10050
F 0 "R310" V 9870 10050 40  0000 C CNN
F 1 "1k" V 9957 10051 40  0000 C CNN
F 2 "MyKiCadLibs-Footprints:SMD-0805" V 9880 10050 30  0001 C CNN
F 3 "" V 9870 10050 30  0000 C CNN
F 4 "100mW" V 10050 10050 40  0001 C CNN "Power"
F 5 "Thick or thin film resistor" V 10195 10050 40  0001 C CNN "Description"
F 6 "0805" V 10125 10050 40  0001 C CNN "Size"
F 7 "1%" V 10275 10050 40  0001 C CNN "Tolerance"
	1    9950 10050
	0    -1   1    0   
$EndComp
$Comp
L C C324
U 1 1 5710D602
P 9650 10350
F 0 "C324" H 9650 10450 40  0000 L CNN
F 1 "100n" H 9660 10265 40  0000 L CNN
F 2 "MyKiCadLibs-Footprints:SMD-0805" H 9688 10200 30  0001 C CNN
F 3 "" H 9650 10450 60  0000 C CNN
F 4 "50V" H 9665 10195 40  0000 L CNN "Voltage"
F 5 "X7R" H 9665 10125 40  0000 L CNN "Type"
F 6 "Ceramic capacitor" H 9650 10650 40  0001 L CNN "Description"
F 7 "10%" H 9720 9985 40  0001 C CNN "Tolerance"
F 8 "0805" H 9660 10055 40  0001 L CNN "Size"
	1    9650 10350
	1    0    0    -1  
$EndComp
$Comp
L C C329
U 1 1 5710DA91
P 10450 10450
F 0 "C329" H 10450 10550 40  0000 L CNN
F 1 "100n" H 10460 10365 40  0000 L CNN
F 2 "MyKiCadLibs-Footprints:SMD-0805" H 10488 10300 30  0001 C CNN
F 3 "" H 10450 10550 60  0000 C CNN
F 4 "50V" H 10465 10295 40  0000 L CNN "Voltage"
F 5 "X7R" H 10465 10225 40  0000 L CNN "Type"
F 6 "Ceramic capacitor" H 10450 10750 40  0001 L CNN "Description"
F 7 "10%" H 10520 10085 40  0001 C CNN "Tolerance"
F 8 "0805" H 10460 10155 40  0001 L CNN "Size"
	1    10450 10450
	1    0    0    -1  
$EndComp
$Comp
L C C313
U 1 1 5710F5F1
P 7950 9900
F 0 "C313" H 7950 10000 40  0000 L CNN
F 1 "10u" H 7960 9815 40  0000 L CNN
F 2 "MyKiCadLibs-Footprints:SMD-0805" H 7988 9750 30  0001 C CNN
F 3 "" H 7950 10000 60  0000 C CNN
F 4 "10V" H 7965 9745 40  0000 L CNN "Voltage"
F 5 "X5R" H 7965 9675 40  0000 L CNN "Type"
F 6 "Ceramic capacitor" H 7950 10200 40  0001 L CNN "Description"
F 7 "20%" H 8020 9535 40  0001 C CNN "Tolerance"
F 8 "0805" H 7960 9605 40  0001 L CNN "Size"
	1    7950 9900
	1    0    0    -1  
$EndComp
$Comp
L C C314
U 1 1 5710F5FC
P 8250 9900
F 0 "C314" H 8250 10000 40  0000 L CNN
F 1 "100n" H 8260 9815 40  0000 L CNN
F 2 "MyKiCadLibs-Footprints:SMD-0805" H 8288 9750 30  0001 C CNN
F 3 "" H 8250 10000 60  0000 C CNN
F 4 "50V" H 8265 9745 40  0000 L CNN "Voltage"
F 5 "X7R" H 8265 9675 40  0000 L CNN "Type"
F 6 "Ceramic capacitor" H 8250 10200 40  0001 L CNN "Description"
F 7 "10%" H 8320 9535 40  0001 C CNN "Tolerance"
F 8 "0805" H 8260 9605 40  0001 L CNN "Size"
	1    8250 9900
	1    0    0    -1  
$EndComp
$EndSCHEMATC
