EESchema Schematic File Version 2
LIBS:power
LIBS:MyKiCadLibs-Lib
LIBS:ADC-PCM4202-cache
EELAYER 25 0
EELAYER END
$Descr A4 11693 8268
encoding utf-8
Sheet 1 4
Title "OHDSP - ADC-PCM4202"
Date "22 Jan 16"
Rev "1.0"
Comp ""
Comment1 "MERCHANTABILITY, SATISFACTORY QUALITY AND FITNESS FOR A PARTICULAR PURPOSE."
Comment2 "is distributed WITHOUT ANY EXPRESS OR IMPLIED WARRANTY, INCLUDING OF"
Comment3 "Licensed under the TAPR Open Hardware License (www.tapr.org/OHL). This documentation"
Comment4 "Copyright Paul Janicki 2016"
$EndDescr
$Sheet
S 3400 3550 1800 1050
U 562E6585
F0 "PowerSupply" 60
F1 "PowerSupply.sch" 60
$EndSheet
$Sheet
S 5900 1450 2750 3350
U 563058AB
F0 "PCM4202" 60
F1 "PCM4202.sch" 60
F2 "VINR+" I L 5900 2300 60 
F3 "VINR-" I L 5900 2500 60 
F4 "VINL+" I L 5900 1600 60 
F5 "VINL-" I L 5900 1800 60 
F6 "VCOML" O L 5900 2000 60 
F7 "VCOMR" O L 5900 2700 60 
$EndSheet
$Sheet
S 3150 1500 2300 1300
U 568E96CE
F0 "InputFilters" 60
F1 "InputFilters.sch" 60
F2 "VCOML" I R 5450 2000 60 
F3 "ANAL+" O R 5450 1600 60 
F4 "ANAL-" O R 5450 1800 60 
F5 "ANAR+" O R 5450 2300 60 
F6 "ANAR-" O R 5450 2500 60 
F7 "VCOMR" I R 5450 2700 60 
$EndSheet
Wire Wire Line
	5900 2700 5450 2700
Wire Wire Line
	5450 2500 5900 2500
Wire Wire Line
	5900 2300 5450 2300
Wire Wire Line
	5450 2000 5900 2000
Wire Wire Line
	5900 1800 5450 1800
Wire Wire Line
	5450 1600 5900 1600
Text Notes 800  900  0    118  ~ 0
OHDSP PCM4202 ADC - Differential Inputs
$EndSCHEMATC
