(export (version D)
  (design
    (source C:/Users/pwj/OneDrive/Documents/Electronics/OHDSP/DEV-ADC-PCM4202/Schematics/ADC-PCM4202.sch)
    (date "17/03/2016 14:55:18")
    (tool "Eeschema 4.0.1-stable")
    (sheet (number 1) (name /) (tstamps /)
      (title_block
        (title "OHDSP - ADC-PCM4202")
        (company)
        (rev 1.0)
        (date "22 Jan 16")
        (source ADC-PCM4202.sch)
        (comment (number 1) (value "MERCHANTABILITY, SATISFACTORY QUALITY AND FITNESS FOR A PARTICULAR PURPOSE."))
        (comment (number 2) (value "is distributed WITHOUT ANY EXPRESS OR IMPLIED WARRANTY, INCLUDING OF"))
        (comment (number 3) (value "Licensed under the TAPR Open Hardware License (www.tapr.org/OHL). This documentation"))
        (comment (number 4) (value "Copyright Paul Janicki 2016"))))
    (sheet (number 2) (name /PowerSupply/) (tstamps /562E6585/)
      (title_block
        (title "OHDSP - ADC-PCM4202")
        (company)
        (rev 1.0)
        (date "22 Jan 16")
        (source PowerSupply.sch)
        (comment (number 1) (value "MERCHANTABILITY, SATISFACTORY QUALITY AND FITNESS FOR A PARTICULAR PURPOSE."))
        (comment (number 2) (value "is distributed WITHOUT ANY EXPRESS OR IMPLIED WARRANTY, INCLUDING OF"))
        (comment (number 3) (value "Licensed under the TAPR Open Hardware License (www.tapr.org/OHL). This documentation"))
        (comment (number 4) (value "Copyright Paul Janicki 2016"))))
    (sheet (number 3) (name /PCM4202/) (tstamps /563058AB/)
      (title_block
        (title "OHDSP - ADC-PCM4202")
        (company)
        (rev 1.0)
        (date "22 Jan 16")
        (source PCM4202.sch)
        (comment (number 1) (value "MERCHANTABILITY, SATISFACTORY QUALITY AND FITNESS FOR A PARTICULAR PURPOSE."))
        (comment (number 2) (value "is distributed WITHOUT ANY EXPRESS OR IMPLIED WARRANTY, INCLUDING OF"))
        (comment (number 3) (value "Licensed under the TAPR Open Hardware License (www.tapr.org/OHL). This documentation"))
        (comment (number 4) (value "Copyright Paul Janicki 2016"))))
    (sheet (number 4) (name /InputFilters/) (tstamps /568E96CE/)
      (title_block
        (title "OHDSP - ADC-PCM4202")
        (company)
        (rev 1.0)
        (date "22 Jan 16")
        (source InputFilters.sch)
        (comment (number 1) (value "MERCHANTABILITY, SATISFACTORY QUALITY AND FITNESS FOR A PARTICULAR PURPOSE."))
        (comment (number 2) (value "is distributed WITHOUT ANY EXPRESS OR IMPLIED WARRANTY, INCLUDING OF"))
        (comment (number 3) (value "Licensed under the TAPR Open Hardware License (www.tapr.org/OHL). This documentation"))
        (comment (number 4) (value "Copyright Paul Janicki 2016")))))
  (components
    (comp (ref P203)
      (value CONN_2x1)
      (footprint MyKiCadLibs-Footprints:CONN-2WAY-2.54mm-3.81mm-SPACING)
      (libsource (lib MyKiCadLibs-Lib) (part CONN_2x1))
      (sheetpath (names /PowerSupply/) (tstamps /562E6585/))
      (tstamp 562E6C0C))
    (comp (ref L202)
      (value 600R@100MHz)
      (footprint MyKiCadLibs-Footprints:SMD-0805)
      (libsource (lib MyKiCadLibs-Lib) (part INDUCTOR))
      (sheetpath (names /PowerSupply/) (tstamps /562E6585/))
      (tstamp 562E788F))
    (comp (ref R202)
      (value 47R)
      (footprint MyKiCadLibs-Footprints:SMD-0805)
      (libsource (lib MyKiCadLibs-Lib) (part R))
      (sheetpath (names /PowerSupply/) (tstamps /562E6585/))
      (tstamp 562E8A2F))
    (comp (ref C212)
      (value 100p)
      (footprint MyKiCadLibs-Footprints:SMD-0805)
      (libsource (lib MyKiCadLibs-Lib) (part C))
      (sheetpath (names /PowerSupply/) (tstamps /562E6585/))
      (tstamp 562E8A35))
    (comp (ref C205)
      (value 100n)
      (footprint MyKiCadLibs-Footprints:SMD-0805)
      (libsource (lib MyKiCadLibs-Lib) (part C))
      (sheetpath (names /PowerSupply/) (tstamps /562E6585/))
      (tstamp 562E9365))
    (comp (ref C208)
      (value 10n)
      (footprint MyKiCadLibs-Footprints:SMD-0805)
      (libsource (lib MyKiCadLibs-Lib) (part C))
      (sheetpath (names /PowerSupply/) (tstamps /562E6585/))
      (tstamp 562E958D))
    (comp (ref C220)
      (value 100n)
      (footprint MyKiCadLibs-Footprints:SMD-0805)
      (libsource (lib MyKiCadLibs-Lib) (part C))
      (sheetpath (names /PowerSupply/) (tstamps /562E6585/))
      (tstamp 562E9901))
    (comp (ref C216)
      (value 10n)
      (footprint MyKiCadLibs-Footprints:SMD-0805)
      (libsource (lib MyKiCadLibs-Lib) (part C))
      (sheetpath (names /PowerSupply/) (tstamps /562E6585/))
      (tstamp 562EA8EC))
    (comp (ref C214)
      (value 100n)
      (footprint MyKiCadLibs-Footprints:SMD-0805)
      (libsource (lib MyKiCadLibs-Lib) (part C))
      (sheetpath (names /PowerSupply/) (tstamps /562E6585/))
      (tstamp 562EA8F2))
    (comp (ref C211)
      (value 22u)
      (footprint MyKiCadLibs-Footprints:SMD-0805)
      (libsource (lib MyKiCadLibs-Lib) (part C))
      (sheetpath (names /PowerSupply/) (tstamps /562E6585/))
      (tstamp 562EB299))
    (comp (ref C230)
      (value 10n)
      (footprint MyKiCadLibs-Footprints:SMD-0805)
      (libsource (lib MyKiCadLibs-Lib) (part C))
      (sheetpath (names /PowerSupply/) (tstamps /562E6585/))
      (tstamp 562EB72B))
    (comp (ref C229)
      (value 100n)
      (footprint MyKiCadLibs-Footprints:SMD-0805)
      (libsource (lib MyKiCadLibs-Lib) (part C))
      (sheetpath (names /PowerSupply/) (tstamps /562E6585/))
      (tstamp 562EB731))
    (comp (ref C228)
      (value 22u)
      (footprint MyKiCadLibs-Footprints:SMD-0805)
      (libsource (lib MyKiCadLibs-Lib) (part C))
      (sheetpath (names /PowerSupply/) (tstamps /562E6585/))
      (tstamp 562EB73D))
    (comp (ref C210)
      (value 220u)
      (footprint MyKiCadLibs-Footprints:CAP-TH-D8mmP3.5mm)
      (libsource (lib MyKiCadLibs-Lib) (part CP1))
      (sheetpath (names /PowerSupply/) (tstamps /562E6585/))
      (tstamp 562F2436))
    (comp (ref P205)
      (value CONN_2x1)
      (footprint MyKiCadLibs-Footprints:CONN-2WAY-2.54mm-3.81mm-SPACING)
      (libsource (lib MyKiCadLibs-Lib) (part CONN_2x1))
      (sheetpath (names /PowerSupply/) (tstamps /562E6585/))
      (tstamp 56346FF5))
    (comp (ref D201)
      (value SS14)
      (footprint MyKiCadLibs-Footprints:DIODE-SOD-123)
      (libsource (lib MyKiCadLibs-Lib) (part DIODE))
      (sheetpath (names /PowerSupply/) (tstamps /562E6585/))
      (tstamp 56347BBA))
    (comp (ref U202)
      (value TPS7A4501)
      (footprint MyKiCadLibs-Footprints:IC-SOT223-6)
      (libsource (lib MyKiCadLibs-Lib) (part IC-REG-POS-TPS7A45xx))
      (sheetpath (names /PowerSupply/) (tstamps /562E6585/))
      (tstamp 56326273))
    (comp (ref L201)
      (value 600R@100MHz)
      (footprint MyKiCadLibs-Footprints:SMD-0805)
      (libsource (lib MyKiCadLibs-Lib) (part INDUCTOR))
      (sheetpath (names /PowerSupply/) (tstamps /562E6585/))
      (tstamp 5632A441))
    (comp (ref R201)
      (value 47R)
      (footprint MyKiCadLibs-Footprints:SMD-0805)
      (libsource (lib MyKiCadLibs-Lib) (part R))
      (sheetpath (names /PowerSupply/) (tstamps /562E6585/))
      (tstamp 5632B412))
    (comp (ref C207)
      (value 100p)
      (footprint MyKiCadLibs-Footprints:SMD-0805)
      (libsource (lib MyKiCadLibs-Lib) (part C))
      (sheetpath (names /PowerSupply/) (tstamps /562E6585/))
      (tstamp 5632B418))
    (comp (ref C234)
      (value 10n)
      (footprint MyKiCadLibs-Footprints:SMD-0805)
      (libsource (lib MyKiCadLibs-Lib) (part C))
      (sheetpath (names /PowerSupply/) (tstamps /562E6585/))
      (tstamp 563304DC))
    (comp (ref C233)
      (value 100n)
      (footprint MyKiCadLibs-Footprints:SMD-0805)
      (libsource (lib MyKiCadLibs-Lib) (part C))
      (sheetpath (names /PowerSupply/) (tstamps /562E6585/))
      (tstamp 563304E2))
    (comp (ref C231)
      (value 220u)
      (footprint MyKiCadLibs-Footprints:CAP-TH-D6.3mmP2.5mm)
      (libsource (lib MyKiCadLibs-Lib) (part CP1))
      (sheetpath (names /PowerSupply/) (tstamps /562E6585/))
      (tstamp 563304E8))
    (comp (ref C232)
      (value 22u)
      (footprint MyKiCadLibs-Footprints:SMD-0805)
      (libsource (lib MyKiCadLibs-Lib) (part C))
      (sheetpath (names /PowerSupply/) (tstamps /562E6585/))
      (tstamp 563304EE))
    (comp (ref R208)
      (value 6k8)
      (footprint MyKiCadLibs-Footprints:SMD-0805)
      (libsource (lib MyKiCadLibs-Lib) (part R))
      (sheetpath (names /PowerSupply/) (tstamps /562E6585/))
      (tstamp 563304FA))
    (comp (ref R206)
      (value 2k2)
      (footprint MyKiCadLibs-Footprints:SMD-0805)
      (libsource (lib MyKiCadLibs-Lib) (part R))
      (sheetpath (names /PowerSupply/) (tstamps /562E6585/))
      (tstamp 56330517))
    (comp (ref D202)
      (value SS14)
      (footprint MyKiCadLibs-Footprints:DIODE-SOD-123)
      (libsource (lib MyKiCadLibs-Lib) (part DIODE))
      (sheetpath (names /PowerSupply/) (tstamps /562E6585/))
      (tstamp 563ACD52))
    (comp (ref C222)
      (value 10n)
      (footprint MyKiCadLibs-Footprints:SMD-0805)
      (libsource (lib MyKiCadLibs-Lib) (part C))
      (sheetpath (names /PowerSupply/) (tstamps /562E6585/))
      (tstamp 565D3488))
    (comp (ref C215)
      (value 220u)
      (footprint MyKiCadLibs-Footprints:CAP-TH-D8mmP3.5mm)
      (libsource (lib MyKiCadLibs-Lib) (part CP1))
      (sheetpath (names /PowerSupply/) (tstamps /562E6585/))
      (tstamp 56802718))
    (comp (ref C201)
      (value 220u)
      (footprint MyKiCadLibs-Footprints:CAP-TH-D8mmP3.5mm)
      (libsource (lib MyKiCadLibs-Lib) (part CP1))
      (sheetpath (names /PowerSupply/) (tstamps /562E6585/))
      (tstamp 56802B0A))
    (comp (ref C218)
      (value 22u)
      (footprint MyKiCadLibs-Footprints:SMD-0805)
      (libsource (lib MyKiCadLibs-Lib) (part C))
      (sheetpath (names /PowerSupply/) (tstamps /562E6585/))
      (tstamp 5685A4D9))
    (comp (ref C203)
      (value 22u)
      (footprint MyKiCadLibs-Footprints:SMD-0805)
      (libsource (lib MyKiCadLibs-Lib) (part C))
      (sheetpath (names /PowerSupply/) (tstamps /562E6585/))
      (tstamp 5685B4D7))
    (comp (ref L203)
      (value 600R@100MHz)
      (footprint MyKiCadLibs-Footprints:SMD-0805)
      (libsource (lib MyKiCadLibs-Lib) (part INDUCTOR))
      (sheetpath (names /PowerSupply/) (tstamps /562E6585/))
      (tstamp 568F3FD4))
    (comp (ref R203)
      (value 47R)
      (footprint MyKiCadLibs-Footprints:SMD-0805)
      (libsource (lib MyKiCadLibs-Lib) (part R))
      (sheetpath (names /PowerSupply/) (tstamps /562E6585/))
      (tstamp 568F3FDB))
    (comp (ref C213)
      (value 100p)
      (footprint MyKiCadLibs-Footprints:SMD-0805)
      (libsource (lib MyKiCadLibs-Lib) (part C))
      (sheetpath (names /PowerSupply/) (tstamps /562E6585/))
      (tstamp 568F3FE2))
    (comp (ref C206)
      (value 100n)
      (footprint MyKiCadLibs-Footprints:SMD-0805)
      (libsource (lib MyKiCadLibs-Lib) (part C))
      (sheetpath (names /PowerSupply/) (tstamps /562E6585/))
      (tstamp 568F3FE9))
    (comp (ref C209)
      (value 10n)
      (footprint MyKiCadLibs-Footprints:SMD-0805)
      (libsource (lib MyKiCadLibs-Lib) (part C))
      (sheetpath (names /PowerSupply/) (tstamps /562E6585/))
      (tstamp 568F3FF0))
    (comp (ref C221)
      (value 100n)
      (footprint MyKiCadLibs-Footprints:SMD-0805)
      (libsource (lib MyKiCadLibs-Lib) (part C))
      (sheetpath (names /PowerSupply/) (tstamps /562E6585/))
      (tstamp 568F3FFE))
    (comp (ref D203)
      (value SS14)
      (footprint MyKiCadLibs-Footprints:DIODE-SOD-123)
      (libsource (lib MyKiCadLibs-Lib) (part DIODE))
      (sheetpath (names /PowerSupply/) (tstamps /562E6585/))
      (tstamp 568F4005))
    (comp (ref C223)
      (value 10n)
      (footprint MyKiCadLibs-Footprints:SMD-0805)
      (libsource (lib MyKiCadLibs-Lib) (part C))
      (sheetpath (names /PowerSupply/) (tstamps /562E6585/))
      (tstamp 568F400C))
    (comp (ref C217)
      (value 220u)
      (footprint MyKiCadLibs-Footprints:CAP-TH-D8mmP3.5mm)
      (libsource (lib MyKiCadLibs-Lib) (part CP1))
      (sheetpath (names /PowerSupply/) (tstamps /562E6585/))
      (tstamp 568F4039))
    (comp (ref C202)
      (value 220u)
      (footprint MyKiCadLibs-Footprints:CAP-TH-D8mmP3.5mm)
      (libsource (lib MyKiCadLibs-Lib) (part CP1))
      (sheetpath (names /PowerSupply/) (tstamps /562E6585/))
      (tstamp 568F4040))
    (comp (ref P204)
      (value CONN_2x1)
      (footprint MyKiCadLibs-Footprints:CONN-2WAY-2.54mm-3.81mm-SPACING)
      (libsource (lib MyKiCadLibs-Lib) (part CONN_2x1))
      (sheetpath (names /PowerSupply/) (tstamps /562E6585/))
      (tstamp 568F404A))
    (comp (ref C219)
      (value 22u)
      (footprint MyKiCadLibs-Footprints:SMD-0805)
      (libsource (lib MyKiCadLibs-Lib) (part C))
      (sheetpath (names /PowerSupply/) (tstamps /562E6585/))
      (tstamp 568F4065))
    (comp (ref C204)
      (value 22u)
      (footprint MyKiCadLibs-Footprints:SMD-0805)
      (libsource (lib MyKiCadLibs-Lib) (part C))
      (sheetpath (names /PowerSupply/) (tstamps /562E6585/))
      (tstamp 568F4079))
    (comp (ref C227)
      (value 100n)
      (footprint MyKiCadLibs-Footprints:SMD-0805)
      (libsource (lib MyKiCadLibs-Lib) (part C))
      (sheetpath (names /PowerSupply/) (tstamps /562E6585/))
      (tstamp 568EB07D))
    (comp (ref C226)
      (value 22u)
      (footprint MyKiCadLibs-Footprints:SMD-0805)
      (libsource (lib MyKiCadLibs-Lib) (part C))
      (sheetpath (names /PowerSupply/) (tstamps /562E6585/))
      (tstamp 568EB083))
    (comp (ref D204)
      (value SS14)
      (footprint MyKiCadLibs-Footprints:DIODE-SOD-123)
      (libsource (lib MyKiCadLibs-Lib) (part DIODE))
      (sheetpath (names /PowerSupply/) (tstamps /562E6585/))
      (tstamp 568ED64D))
    (comp (ref D206)
      (value SS14)
      (footprint MyKiCadLibs-Footprints:DIODE-SOD-123)
      (libsource (lib MyKiCadLibs-Lib) (part DIODE))
      (sheetpath (names /PowerSupply/) (tstamps /562E6585/))
      (tstamp 568EE12E))
    (comp (ref D207)
      (value SS14)
      (footprint MyKiCadLibs-Footprints:DIODE-SOD-123)
      (libsource (lib MyKiCadLibs-Lib) (part DIODE))
      (sheetpath (names /PowerSupply/) (tstamps /562E6585/))
      (tstamp 568EE952))
    (comp (ref D205)
      (value SS14)
      (footprint MyKiCadLibs-Footprints:DIODE-SOD-123)
      (libsource (lib MyKiCadLibs-Lib) (part DIODE))
      (sheetpath (names /PowerSupply/) (tstamps /562E6585/))
      (tstamp 568EEA52))
    (comp (ref D208)
      (value LED)
      (footprint MyKiCadLibs-Footprints:SMD-0805)
      (libsource (lib MyKiCadLibs-Lib) (part LED))
      (sheetpath (names /PowerSupply/) (tstamps /562E6585/))
      (tstamp 56960868))
    (comp (ref R209)
      (value 470R)
      (footprint MyKiCadLibs-Footprints:SMD-0805)
      (libsource (lib MyKiCadLibs-Lib) (part R))
      (sheetpath (names /PowerSupply/) (tstamps /562E6585/))
      (tstamp 5696086F))
    (comp (ref C225)
      (value 100n)
      (footprint MyKiCadLibs-Footprints:SMD-0805)
      (libsource (lib MyKiCadLibs-Lib) (part C))
      (sheetpath (names /PowerSupply/) (tstamps /562E6585/))
      (tstamp 56978DBC))
    (comp (ref C224)
      (value 10u)
      (footprint MyKiCadLibs-Footprints:SMD-0805)
      (libsource (lib MyKiCadLibs-Lib) (part C))
      (sheetpath (names /PowerSupply/) (tstamps /562E6585/))
      (tstamp 56978DC2))
    (comp (ref C236)
      (value 100n)
      (footprint MyKiCadLibs-Footprints:SMD-0805)
      (libsource (lib MyKiCadLibs-Lib) (part C))
      (sheetpath (names /PowerSupply/) (tstamps /562E6585/))
      (tstamp 5697A024))
    (comp (ref C235)
      (value 10u)
      (footprint MyKiCadLibs-Footprints:SMD-0805)
      (libsource (lib MyKiCadLibs-Lib) (part C))
      (sheetpath (names /PowerSupply/) (tstamps /562E6585/))
      (tstamp 5697A02A))
    (comp (ref C237)
      (value 100n)
      (footprint MyKiCadLibs-Footprints:SMD-0805)
      (libsource (lib MyKiCadLibs-Lib) (part C))
      (sheetpath (names /PowerSupply/) (tstamps /562E6585/))
      (tstamp 5698013E))
    (comp (ref C238)
      (value 220u)
      (footprint MyKiCadLibs-Footprints:CAP-TH-D6.3mmP2.5mm)
      (libsource (lib MyKiCadLibs-Lib) (part CP1))
      (sheetpath (names /PowerSupply/) (tstamps /562E6585/))
      (tstamp 56982041))
    (comp (ref MNT201)
      (value MNT_HOLE)
      (footprint MyKiCadLibs-Footprints:MNT_HOLE_3.2mm)
      (libsource (lib MyKiCadLibs-Lib) (part MNT_HOLE))
      (sheetpath (names /PowerSupply/) (tstamps /562E6585/))
      (tstamp 56DF43BA))
    (comp (ref MNT203)
      (value MNT_HOLE)
      (footprint MyKiCadLibs-Footprints:MNT_HOLE_3.2mm)
      (libsource (lib MyKiCadLibs-Lib) (part MNT_HOLE))
      (sheetpath (names /PowerSupply/) (tstamps /562E6585/))
      (tstamp 56DF47AB))
    (comp (ref MNT204)
      (value MNT_HOLE)
      (footprint MyKiCadLibs-Footprints:MNT_HOLE_3.2mm)
      (libsource (lib MyKiCadLibs-Lib) (part MNT_HOLE))
      (sheetpath (names /PowerSupply/) (tstamps /562E6585/))
      (tstamp 56DF4891))
    (comp (ref MNT202)
      (value MNT_HOLE)
      (footprint MyKiCadLibs-Footprints:MNT_HOLE_3.2mm)
      (libsource (lib MyKiCadLibs-Lib) (part MNT_HOLE))
      (sheetpath (names /PowerSupply/) (tstamps /562E6585/))
      (tstamp 56DF4978))
    (comp (ref FID1)
      (value MNT_HOLE)
      (footprint MyKiCadLibs-Footprints:FID-1MM-3MM)
      (libsource (lib MyKiCadLibs-Lib) (part MNT_HOLE))
      (sheetpath (names /PowerSupply/) (tstamps /562E6585/))
      (tstamp 56EBC8A5))
    (comp (ref FID2)
      (value MNT_HOLE)
      (footprint MyKiCadLibs-Footprints:FID-1MM-3MM)
      (libsource (lib MyKiCadLibs-Lib) (part MNT_HOLE))
      (sheetpath (names /PowerSupply/) (tstamps /562E6585/))
      (tstamp 56EBCAAB))
    (comp (ref FID3)
      (value MNT_HOLE)
      (footprint MyKiCadLibs-Footprints:FID-1MM-3MM)
      (libsource (lib MyKiCadLibs-Lib) (part MNT_HOLE))
      (sheetpath (names /PowerSupply/) (tstamps /562E6585/))
      (tstamp 56EBCB97))
    (comp (ref FID4)
      (value MNT_HOLE)
      (footprint MyKiCadLibs-Footprints:FID-1MM-3MM)
      (libsource (lib MyKiCadLibs-Lib) (part MNT_HOLE))
      (sheetpath (names /PowerSupply/) (tstamps /562E6585/))
      (tstamp 56EBCC88))
    (comp (ref U201)
      (value TLV1117LV33DCY)
      (footprint MyKiCadLibs-Footprints:IC-SOT-223)
      (libsource (lib MyKiCadLibs-Lib) (part IC-REG-TLV1117LV))
      (sheetpath (names /PowerSupply/) (tstamps /562E6585/))
      (tstamp 56EAD77A))
    (comp (ref L301)
      (value 600R@100MHz)
      (footprint MyKiCadLibs-Footprints:SMD-0805)
      (libsource (lib MyKiCadLibs-Lib) (part INDUCTOR))
      (sheetpath (names /PCM4202/) (tstamps /563058AB/))
      (tstamp 54DAC796))
    (comp (ref C301)
      (value 100p)
      (footprint MyKiCadLibs-Footprints:SMD-0805)
      (libsource (lib MyKiCadLibs-Lib) (part C))
      (sheetpath (names /PCM4202/) (tstamps /563058AB/))
      (tstamp 54DAC79D))
    (comp (ref R302)
      (value 47R)
      (footprint MyKiCadLibs-Footprints:SMD-0805)
      (libsource (lib MyKiCadLibs-Lib) (part R))
      (sheetpath (names /PCM4202/) (tstamps /563058AB/))
      (tstamp 54DAC7A4))
    (comp (ref C305)
      (value 1u)
      (footprint MyKiCadLibs-Footprints:SMD-0603)
      (libsource (lib MyKiCadLibs-Lib) (part C))
      (sheetpath (names /PCM4202/) (tstamps /563058AB/))
      (tstamp 54DAD626))
    (comp (ref C306)
      (value 100n)
      (footprint MyKiCadLibs-Footprints:SMD-0603)
      (libsource (lib MyKiCadLibs-Lib) (part C))
      (sheetpath (names /PCM4202/) (tstamps /563058AB/))
      (tstamp 54DAD62D))
    (comp (ref C307)
      (value 10n)
      (footprint MyKiCadLibs-Footprints:SMD-0603)
      (libsource (lib MyKiCadLibs-Lib) (part C))
      (sheetpath (names /PCM4202/) (tstamps /563058AB/))
      (tstamp 54DAD63D))
    (comp (ref C304)
      (value 100n)
      (footprint MyKiCadLibs-Footprints:SMD-0805)
      (libsource (lib MyKiCadLibs-Lib) (part C))
      (sheetpath (names /PCM4202/) (tstamps /563058AB/))
      (tstamp 54DAD7E6))
    (comp (ref C303)
      (value 22u)
      (footprint MyKiCadLibs-Footprints:SMD-0805)
      (libsource (lib MyKiCadLibs-Lib) (part C))
      (sheetpath (names /PCM4202/) (tstamps /563058AB/))
      (tstamp 54DAD9F0))
    (comp (ref C321)
      (value 1u)
      (footprint MyKiCadLibs-Footprints:SMD-0805)
      (libsource (lib MyKiCadLibs-Lib) (part C))
      (sheetpath (names /PCM4202/) (tstamps /563058AB/))
      (tstamp 54DE8604))
    (comp (ref C322)
      (value 100n)
      (footprint MyKiCadLibs-Footprints:SMD-0805)
      (libsource (lib MyKiCadLibs-Lib) (part C))
      (sheetpath (names /PCM4202/) (tstamps /563058AB/))
      (tstamp 54DE860A))
    (comp (ref C323)
      (value 100n)
      (footprint MyKiCadLibs-Footprints:SMD-0805)
      (libsource (lib MyKiCadLibs-Lib) (part C))
      (sheetpath (names /PCM4202/) (tstamps /563058AB/))
      (tstamp 54EA1193))
    (comp (ref R314)
      (value 1k)
      (footprint MyKiCadLibs-Footprints:SMD-0805)
      (libsource (lib MyKiCadLibs-Lib) (part R))
      (sheetpath (names /PCM4202/) (tstamps /563058AB/))
      (tstamp 54F0DD27))
    (comp (ref C328)
      (value 100n)
      (footprint MyKiCadLibs-Footprints:SMD-0805)
      (libsource (lib MyKiCadLibs-Lib) (part C))
      (sheetpath (names /PCM4202/) (tstamps /563058AB/))
      (tstamp 54FF35A4))
    (comp (ref C325)
      (value 100n)
      (footprint MyKiCadLibs-Footprints:SMD-0805)
      (libsource (lib MyKiCadLibs-Lib) (part C))
      (sheetpath (names /PCM4202/) (tstamps /563058AB/))
      (tstamp 54FF7B65))
    (comp (ref R316)
      (value 100R)
      (footprint MyKiCadLibs-Footprints:SMD-0805)
      (libsource (lib MyKiCadLibs-Lib) (part R))
      (sheetpath (names /PCM4202/) (tstamps /563058AB/))
      (tstamp 551D8E6C))
    (comp (ref C332)
      (value 100n)
      (footprint MyKiCadLibs-Footprints:SMD-0805)
      (libsource (lib MyKiCadLibs-Lib) (part C))
      (sheetpath (names /PCM4202/) (tstamps /563058AB/))
      (tstamp 551DA835))
    (comp (ref U302)
      (value ADM811TART)
      (footprint MyKiCadLibs-Footprints:IC-SOT143)
      (libsource (lib MyKiCadLibs-Lib) (part IC-RST-ADM811))
      (sheetpath (names /PCM4202/) (tstamps /563058AB/))
      (tstamp 5630C25C))
    (comp (ref R315)
      (value 100k)
      (footprint MyKiCadLibs-Footprints:SMD-0805)
      (libsource (lib MyKiCadLibs-Lib) (part R))
      (sheetpath (names /PCM4202/) (tstamps /563058AB/))
      (tstamp 5630E2E6))
    (comp (ref R301)
      (value 10k)
      (footprint MyKiCadLibs-Footprints:SMD-0805)
      (libsource (lib MyKiCadLibs-Lib) (part R))
      (sheetpath (names /PCM4202/) (tstamps /563058AB/))
      (tstamp 5632E6C5))
    (comp (ref C312)
      (value 220u)
      (footprint MyKiCadLibs-Footprints:CAP-TH-D6.3mmP2.5mm)
      (libsource (lib MyKiCadLibs-Lib) (part CP1))
      (sheetpath (names /PCM4202/) (tstamps /563058AB/))
      (tstamp 56348883))
    (comp (ref C319)
      (value 100n)
      (footprint MyKiCadLibs-Footprints:SMD-0805)
      (libsource (lib MyKiCadLibs-Lib) (part C))
      (sheetpath (names /PCM4202/) (tstamps /563058AB/))
      (tstamp 56348889))
    (comp (ref C315)
      (value 22u)
      (footprint MyKiCadLibs-Footprints:SMD-0805)
      (libsource (lib MyKiCadLibs-Lib) (part C))
      (sheetpath (names /PCM4202/) (tstamps /563058AB/))
      (tstamp 5634888F))
    (comp (ref P308)
      (value CONN_2x1)
      (footprint MyKiCadLibs-Footprints:CONN_SIL_2)
      (libsource (lib MyKiCadLibs-Lib) (part CONN_2x1))
      (sheetpath (names /PCM4202/) (tstamps /563058AB/))
      (tstamp 563A98B7))
    (comp (ref C302)
      (value 220u)
      (footprint MyKiCadLibs-Footprints:CAP-TH-D6.3mmP2.5mm)
      (libsource (lib MyKiCadLibs-Lib) (part CP1))
      (sheetpath (names /PCM4202/) (tstamps /563058AB/))
      (tstamp 54DAD61F))
    (comp (ref L302)
      (value 600R@100MHz)
      (footprint MyKiCadLibs-Footprints:SMD-0805)
      (libsource (lib MyKiCadLibs-Lib) (part INDUCTOR))
      (sheetpath (names /PCM4202/) (tstamps /563058AB/))
      (tstamp 568EFC4D))
    (comp (ref C308)
      (value 100p)
      (footprint MyKiCadLibs-Footprints:SMD-0805)
      (libsource (lib MyKiCadLibs-Lib) (part C))
      (sheetpath (names /PCM4202/) (tstamps /563058AB/))
      (tstamp 568EFC53))
    (comp (ref R307)
      (value 47R)
      (footprint MyKiCadLibs-Footprints:SMD-0805)
      (libsource (lib MyKiCadLibs-Lib) (part R))
      (sheetpath (names /PCM4202/) (tstamps /563058AB/))
      (tstamp 568EFC59))
    (comp (ref C313)
      (value 1u)
      (footprint MyKiCadLibs-Footprints:SMD-0603)
      (libsource (lib MyKiCadLibs-Lib) (part C))
      (sheetpath (names /PCM4202/) (tstamps /563058AB/))
      (tstamp 568EFC65))
    (comp (ref C316)
      (value 100n)
      (footprint MyKiCadLibs-Footprints:SMD-0603)
      (libsource (lib MyKiCadLibs-Lib) (part C))
      (sheetpath (names /PCM4202/) (tstamps /563058AB/))
      (tstamp 568EFC6B))
    (comp (ref C318)
      (value 10n)
      (footprint MyKiCadLibs-Footprints:SMD-0603)
      (libsource (lib MyKiCadLibs-Lib) (part C))
      (sheetpath (names /PCM4202/) (tstamps /563058AB/))
      (tstamp 568EFC71))
    (comp (ref C311)
      (value 100n)
      (footprint MyKiCadLibs-Footprints:SMD-0805)
      (libsource (lib MyKiCadLibs-Lib) (part C))
      (sheetpath (names /PCM4202/) (tstamps /563058AB/))
      (tstamp 568EFC77))
    (comp (ref C310)
      (value 22u)
      (footprint MyKiCadLibs-Footprints:SMD-0805)
      (libsource (lib MyKiCadLibs-Lib) (part C))
      (sheetpath (names /PCM4202/) (tstamps /563058AB/))
      (tstamp 568EFC7D))
    (comp (ref C309)
      (value 220u)
      (footprint MyKiCadLibs-Footprints:CAP-TH-D6.3mmP2.5mm)
      (libsource (lib MyKiCadLibs-Lib) (part CP1))
      (sheetpath (names /PCM4202/) (tstamps /563058AB/))
      (tstamp 568EFCA7))
    (comp (ref C320)
      (value 10n)
      (footprint MyKiCadLibs-Footprints:SMD-0805)
      (libsource (lib MyKiCadLibs-Lib) (part C))
      (sheetpath (names /PCM4202/) (tstamps /563058AB/))
      (tstamp 5690738A))
    (comp (ref C331)
      (value 220u)
      (footprint MyKiCadLibs-Footprints:CAP-TH-D6.3mmP2.5mm)
      (libsource (lib MyKiCadLibs-Lib) (part CP1))
      (sheetpath (names /PCM4202/) (tstamps /563058AB/))
      (tstamp 56908CFC))
    (comp (ref C326)
      (value 100n)
      (footprint MyKiCadLibs-Footprints:SMD-0805)
      (libsource (lib MyKiCadLibs-Lib) (part C))
      (sheetpath (names /PCM4202/) (tstamps /563058AB/))
      (tstamp 56908D02))
    (comp (ref C329)
      (value 22u)
      (footprint MyKiCadLibs-Footprints:SMD-0805)
      (libsource (lib MyKiCadLibs-Lib) (part C))
      (sheetpath (names /PCM4202/) (tstamps /563058AB/))
      (tstamp 56908D08))
    (comp (ref C324)
      (value 10n)
      (footprint MyKiCadLibs-Footprints:SMD-0805)
      (libsource (lib MyKiCadLibs-Lib) (part C))
      (sheetpath (names /PCM4202/) (tstamps /563058AB/))
      (tstamp 56908D0E))
    (comp (ref C314)
      (value 100n)
      (footprint MyKiCadLibs-Footprints:SMD-0603)
      (libsource (lib MyKiCadLibs-Lib) (part C))
      (sheetpath (names /PCM4202/) (tstamps /563058AB/))
      (tstamp 56909816))
    (comp (ref C317)
      (value 10n)
      (footprint MyKiCadLibs-Footprints:SMD-0603)
      (libsource (lib MyKiCadLibs-Lib) (part C))
      (sheetpath (names /PCM4202/) (tstamps /563058AB/))
      (tstamp 5690981C))
    (comp (ref C330)
      (value 100n)
      (footprint MyKiCadLibs-Footprints:SMD-0603)
      (libsource (lib MyKiCadLibs-Lib) (part C))
      (sheetpath (names /PCM4202/) (tstamps /563058AB/))
      (tstamp 56909FA2))
    (comp (ref C327)
      (value 10n)
      (footprint MyKiCadLibs-Footprints:SMD-0603)
      (libsource (lib MyKiCadLibs-Lib) (part C))
      (sheetpath (names /PCM4202/) (tstamps /563058AB/))
      (tstamp 56909FA8))
    (comp (ref TR301)
      (value TRAN-NPN-BC847)
      (footprint MyKiCadLibs-Footprints:IC-SOT23)
      (libsource (lib MyKiCadLibs-Lib) (part TRAN-NPN-BC847))
      (sheetpath (names /PCM4202/) (tstamps /563058AB/))
      (tstamp 5690C77E))
    (comp (ref D301)
      (value LED)
      (footprint MyKiCadLibs-Footprints:SMD-1206)
      (libsource (lib MyKiCadLibs-Lib) (part LED))
      (sheetpath (names /PCM4202/) (tstamps /563058AB/))
      (tstamp 5690C9AA))
    (comp (ref R326)
      (value 470R)
      (footprint MyKiCadLibs-Footprints:SMD-0805)
      (libsource (lib MyKiCadLibs-Lib) (part R))
      (sheetpath (names /PCM4202/) (tstamps /563058AB/))
      (tstamp 5690D201))
    (comp (ref R325)
      (value 1k)
      (footprint MyKiCadLibs-Footprints:SMD-0805)
      (libsource (lib MyKiCadLibs-Lib) (part R))
      (sheetpath (names /PCM4202/) (tstamps /563058AB/))
      (tstamp 56915F76))
    (comp (ref TR302)
      (value TRAN-NPN-BC847)
      (footprint MyKiCadLibs-Footprints:IC-SOT23)
      (libsource (lib MyKiCadLibs-Lib) (part TRAN-NPN-BC847))
      (sheetpath (names /PCM4202/) (tstamps /563058AB/))
      (tstamp 56916E70))
    (comp (ref D302)
      (value LED)
      (footprint MyKiCadLibs-Footprints:SMD-1206)
      (libsource (lib MyKiCadLibs-Lib) (part LED))
      (sheetpath (names /PCM4202/) (tstamps /563058AB/))
      (tstamp 56916E76))
    (comp (ref R328)
      (value 470R)
      (footprint MyKiCadLibs-Footprints:SMD-0805)
      (libsource (lib MyKiCadLibs-Lib) (part R))
      (sheetpath (names /PCM4202/) (tstamps /563058AB/))
      (tstamp 56916E7C))
    (comp (ref R327)
      (value 1k)
      (footprint MyKiCadLibs-Footprints:SMD-0805)
      (libsource (lib MyKiCadLibs-Lib) (part R))
      (sheetpath (names /PCM4202/) (tstamps /563058AB/))
      (tstamp 56916E92))
    (comp (ref P301)
      (value CONN_2x1)
      (footprint MyKiCadLibs-Footprints:CONN_SIL_2)
      (libsource (lib MyKiCadLibs-Lib) (part CONN_2x1))
      (sheetpath (names /PCM4202/) (tstamps /563058AB/))
      (tstamp 5691A1BA))
    (comp (ref R303)
      (value 10k)
      (footprint MyKiCadLibs-Footprints:SMD-0805)
      (libsource (lib MyKiCadLibs-Lib) (part R))
      (sheetpath (names /PCM4202/) (tstamps /563058AB/))
      (tstamp 5691E87B))
    (comp (ref P302)
      (value CONN_2x1)
      (footprint MyKiCadLibs-Footprints:CONN_SIL_2)
      (libsource (lib MyKiCadLibs-Lib) (part CONN_2x1))
      (sheetpath (names /PCM4202/) (tstamps /563058AB/))
      (tstamp 5691E887))
    (comp (ref R304)
      (value 10k)
      (footprint MyKiCadLibs-Footprints:SMD-0805)
      (libsource (lib MyKiCadLibs-Lib) (part R))
      (sheetpath (names /PCM4202/) (tstamps /563058AB/))
      (tstamp 5691E900))
    (comp (ref P303)
      (value CONN_2x1)
      (footprint MyKiCadLibs-Footprints:CONN_SIL_2)
      (libsource (lib MyKiCadLibs-Lib) (part CONN_2x1))
      (sheetpath (names /PCM4202/) (tstamps /563058AB/))
      (tstamp 5691E90C))
    (comp (ref R305)
      (value 10k)
      (footprint MyKiCadLibs-Footprints:SMD-0805)
      (libsource (lib MyKiCadLibs-Lib) (part R))
      (sheetpath (names /PCM4202/) (tstamps /563058AB/))
      (tstamp 5691EE0F))
    (comp (ref P304)
      (value CONN_2x1)
      (footprint MyKiCadLibs-Footprints:CONN_SIL_2)
      (libsource (lib MyKiCadLibs-Lib) (part CONN_2x1))
      (sheetpath (names /PCM4202/) (tstamps /563058AB/))
      (tstamp 5691EE1B))
    (comp (ref R306)
      (value 10k)
      (footprint MyKiCadLibs-Footprints:SMD-0805)
      (libsource (lib MyKiCadLibs-Lib) (part R))
      (sheetpath (names /PCM4202/) (tstamps /563058AB/))
      (tstamp 5691EE2F))
    (comp (ref P305)
      (value CONN_2x1)
      (footprint MyKiCadLibs-Footprints:CONN_SIL_2)
      (libsource (lib MyKiCadLibs-Lib) (part CONN_2x1))
      (sheetpath (names /PCM4202/) (tstamps /563058AB/))
      (tstamp 5691EE3B))
    (comp (ref R308)
      (value 10k)
      (footprint MyKiCadLibs-Footprints:SMD-0805)
      (libsource (lib MyKiCadLibs-Lib) (part R))
      (sheetpath (names /PCM4202/) (tstamps /563058AB/))
      (tstamp 5691EE4F))
    (comp (ref P306)
      (value CONN_2x1)
      (footprint MyKiCadLibs-Footprints:CONN_SIL_2)
      (libsource (lib MyKiCadLibs-Lib) (part CONN_2x1))
      (sheetpath (names /PCM4202/) (tstamps /563058AB/))
      (tstamp 5691EE5B))
    (comp (ref R309)
      (value 10k)
      (footprint MyKiCadLibs-Footprints:SMD-0805)
      (libsource (lib MyKiCadLibs-Lib) (part R))
      (sheetpath (names /PCM4202/) (tstamps /563058AB/))
      (tstamp 5691F149))
    (comp (ref P307)
      (value CONN_2x1)
      (footprint MyKiCadLibs-Footprints:CONN_SIL_2)
      (libsource (lib MyKiCadLibs-Lib) (part CONN_2x1))
      (sheetpath (names /PCM4202/) (tstamps /563058AB/))
      (tstamp 5691F155))
    (comp (ref R320)
      (value N/F)
      (footprint MyKiCadLibs-Footprints:SMD-0805)
      (libsource (lib MyKiCadLibs-Lib) (part R))
      (sheetpath (names /PCM4202/) (tstamps /563058AB/))
      (tstamp 5692EC1D))
    (comp (ref R319)
      (value N/F)
      (footprint MyKiCadLibs-Footprints:SMD-0805)
      (libsource (lib MyKiCadLibs-Lib) (part R))
      (sheetpath (names /PCM4202/) (tstamps /563058AB/))
      (tstamp 5692EC24))
    (comp (ref R318)
      (value N/F)
      (footprint MyKiCadLibs-Footprints:SMD-0805)
      (libsource (lib MyKiCadLibs-Lib) (part R))
      (sheetpath (names /PCM4202/) (tstamps /563058AB/))
      (tstamp 5692EC2B))
    (comp (ref R322)
      (value 0R)
      (footprint MyKiCadLibs-Footprints:SMD-0805)
      (libsource (lib MyKiCadLibs-Lib) (part R))
      (sheetpath (names /PCM4202/) (tstamps /563058AB/))
      (tstamp 5692EC32))
    (comp (ref R323)
      (value 0R)
      (footprint MyKiCadLibs-Footprints:SMD-0805)
      (libsource (lib MyKiCadLibs-Lib) (part R))
      (sheetpath (names /PCM4202/) (tstamps /563058AB/))
      (tstamp 5692EC39))
    (comp (ref R324)
      (value 0R)
      (footprint MyKiCadLibs-Footprints:SMD-0805)
      (libsource (lib MyKiCadLibs-Lib) (part R))
      (sheetpath (names /PCM4202/) (tstamps /563058AB/))
      (tstamp 5692EC40))
    (comp (ref P309)
      (value CONN_02X05)
      (footprint MyKiCadLibs-Footprints:CONN_DIL_2X5_BOX)
      (libsource (lib MyKiCadLibs-Lib) (part CONN_02X05))
      (sheetpath (names /PCM4202/) (tstamps /563058AB/))
      (tstamp 5692EC4D))
    (comp (ref R321)
      (value 0R)
      (footprint MyKiCadLibs-Footprints:SMD-0805)
      (libsource (lib MyKiCadLibs-Lib) (part R))
      (sheetpath (names /PCM4202/) (tstamps /563058AB/))
      (tstamp 5692EC60))
    (comp (ref R317)
      (value N/F)
      (footprint MyKiCadLibs-Footprints:SMD-0805)
      (libsource (lib MyKiCadLibs-Lib) (part R))
      (sheetpath (names /PCM4202/) (tstamps /563058AB/))
      (tstamp 5692EC6B))
    (comp (ref P310)
      (value CONN_3x1)
      (footprint MyKiCadLibs-Footprints:CONN_SIL_3)
      (libsource (lib MyKiCadLibs-Lib) (part CONN_3x1))
      (sheetpath (names /PCM4202/) (tstamps /563058AB/))
      (tstamp 5692B9F5))
    (comp (ref R329)
      (value 0R)
      (footprint MyKiCadLibs-Footprints:SMD-0805)
      (libsource (lib MyKiCadLibs-Lib) (part R))
      (sheetpath (names /PCM4202/) (tstamps /563058AB/))
      (tstamp 5692C02C))
    (comp (ref R310)
      (value N/F)
      (footprint MyKiCadLibs-Footprints:SMD-0805)
      (libsource (lib MyKiCadLibs-Lib) (part R))
      (sheetpath (names /PCM4202/) (tstamps /563058AB/))
      (tstamp 56996EED))
    (comp (ref U301)
      (value IC-ADC-PCM4202)
      (footprint MyKiCadLibs-Footprints:IC-SSOP28)
      (libsource (lib MyKiCadLibs-Lib) (part IC-ADC-PCM4202))
      (sheetpath (names /PCM4202/) (tstamps /563058AB/))
      (tstamp 568EAFAD))
    (comp (ref C421)
      (value 100n)
      (footprint MyKiCadLibs-Footprints:SMD-0805)
      (libsource (lib MyKiCadLibs-Lib) (part C))
      (sheetpath (names /InputFilters/) (tstamps /568E96CE/))
      (tstamp 568EB04C))
    (comp (ref C423)
      (value 1n)
      (footprint MyKiCadLibs-Footprints:SMD-0805)
      (libsource (lib MyKiCadLibs-Lib) (part C))
      (sheetpath (names /InputFilters/) (tstamps /568E96CE/))
      (tstamp 568EB053))
    (comp (ref C411)
      (value 100n)
      (footprint MyKiCadLibs-Footprints:SMD-0805)
      (libsource (lib MyKiCadLibs-Lib) (part C))
      (sheetpath (names /InputFilters/) (tstamps /568E96CE/))
      (tstamp 568EB08A))
    (comp (ref C417)
      (value 100n)
      (footprint MyKiCadLibs-Footprints:SMD-0805)
      (libsource (lib MyKiCadLibs-Lib) (part C))
      (sheetpath (names /InputFilters/) (tstamps /568E96CE/))
      (tstamp 568EB09F))
    (comp (ref C419)
      (value 10u)
      (footprint MyKiCadLibs-Footprints:SMD-1206)
      (libsource (lib MyKiCadLibs-Lib) (part C))
      (sheetpath (names /InputFilters/) (tstamps /568E96CE/))
      (tstamp 568EB0AF))
    (comp (ref U401)
      (value TLE2072)
      (footprint MyKiCadLibs-Footprints:IC_SOIC_8)
      (libsource (lib MyKiCadLibs-Lib) (part IC-OPAMP-DUAL-SOIC8))
      (sheetpath (names /InputFilters/) (tstamps /568E96CE/))
      (tstamp 568EB10D))
    (comp (ref C403)
      (value 100u)
      (footprint MyKiCadLibs-Footprints:CAP-TH-D10mmP5mm)
      (libsource (lib MyKiCadLibs-Lib) (part CP1))
      (sheetpath (names /InputFilters/) (tstamps /568E96CE/))
      (tstamp 568ED9DB))
    (comp (ref C404)
      (value 100n)
      (footprint MyKiCadLibs-Footprints:CAP_TH_5mm)
      (libsource (lib MyKiCadLibs-Lib) (part C))
      (sheetpath (names /InputFilters/) (tstamps /568E96CE/))
      (tstamp 568ED9E2))
    (comp (ref R407)
      (value 10k)
      (footprint MyKiCadLibs-Footprints:SMD-1206)
      (libsource (lib MyKiCadLibs-Lib) (part R))
      (sheetpath (names /InputFilters/) (tstamps /568E96CE/))
      (tstamp 568EE0C5))
    (comp (ref R408)
      (value 10k)
      (footprint MyKiCadLibs-Footprints:SMD-1206)
      (libsource (lib MyKiCadLibs-Lib) (part R))
      (sheetpath (names /InputFilters/) (tstamps /568E96CE/))
      (tstamp 568EE5EA))
    (comp (ref U403)
      (value TLE2071)
      (footprint MyKiCadLibs-Footprints:IC_SOIC_8)
      (libsource (lib MyKiCadLibs-Lib) (part IC-OPAMP-SINGLE-SOIC8))
      (sheetpath (names /InputFilters/) (tstamps /568E96CE/))
      (tstamp 568EECF9))
    (comp (ref C413)
      (value 1n)
      (footprint MyKiCadLibs-Footprints:SMD-0805)
      (libsource (lib MyKiCadLibs-Lib) (part C))
      (sheetpath (names /InputFilters/) (tstamps /568E96CE/))
      (tstamp 568F2BD8))
    (comp (ref R411)
      (value 1k5)
      (footprint MyKiCadLibs-Footprints:SMD-1206)
      (libsource (lib MyKiCadLibs-Lib) (part R))
      (sheetpath (names /InputFilters/) (tstamps /568E96CE/))
      (tstamp 568F2C64))
    (comp (ref R415)
      (value 40R2)
      (footprint MyKiCadLibs-Footprints:SMD-1206)
      (libsource (lib MyKiCadLibs-Lib) (part R))
      (sheetpath (names /InputFilters/) (tstamps /568E96CE/))
      (tstamp 568F2CEF))
    (comp (ref R403)
      (value 1k)
      (footprint MyKiCadLibs-Footprints:SMD-1206)
      (libsource (lib MyKiCadLibs-Lib) (part R))
      (sheetpath (names /InputFilters/) (tstamps /568E96CE/))
      (tstamp 568F355F))
    (comp (ref C425)
      (value 2n7)
      (footprint MyKiCadLibs-Footprints:SMD-0805)
      (libsource (lib MyKiCadLibs-Lib) (part C))
      (sheetpath (names /InputFilters/) (tstamps /568E96CE/))
      (tstamp 568F438E))
    (comp (ref R419)
      (value 100R)
      (footprint MyKiCadLibs-Footprints:SMD-1206)
      (libsource (lib MyKiCadLibs-Lib) (part R))
      (sheetpath (names /InputFilters/) (tstamps /568E96CE/))
      (tstamp 568F442E))
    (comp (ref C414)
      (value 1n)
      (footprint MyKiCadLibs-Footprints:SMD-0805)
      (libsource (lib MyKiCadLibs-Lib) (part C))
      (sheetpath (names /InputFilters/) (tstamps /568E96CE/))
      (tstamp 568F461B))
    (comp (ref R412)
      (value 1k5)
      (footprint MyKiCadLibs-Footprints:SMD-1206)
      (libsource (lib MyKiCadLibs-Lib) (part R))
      (sheetpath (names /InputFilters/) (tstamps /568E96CE/))
      (tstamp 568F4621))
    (comp (ref R416)
      (value 40R2)
      (footprint MyKiCadLibs-Footprints:SMD-1206)
      (libsource (lib MyKiCadLibs-Lib) (part R))
      (sheetpath (names /InputFilters/) (tstamps /568E96CE/))
      (tstamp 568F4FAB))
    (comp (ref R420)
      (value 100R)
      (footprint MyKiCadLibs-Footprints:SMD-1206)
      (libsource (lib MyKiCadLibs-Lib) (part R))
      (sheetpath (names /InputFilters/) (tstamps /568E96CE/))
      (tstamp 568F5121))
    (comp (ref C405)
      (value 100u)
      (footprint MyKiCadLibs-Footprints:CAP-TH-D10mmP5mm)
      (libsource (lib MyKiCadLibs-Lib) (part CP1))
      (sheetpath (names /InputFilters/) (tstamps /568E96CE/))
      (tstamp 568F7027))
    (comp (ref C406)
      (value 100n)
      (footprint MyKiCadLibs-Footprints:CAP_TH_5mm)
      (libsource (lib MyKiCadLibs-Lib) (part C))
      (sheetpath (names /InputFilters/) (tstamps /568E96CE/))
      (tstamp 568F702D))
    (comp (ref R404)
      (value 1k)
      (footprint MyKiCadLibs-Footprints:SMD-1206)
      (libsource (lib MyKiCadLibs-Lib) (part R))
      (sheetpath (names /InputFilters/) (tstamps /568E96CE/))
      (tstamp 568F7033))
    (comp (ref C437)
      (value 100n)
      (footprint MyKiCadLibs-Footprints:SMD-0805)
      (libsource (lib MyKiCadLibs-Lib) (part C))
      (sheetpath (names /InputFilters/) (tstamps /568E96CE/))
      (tstamp 568F800C))
    (comp (ref C439)
      (value 10n)
      (footprint MyKiCadLibs-Footprints:SMD-0805)
      (libsource (lib MyKiCadLibs-Lib) (part C))
      (sheetpath (names /InputFilters/) (tstamps /568E96CE/))
      (tstamp 568F8012))
    (comp (ref C431)
      (value 100n)
      (footprint MyKiCadLibs-Footprints:SMD-0805)
      (libsource (lib MyKiCadLibs-Lib) (part C))
      (sheetpath (names /InputFilters/) (tstamps /568E96CE/))
      (tstamp 568F8018))
    (comp (ref C433)
      (value 100n)
      (footprint MyKiCadLibs-Footprints:SMD-0805)
      (libsource (lib MyKiCadLibs-Lib) (part C))
      (sheetpath (names /InputFilters/) (tstamps /568E96CE/))
      (tstamp 568F8024))
    (comp (ref C435)
      (value 10u)
      (footprint MyKiCadLibs-Footprints:SMD-1206)
      (libsource (lib MyKiCadLibs-Lib) (part C))
      (sheetpath (names /InputFilters/) (tstamps /568E96CE/))
      (tstamp 568F802A))
    (comp (ref R425)
      (value 1k)
      (footprint MyKiCadLibs-Footprints:SMD-1206)
      (libsource (lib MyKiCadLibs-Lib) (part R))
      (sheetpath (names /InputFilters/) (tstamps /568E96CE/))
      (tstamp 568F8A0D))
    (comp (ref C441)
      (value 100n)
      (footprint MyKiCadLibs-Footprints:SMD-0805)
      (libsource (lib MyKiCadLibs-Lib) (part C))
      (sheetpath (names /InputFilters/) (tstamps /568E96CE/))
      (tstamp 568F8CE6))
    (comp (ref C443)
      (value 10n)
      (footprint MyKiCadLibs-Footprints:SMD-0805)
      (libsource (lib MyKiCadLibs-Lib) (part C))
      (sheetpath (names /InputFilters/) (tstamps /568E96CE/))
      (tstamp 568F8CEC))
    (comp (ref R423)
      (value 1k)
      (footprint MyKiCadLibs-Footprints:SMD-1206)
      (libsource (lib MyKiCadLibs-Lib) (part R))
      (sheetpath (names /InputFilters/) (tstamps /568E96CE/))
      (tstamp 568FBDE7))
    (comp (ref C427)
      (value 100n)
      (footprint MyKiCadLibs-Footprints:SMD-0805)
      (libsource (lib MyKiCadLibs-Lib) (part C))
      (sheetpath (names /InputFilters/) (tstamps /568E96CE/))
      (tstamp 568FC0F4))
    (comp (ref C429)
      (value 10n)
      (footprint MyKiCadLibs-Footprints:SMD-0805)
      (libsource (lib MyKiCadLibs-Lib) (part C))
      (sheetpath (names /InputFilters/) (tstamps /568E96CE/))
      (tstamp 568FC0FA))
    (comp (ref P401)
      (value CONN_3x1)
      (footprint MyKiCadLibs-Footprints:CONN_SIL_3)
      (libsource (lib MyKiCadLibs-Lib) (part CONN_3x1))
      (sheetpath (names /InputFilters/) (tstamps /568E96CE/))
      (tstamp 568FD10C))
    (comp (ref R401)
      (value 10R)
      (footprint MyKiCadLibs-Footprints:SMD-1206)
      (libsource (lib MyKiCadLibs-Lib) (part R))
      (sheetpath (names /InputFilters/) (tstamps /568E96CE/))
      (tstamp 568FDD51))
    (comp (ref C401)
      (value 100n)
      (footprint MyKiCadLibs-Footprints:SMD-0805)
      (libsource (lib MyKiCadLibs-Lib) (part C))
      (sheetpath (names /InputFilters/) (tstamps /568E96CE/))
      (tstamp 568FE51A))
    (comp (ref C422)
      (value 100n)
      (footprint MyKiCadLibs-Footprints:SMD-0805)
      (libsource (lib MyKiCadLibs-Lib) (part C))
      (sheetpath (names /InputFilters/) (tstamps /568E96CE/))
      (tstamp 568EBEE3))
    (comp (ref C424)
      (value 1n)
      (footprint MyKiCadLibs-Footprints:SMD-0805)
      (libsource (lib MyKiCadLibs-Lib) (part C))
      (sheetpath (names /InputFilters/) (tstamps /568E96CE/))
      (tstamp 568EBEE9))
    (comp (ref C412)
      (value 100n)
      (footprint MyKiCadLibs-Footprints:SMD-0805)
      (libsource (lib MyKiCadLibs-Lib) (part C))
      (sheetpath (names /InputFilters/) (tstamps /568E96CE/))
      (tstamp 568EBEEF))
    (comp (ref C418)
      (value 100n)
      (footprint MyKiCadLibs-Footprints:SMD-0805)
      (libsource (lib MyKiCadLibs-Lib) (part C))
      (sheetpath (names /InputFilters/) (tstamps /568E96CE/))
      (tstamp 568EBEFB))
    (comp (ref C420)
      (value 10u)
      (footprint MyKiCadLibs-Footprints:SMD-1206)
      (libsource (lib MyKiCadLibs-Lib) (part C))
      (sheetpath (names /InputFilters/) (tstamps /568E96CE/))
      (tstamp 568EBF01))
    (comp (ref U402)
      (value TLE2072)
      (footprint MyKiCadLibs-Footprints:IC_SOIC_8)
      (libsource (lib MyKiCadLibs-Lib) (part IC-OPAMP-DUAL-SOIC8))
      (sheetpath (names /InputFilters/) (tstamps /568E96CE/))
      (tstamp 568EBF07))
    (comp (ref C407)
      (value 100u)
      (footprint MyKiCadLibs-Footprints:CAP-TH-D10mmP5mm)
      (libsource (lib MyKiCadLibs-Lib) (part CP1))
      (sheetpath (names /InputFilters/) (tstamps /568E96CE/))
      (tstamp 568EBF1F))
    (comp (ref C408)
      (value 100n)
      (footprint MyKiCadLibs-Footprints:CAP_TH_5mm)
      (libsource (lib MyKiCadLibs-Lib) (part C))
      (sheetpath (names /InputFilters/) (tstamps /568E96CE/))
      (tstamp 568EBF25))
    (comp (ref R409)
      (value 10k)
      (footprint MyKiCadLibs-Footprints:SMD-1206)
      (libsource (lib MyKiCadLibs-Lib) (part R))
      (sheetpath (names /InputFilters/) (tstamps /568E96CE/))
      (tstamp 568EBF2B))
    (comp (ref R410)
      (value 10k)
      (footprint MyKiCadLibs-Footprints:SMD-1206)
      (libsource (lib MyKiCadLibs-Lib) (part R))
      (sheetpath (names /InputFilters/) (tstamps /568E96CE/))
      (tstamp 568EBF31))
    (comp (ref C415)
      (value 1n)
      (footprint MyKiCadLibs-Footprints:SMD-0805)
      (libsource (lib MyKiCadLibs-Lib) (part C))
      (sheetpath (names /InputFilters/) (tstamps /568E96CE/))
      (tstamp 568EBF49))
    (comp (ref R413)
      (value 1k5)
      (footprint MyKiCadLibs-Footprints:SMD-1206)
      (libsource (lib MyKiCadLibs-Lib) (part R))
      (sheetpath (names /InputFilters/) (tstamps /568E96CE/))
      (tstamp 568EBF4F))
    (comp (ref R417)
      (value 40R2)
      (footprint MyKiCadLibs-Footprints:SMD-1206)
      (libsource (lib MyKiCadLibs-Lib) (part R))
      (sheetpath (names /InputFilters/) (tstamps /568E96CE/))
      (tstamp 568EBF55))
    (comp (ref R405)
      (value 1k)
      (footprint MyKiCadLibs-Footprints:SMD-1206)
      (libsource (lib MyKiCadLibs-Lib) (part R))
      (sheetpath (names /InputFilters/) (tstamps /568E96CE/))
      (tstamp 568EBF74))
    (comp (ref C426)
      (value 2n7)
      (footprint MyKiCadLibs-Footprints:SMD-0805)
      (libsource (lib MyKiCadLibs-Lib) (part C))
      (sheetpath (names /InputFilters/) (tstamps /568E96CE/))
      (tstamp 568EBF7F))
    (comp (ref R421)
      (value 100R)
      (footprint MyKiCadLibs-Footprints:SMD-1206)
      (libsource (lib MyKiCadLibs-Lib) (part R))
      (sheetpath (names /InputFilters/) (tstamps /568E96CE/))
      (tstamp 568EBF85))
    (comp (ref C416)
      (value 1n)
      (footprint MyKiCadLibs-Footprints:SMD-0805)
      (libsource (lib MyKiCadLibs-Lib) (part C))
      (sheetpath (names /InputFilters/) (tstamps /568E96CE/))
      (tstamp 568EBF8C))
    (comp (ref R414)
      (value 1k5)
      (footprint MyKiCadLibs-Footprints:SMD-1206)
      (libsource (lib MyKiCadLibs-Lib) (part R))
      (sheetpath (names /InputFilters/) (tstamps /568E96CE/))
      (tstamp 568EBF92))
    (comp (ref R418)
      (value 40R2)
      (footprint MyKiCadLibs-Footprints:SMD-1206)
      (libsource (lib MyKiCadLibs-Lib) (part R))
      (sheetpath (names /InputFilters/) (tstamps /568E96CE/))
      (tstamp 568EBFA0))
    (comp (ref R422)
      (value 100R)
      (footprint MyKiCadLibs-Footprints:SMD-1206)
      (libsource (lib MyKiCadLibs-Lib) (part R))
      (sheetpath (names /InputFilters/) (tstamps /568E96CE/))
      (tstamp 568EBFAA))
    (comp (ref C409)
      (value 100u)
      (footprint MyKiCadLibs-Footprints:CAP-TH-D10mmP5mm)
      (libsource (lib MyKiCadLibs-Lib) (part CP1))
      (sheetpath (names /InputFilters/) (tstamps /568E96CE/))
      (tstamp 568EBFD0))
    (comp (ref C410)
      (value 100n)
      (footprint MyKiCadLibs-Footprints:CAP_TH_5mm)
      (libsource (lib MyKiCadLibs-Lib) (part C))
      (sheetpath (names /InputFilters/) (tstamps /568E96CE/))
      (tstamp 568EBFD6))
    (comp (ref R406)
      (value 1k)
      (footprint MyKiCadLibs-Footprints:SMD-1206)
      (libsource (lib MyKiCadLibs-Lib) (part R))
      (sheetpath (names /InputFilters/) (tstamps /568E96CE/))
      (tstamp 568EBFDC))
    (comp (ref P402)
      (value CONN_3x1)
      (footprint MyKiCadLibs-Footprints:CONN_SIL_3)
      (libsource (lib MyKiCadLibs-Lib) (part CONN_3x1))
      (sheetpath (names /InputFilters/) (tstamps /568E96CE/))
      (tstamp 568EBFF1))
    (comp (ref R402)
      (value 10R)
      (footprint MyKiCadLibs-Footprints:SMD-1206)
      (libsource (lib MyKiCadLibs-Lib) (part R))
      (sheetpath (names /InputFilters/) (tstamps /568E96CE/))
      (tstamp 568EC003))
    (comp (ref C402)
      (value 100n)
      (footprint MyKiCadLibs-Footprints:SMD-0805)
      (libsource (lib MyKiCadLibs-Lib) (part C))
      (sheetpath (names /InputFilters/) (tstamps /568E96CE/))
      (tstamp 568EC00C))
    (comp (ref U404)
      (value TLE2071)
      (footprint MyKiCadLibs-Footprints:IC_SOIC_8)
      (libsource (lib MyKiCadLibs-Lib) (part IC-OPAMP-SINGLE-SOIC8))
      (sheetpath (names /InputFilters/) (tstamps /568E96CE/))
      (tstamp 568ED19F))
    (comp (ref C438)
      (value 100n)
      (footprint MyKiCadLibs-Footprints:SMD-0805)
      (libsource (lib MyKiCadLibs-Lib) (part C))
      (sheetpath (names /InputFilters/) (tstamps /568E96CE/))
      (tstamp 568ED1A5))
    (comp (ref C440)
      (value 10n)
      (footprint MyKiCadLibs-Footprints:SMD-0805)
      (libsource (lib MyKiCadLibs-Lib) (part C))
      (sheetpath (names /InputFilters/) (tstamps /568E96CE/))
      (tstamp 568ED1AB))
    (comp (ref C432)
      (value 100n)
      (footprint MyKiCadLibs-Footprints:SMD-0805)
      (libsource (lib MyKiCadLibs-Lib) (part C))
      (sheetpath (names /InputFilters/) (tstamps /568E96CE/))
      (tstamp 568ED1B1))
    (comp (ref C434)
      (value 100n)
      (footprint MyKiCadLibs-Footprints:SMD-0805)
      (libsource (lib MyKiCadLibs-Lib) (part C))
      (sheetpath (names /InputFilters/) (tstamps /568E96CE/))
      (tstamp 568ED1BD))
    (comp (ref C436)
      (value 10u)
      (footprint MyKiCadLibs-Footprints:SMD-1206)
      (libsource (lib MyKiCadLibs-Lib) (part C))
      (sheetpath (names /InputFilters/) (tstamps /568E96CE/))
      (tstamp 568ED1C3))
    (comp (ref R426)
      (value 1k)
      (footprint MyKiCadLibs-Footprints:SMD-1206)
      (libsource (lib MyKiCadLibs-Lib) (part R))
      (sheetpath (names /InputFilters/) (tstamps /568E96CE/))
      (tstamp 568ED205))
    (comp (ref C442)
      (value 100n)
      (footprint MyKiCadLibs-Footprints:SMD-0805)
      (libsource (lib MyKiCadLibs-Lib) (part C))
      (sheetpath (names /InputFilters/) (tstamps /568E96CE/))
      (tstamp 568ED20B))
    (comp (ref C444)
      (value 10n)
      (footprint MyKiCadLibs-Footprints:SMD-0805)
      (libsource (lib MyKiCadLibs-Lib) (part C))
      (sheetpath (names /InputFilters/) (tstamps /568E96CE/))
      (tstamp 568ED211))
    (comp (ref R424)
      (value 1k)
      (footprint MyKiCadLibs-Footprints:SMD-1206)
      (libsource (lib MyKiCadLibs-Lib) (part R))
      (sheetpath (names /InputFilters/) (tstamps /568E96CE/))
      (tstamp 568ED22F))
    (comp (ref C428)
      (value 100n)
      (footprint MyKiCadLibs-Footprints:SMD-0805)
      (libsource (lib MyKiCadLibs-Lib) (part C))
      (sheetpath (names /InputFilters/) (tstamps /568E96CE/))
      (tstamp 568ED237))
    (comp (ref C430)
      (value 10n)
      (footprint MyKiCadLibs-Footprints:SMD-0805)
      (libsource (lib MyKiCadLibs-Lib) (part C))
      (sheetpath (names /InputFilters/) (tstamps /568E96CE/))
      (tstamp 568ED23D))
    (comp (ref C445)
      (value 47u)
      (footprint MyKiCadLibs-Footprints:CAP-TH-D6.3mmP2.5mm)
      (libsource (lib MyKiCadLibs-Lib) (part CP1))
      (sheetpath (names /InputFilters/) (tstamps /568E96CE/))
      (tstamp 568FAEE9))
    (comp (ref C446)
      (value 47u)
      (footprint MyKiCadLibs-Footprints:CAP-TH-D6.3mmP2.5mm)
      (libsource (lib MyKiCadLibs-Lib) (part CP1))
      (sheetpath (names /InputFilters/) (tstamps /568E96CE/))
      (tstamp 568FD484))
    (comp (ref R427)
      (value 1k)
      (footprint MyKiCadLibs-Footprints:SMD-1206)
      (libsource (lib MyKiCadLibs-Lib) (part R))
      (sheetpath (names /InputFilters/) (tstamps /568E96CE/))
      (tstamp 5690E53B))
    (comp (ref R431)
      (value 1k)
      (footprint MyKiCadLibs-Footprints:SMD-1206)
      (libsource (lib MyKiCadLibs-Lib) (part R))
      (sheetpath (names /InputFilters/) (tstamps /568E96CE/))
      (tstamp 56910D2E))
    (comp (ref C447)
      (value 220p)
      (footprint MyKiCadLibs-Footprints:SMD-0805)
      (libsource (lib MyKiCadLibs-Lib) (part C))
      (sheetpath (names /InputFilters/) (tstamps /568E96CE/))
      (tstamp 5691169C))
    (comp (ref R428)
      (value 1k)
      (footprint MyKiCadLibs-Footprints:SMD-1206)
      (libsource (lib MyKiCadLibs-Lib) (part R))
      (sheetpath (names /InputFilters/) (tstamps /568E96CE/))
      (tstamp 56911BC0))
    (comp (ref R432)
      (value 1k)
      (footprint MyKiCadLibs-Footprints:SMD-1206)
      (libsource (lib MyKiCadLibs-Lib) (part R))
      (sheetpath (names /InputFilters/) (tstamps /568E96CE/))
      (tstamp 56911BC6))
    (comp (ref R429)
      (value 1k)
      (footprint MyKiCadLibs-Footprints:SMD-1206)
      (libsource (lib MyKiCadLibs-Lib) (part R))
      (sheetpath (names /InputFilters/) (tstamps /568E96CE/))
      (tstamp 5691878F))
    (comp (ref R433)
      (value 1k)
      (footprint MyKiCadLibs-Footprints:SMD-1206)
      (libsource (lib MyKiCadLibs-Lib) (part R))
      (sheetpath (names /InputFilters/) (tstamps /568E96CE/))
      (tstamp 56918795))
    (comp (ref C448)
      (value 220p)
      (footprint MyKiCadLibs-Footprints:SMD-0805)
      (libsource (lib MyKiCadLibs-Lib) (part C))
      (sheetpath (names /InputFilters/) (tstamps /568E96CE/))
      (tstamp 5691879D))
    (comp (ref R430)
      (value 1k)
      (footprint MyKiCadLibs-Footprints:SMD-1206)
      (libsource (lib MyKiCadLibs-Lib) (part R))
      (sheetpath (names /InputFilters/) (tstamps /568E96CE/))
      (tstamp 569187A5))
    (comp (ref R434)
      (value 1k)
      (footprint MyKiCadLibs-Footprints:SMD-1206)
      (libsource (lib MyKiCadLibs-Lib) (part R))
      (sheetpath (names /InputFilters/) (tstamps /568E96CE/))
      (tstamp 569187AB)))
  (libparts
    (libpart (lib MyKiCadLibs-Lib) (part C)
      (footprints
        (fp SM*)
        (fp C?)
        (fp C1-1))
      (fields
        (field (name Reference) C)
        (field (name Value) C))
      (pins
        (pin (num 1) (name ~) (type passive))
        (pin (num 2) (name ~) (type passive))))
    (libpart (lib MyKiCadLibs-Lib) (part CONN_02X05)
      (footprints
        (fp Pin_Header_Straight_2X05)
        (fp Pin_Header_Angled_2X05)
        (fp Socket_Strip_Straight_2X05)
        (fp Socket_Strip_Angled_2X05))
      (fields
        (field (name Reference) P)
        (field (name Value) CONN_02X05))
      (pins
        (pin (num 1) (name P1) (type passive))
        (pin (num 2) (name P2) (type passive))
        (pin (num 3) (name P3) (type passive))
        (pin (num 4) (name P4) (type passive))
        (pin (num 5) (name P5) (type passive))
        (pin (num 6) (name P6) (type passive))
        (pin (num 7) (name P7) (type passive))
        (pin (num 8) (name P8) (type passive))
        (pin (num 9) (name P9) (type passive))
        (pin (num 10) (name P10) (type passive))))
    (libpart (lib MyKiCadLibs-Lib) (part CONN_2x1)
      (fields
        (field (name Reference) P)
        (field (name Value) CONN_2x1))
      (pins
        (pin (num 1) (name P1) (type passive))
        (pin (num 2) (name P2) (type passive))))
    (libpart (lib MyKiCadLibs-Lib) (part CONN_3x1)
      (fields
        (field (name Reference) P)
        (field (name Value) CONN_3x1))
      (pins
        (pin (num 1) (name P1) (type passive))
        (pin (num 2) (name P2) (type passive))
        (pin (num 3) (name P3) (type passive))))
    (libpart (lib MyKiCadLibs-Lib) (part CP1)
      (footprints
        (fp CP*)
        (fp SM*))
      (fields
        (field (name Reference) C)
        (field (name Value) CP1))
      (pins
        (pin (num 1) (name ~) (type passive))
        (pin (num 2) (name ~) (type passive))))
    (libpart (lib MyKiCadLibs-Lib) (part DIODE)
      (fields
        (field (name Reference) D)
        (field (name Value) DIODE))
      (pins
        (pin (num 1) (name A) (type passive))
        (pin (num 2) (name K) (type passive))))
    (libpart (lib MyKiCadLibs-Lib) (part IC-ADC-PCM4202)
      (fields
        (field (name Reference) U)
        (field (name Value) IC-ADC-PCM4202))
      (pins
        (pin (num 1) (name VREFL) (type input))
        (pin (num 2) (name AGNDL) (type input))
        (pin (num 3) (name VCOML) (type input))
        (pin (num 4) (name VINL+) (type input))
        (pin (num 5) (name VINL-) (type input))
        (pin (num 6) (name FMT0) (type input))
        (pin (num 7) (name FMT1) (type input))
        (pin (num 8) (name S/~M) (type input))
        (pin (num 9) (name FS0) (type input))
        (pin (num 10) (name FS1) (type input))
        (pin (num 11) (name FS2) (type input))
        (pin (num 12) (name HPFD) (type input))
        (pin (num 13) (name DGND) (type input))
        (pin (num 14) (name VDD) (type input))
        (pin (num 15) (name DATA) (type input))
        (pin (num 16) (name BCK) (type input))
        (pin (num 17) (name LRCK) (type input))
        (pin (num 18) (name SCKI) (type input))
        (pin (num 19) (name ~RST) (type input))
        (pin (num 20) (name CLIPR) (type input))
        (pin (num 21) (name CLIPL) (type input))
        (pin (num 22) (name VCC) (type input))
        (pin (num 23) (name AGND) (type input))
        (pin (num 24) (name VINR-) (type input))
        (pin (num 25) (name VINR+) (type input))
        (pin (num 26) (name VCOMR) (type input))
        (pin (num 27) (name AGNDR) (type input))
        (pin (num 28) (name VREFR) (type input))))
    (libpart (lib MyKiCadLibs-Lib) (part IC-OPAMP-DUAL-SOIC8)
      (fields
        (field (name Reference) U)
        (field (name Value) IC-OPAMP-DUAL-SOIC8))
      (pins
        (pin (num 1) (name ~) (type output))
        (pin (num 2) (name -) (type input))
        (pin (num 3) (name +) (type input))
        (pin (num 4) (name ~) (type power_in))
        (pin (num 5) (name +) (type input))
        (pin (num 6) (name -) (type input))
        (pin (num 7) (name ~) (type output))
        (pin (num 8) (name ~) (type power_in))))
    (libpart (lib MyKiCadLibs-Lib) (part IC-OPAMP-SINGLE-SOIC8)
      (fields
        (field (name Reference) U)
        (field (name Value) IC-OPAMP-SINGLE-SOIC8))
      (pins
        (pin (num 2) (name -) (type input))
        (pin (num 3) (name +) (type input))
        (pin (num 4) (name ~) (type power_in))
        (pin (num 6) (name ~) (type output))
        (pin (num 7) (name ~) (type power_in))))
    (libpart (lib MyKiCadLibs-Lib) (part IC-REG-POS-TPS7A45xx)
      (fields
        (field (name Reference) U)
        (field (name Value) IC-REG-POS-TPS7A45xx))
      (pins
        (pin (num 1) (name ~SHDN) (type input))
        (pin (num 2) (name IN) (type input))
        (pin (num 3) (name GND) (type input))
        (pin (num 4) (name OUT) (type input))
        (pin (num 5) (name ADJ) (type input))))
    (libpart (lib MyKiCadLibs-Lib) (part IC-REG-TLV1117LV)
      (fields
        (field (name Reference) U)
        (field (name Value) IC-REG-TLV1117LV))
      (pins
        (pin (num 1) (name GND) (type input))
        (pin (num 2) (name VOUT) (type input))
        (pin (num 3) (name VIN) (type input))))
    (libpart (lib MyKiCadLibs-Lib) (part IC-RST-ADM811)
      (fields
        (field (name Reference) U)
        (field (name Value) IC-RST-ADM811))
      (pins
        (pin (num 1) (name GND) (type input))
        (pin (num 2) (name ~RESET) (type input))
        (pin (num 3) (name ~MR) (type input))
        (pin (num 4) (name Vcc) (type input))))
    (libpart (lib MyKiCadLibs-Lib) (part INDUCTOR)
      (fields
        (field (name Reference) L)
        (field (name Value) INDUCTOR))
      (pins
        (pin (num 1) (name 1) (type passive))
        (pin (num 2) (name 2) (type passive))))
    (libpart (lib MyKiCadLibs-Lib) (part LED)
      (footprints
        (fp LED-3MM)
        (fp LED-5MM)
        (fp LED-10MM)
        (fp LED-0603)
        (fp LED-0805)
        (fp LED-1206)
        (fp LEDV))
      (fields
        (field (name Reference) D)
        (field (name Value) LED))
      (pins
        (pin (num 1) (name A) (type passive))
        (pin (num 2) (name K) (type passive))))
    (libpart (lib MyKiCadLibs-Lib) (part MNT_HOLE)
      (fields
        (field (name Reference) MNT)
        (field (name Value) MNT_HOLE)))
    (libpart (lib MyKiCadLibs-Lib) (part R)
      (footprints
        (fp R?)
        (fp SM0603)
        (fp SM0805)
        (fp R?-*)
        (fp SM1206))
      (fields
        (field (name Reference) R)
        (field (name Value) R))
      (pins
        (pin (num 1) (name ~) (type passive))
        (pin (num 2) (name ~) (type passive))))
    (libpart (lib MyKiCadLibs-Lib) (part TRAN-NPN-BC847)
      (fields
        (field (name Reference) TR)
        (field (name Value) TRAN-NPN-BC847))
      (pins
        (pin (num 1) (name ~) (type input))
        (pin (num 2) (name ~) (type input))
        (pin (num 3) (name ~) (type input)))))
  (libraries
    (library (logical MyKiCadLibs-Lib)
      (uri C:\Users\pwj\OneDrive\Documents\Electronics\KiCad-Libs\MyKiCadLibs-Lib.lib)))
  (nets
    (net (code 1) (name /InputFilters/ANAR-)
      (node (ref R422) (pin 1))
      (node (ref U301) (pin 24)))
    (net (code 2) (name /InputFilters/ANAR+)
      (node (ref U301) (pin 25))
      (node (ref R421) (pin 1)))
    (net (code 3) (name /InputFilters/ANAL+)
      (node (ref R419) (pin 1))
      (node (ref U301) (pin 4)))
    (net (code 4) (name /InputFilters/ANAL-)
      (node (ref R420) (pin 1))
      (node (ref U301) (pin 5)))
    (net (code 5) (name /InputFilters/VCOML)
      (node (ref C317) (pin 1))
      (node (ref C314) (pin 1))
      (node (ref R423) (pin 2))
      (node (ref U301) (pin 3)))
    (net (code 6) (name /InputFilters/VCOMR)
      (node (ref R424) (pin 2))
      (node (ref U301) (pin 26))
      (node (ref C330) (pin 1))
      (node (ref C327) (pin 1)))
    (net (code 7) (name "Net-(C213-Pad1)")
      (node (ref C213) (pin 1))
      (node (ref R203) (pin 2)))
    (net (code 8) (name "Net-(D203-Pad2)")
      (node (ref D203) (pin 2))
      (node (ref P204) (pin 2)))
    (net (code 9) (name -9VA)
      (node (ref U403) (pin 4))
      (node (ref C421) (pin 2))
      (node (ref C423) (pin 2))
      (node (ref C417) (pin 2))
      (node (ref C419) (pin 2))
      (node (ref U401) (pin 4))
      (node (ref L203) (pin 2))
      (node (ref C436) (pin 2))
      (node (ref C438) (pin 2))
      (node (ref U404) (pin 4))
      (node (ref C440) (pin 2))
      (node (ref C434) (pin 2))
      (node (ref C418) (pin 2))
      (node (ref C217) (pin 2))
      (node (ref U402) (pin 4))
      (node (ref C213) (pin 2))
      (node (ref C219) (pin 2))
      (node (ref C422) (pin 2))
      (node (ref C420) (pin 2))
      (node (ref C221) (pin 2))
      (node (ref C435) (pin 2))
      (node (ref C223) (pin 2))
      (node (ref C433) (pin 2))
      (node (ref C424) (pin 2))
      (node (ref C437) (pin 2))
      (node (ref C439) (pin 2)))
    (net (code 10) (name "Net-(C202-Pad2)")
      (node (ref C209) (pin 2))
      (node (ref C204) (pin 2))
      (node (ref D203) (pin 1))
      (node (ref C202) (pin 2))
      (node (ref L203) (pin 1))
      (node (ref C206) (pin 2)))
    (net (code 11) (name GNDA)
      (node (ref C315) (pin 2))
      (node (ref P308) (pin 2))
      (node (ref C319) (pin 2))
      (node (ref C312) (pin 2))
      (node (ref C304) (pin 2))
      (node (ref R315) (pin 1))
      (node (ref C328) (pin 2))
      (node (ref C307) (pin 2))
      (node (ref C325) (pin 2))
      (node (ref C332) (pin 2))
      (node (ref U302) (pin 1))
      (node (ref C321) (pin 2))
      (node (ref C322) (pin 2))
      (node (ref C303) (pin 2))
      (node (ref C323) (pin 2))
      (node (ref C301) (pin 2))
      (node (ref C305) (pin 2))
      (node (ref C306) (pin 2))
      (node (ref R310) (pin 1))
      (node (ref P310) (pin 3))
      (node (ref P310) (pin 1))
      (node (ref U301) (pin 13))
      (node (ref U301) (pin 23))
      (node (ref U301) (pin 27))
      (node (ref TR302) (pin 2))
      (node (ref TR301) (pin 2))
      (node (ref P302) (pin 2))
      (node (ref P301) (pin 2))
      (node (ref R317) (pin 1))
      (node (ref P309) (pin 9))
      (node (ref P309) (pin 10))
      (node (ref P309) (pin 3))
      (node (ref U301) (pin 2))
      (node (ref R318) (pin 1))
      (node (ref R319) (pin 1))
      (node (ref P309) (pin 1))
      (node (ref P309) (pin 5))
      (node (ref P309) (pin 7))
      (node (ref R320) (pin 1))
      (node (ref C446) (pin 2))
      (node (ref C428) (pin 2))
      (node (ref C430) (pin 2))
      (node (ref C433) (pin 1))
      (node (ref R402) (pin 1))
      (node (ref C402) (pin 2))
      (node (ref C445) (pin 2))
      (node (ref C417) (pin 1))
      (node (ref C411) (pin 2))
      (node (ref C429) (pin 2))
      (node (ref R401) (pin 1))
      (node (ref C427) (pin 2))
      (node (ref C432) (pin 2))
      (node (ref C434) (pin 1))
      (node (ref C442) (pin 2))
      (node (ref C444) (pin 2))
      (node (ref C431) (pin 2))
      (node (ref C401) (pin 2))
      (node (ref C412) (pin 2))
      (node (ref C418) (pin 1))
      (node (ref C327) (pin 2))
      (node (ref C443) (pin 2))
      (node (ref C330) (pin 2))
      (node (ref C314) (pin 2))
      (node (ref C317) (pin 2))
      (node (ref C326) (pin 2))
      (node (ref C329) (pin 2))
      (node (ref C324) (pin 2))
      (node (ref C316) (pin 2))
      (node (ref C318) (pin 2))
      (node (ref C313) (pin 2))
      (node (ref C309) (pin 2))
      (node (ref C441) (pin 2))
      (node (ref C311) (pin 2))
      (node (ref C310) (pin 2))
      (node (ref C331) (pin 2))
      (node (ref C320) (pin 2))
      (node (ref C302) (pin 2))
      (node (ref C308) (pin 2))
      (node (ref C234) (pin 2))
      (node (ref C214) (pin 2))
      (node (ref C216) (pin 2))
      (node (ref C220) (pin 2))
      (node (ref C208) (pin 2))
      (node (ref P304) (pin 2))
      (node (ref C205) (pin 2))
      (node (ref C211) (pin 2))
      (node (ref R202) (pin 2))
      (node (ref D207) (pin 1))
      (node (ref D206) (pin 1))
      (node (ref P303) (pin 2))
      (node (ref C222) (pin 2))
      (node (ref R206) (pin 2))
      (node (ref R203) (pin 1))
      (node (ref C232) (pin 2))
      (node (ref C231) (pin 2))
      (node (ref C233) (pin 2))
      (node (ref C203) (pin 2))
      (node (ref C218) (pin 2))
      (node (ref C201) (pin 2))
      (node (ref C215) (pin 2))
      (node (ref P203) (pin 2))
      (node (ref R201) (pin 2))
      (node (ref U202) (pin 3))
      (node (ref P205) (pin 2))
      (node (ref C210) (pin 2))
      (node (ref C228) (pin 2))
      (node (ref C229) (pin 2))
      (node (ref C230) (pin 2))
      (node (ref P307) (pin 2))
      (node (ref C221) (pin 1))
      (node (ref C209) (pin 1))
      (node (ref C206) (pin 1))
      (node (ref C202) (pin 1))
      (node (ref C217) (pin 1))
      (node (ref C223) (pin 1))
      (node (ref C235) (pin 2))
      (node (ref C236) (pin 2))
      (node (ref C204) (pin 1))
      (node (ref C219) (pin 1))
      (node (ref P204) (pin 1))
      (node (ref C226) (pin 2))
      (node (ref C227) (pin 2))
      (node (ref P305) (pin 2))
      (node (ref C238) (pin 2))
      (node (ref U201) (pin 1))
      (node (ref P306) (pin 2))
      (node (ref C237) (pin 2))
      (node (ref D208) (pin 2))
      (node (ref C225) (pin 2))
      (node (ref C224) (pin 2)))
    (net (code 12) (name VDD)
      (node (ref C237) (pin 1))
      (node (ref C321) (pin 1))
      (node (ref C322) (pin 1))
      (node (ref D206) (pin 2))
      (node (ref R209) (pin 2))
      (node (ref C229) (pin 1))
      (node (ref U201) (pin 2))
      (node (ref C230) (pin 1))
      (node (ref C225) (pin 1))
      (node (ref C224) (pin 1))
      (node (ref C238) (pin 1))
      (node (ref D204) (pin 1))
      (node (ref R301) (pin 1))
      (node (ref C235) (pin 1))
      (node (ref U302) (pin 4))
      (node (ref L301) (pin 1))
      (node (ref C228) (pin 1))
      (node (ref C236) (pin 1))
      (node (ref R328) (pin 2))
      (node (ref R304) (pin 1))
      (node (ref R326) (pin 2))
      (node (ref R305) (pin 1))
      (node (ref R309) (pin 1))
      (node (ref R303) (pin 1))
      (node (ref R306) (pin 1))
      (node (ref R308) (pin 1)))
    (net (code 13) (name "Net-(D208-Pad1)")
      (node (ref D208) (pin 1))
      (node (ref R209) (pin 1)))
    (net (code 14) (name "Net-(R206-Pad1)")
      (node (ref R206) (pin 1))
      (node (ref U202) (pin 5))
      (node (ref R208) (pin 2)))
    (net (code 15) (name "Net-(C212-Pad2)")
      (node (ref R202) (pin 1))
      (node (ref C212) (pin 2)))
    (net (code 16) (name "Net-(D202-Pad1)")
      (node (ref D202) (pin 1))
      (node (ref P203) (pin 1)))
    (net (code 17) (name "Net-(C207-Pad2)")
      (node (ref R201) (pin 1))
      (node (ref C207) (pin 2)))
    (net (code 18) (name VCC)
      (node (ref L202) (pin 1))
      (node (ref D202) (pin 2))
      (node (ref C203) (pin 1))
      (node (ref C201) (pin 1))
      (node (ref U202) (pin 1))
      (node (ref C205) (pin 1))
      (node (ref U202) (pin 2))
      (node (ref C208) (pin 1))
      (node (ref C227) (pin 1))
      (node (ref C226) (pin 1))
      (node (ref D205) (pin 2)))
    (net (code 19) (name "Net-(D201-Pad2)")
      (node (ref D201) (pin 2))
      (node (ref L201) (pin 1)))
    (net (code 20) (name "Net-(D201-Pad1)")
      (node (ref D201) (pin 1))
      (node (ref P205) (pin 1)))
    (net (code 21) (name +9VA)
      (node (ref U403) (pin 7))
      (node (ref L202) (pin 2))
      (node (ref C436) (pin 1))
      (node (ref U404) (pin 7))
      (node (ref C212) (pin 1))
      (node (ref C438) (pin 1))
      (node (ref C440) (pin 1))
      (node (ref C432) (pin 1))
      (node (ref C220) (pin 1))
      (node (ref C218) (pin 1))
      (node (ref C421) (pin 1))
      (node (ref C412) (pin 1))
      (node (ref C424) (pin 1))
      (node (ref C422) (pin 1))
      (node (ref C222) (pin 1))
      (node (ref C435) (pin 1))
      (node (ref C431) (pin 1))
      (node (ref C439) (pin 1))
      (node (ref C437) (pin 1))
      (node (ref U401) (pin 8))
      (node (ref C215) (pin 1))
      (node (ref C419) (pin 1))
      (node (ref C411) (pin 1))
      (node (ref C420) (pin 1))
      (node (ref U402) (pin 8))
      (node (ref C423) (pin 1)))
    (net (code 22) (name VAA)
      (node (ref U202) (pin 4))
      (node (ref C231) (pin 1))
      (node (ref C232) (pin 1))
      (node (ref D205) (pin 1))
      (node (ref L302) (pin 1))
      (node (ref C233) (pin 1))
      (node (ref D207) (pin 2))
      (node (ref R208) (pin 1))
      (node (ref C234) (pin 1)))
    (net (code 23) (name "Net-(C207-Pad1)")
      (node (ref C210) (pin 1))
      (node (ref U201) (pin 3))
      (node (ref D204) (pin 2))
      (node (ref L201) (pin 2))
      (node (ref C207) (pin 1))
      (node (ref C211) (pin 1))
      (node (ref C214) (pin 1))
      (node (ref C216) (pin 1)))
    (net (code 24) (name /PCM4202/FS0)
      (node (ref U301) (pin 9))
      (node (ref P304) (pin 1))
      (node (ref R305) (pin 2)))
    (net (code 25) (name /PCM4202/FS1)
      (node (ref R306) (pin 2))
      (node (ref U301) (pin 10))
      (node (ref P305) (pin 1)))
    (net (code 26) (name /PCM4202/SLAVE)
      (node (ref P303) (pin 1))
      (node (ref U301) (pin 8))
      (node (ref R304) (pin 2)))
    (net (code 27) (name /PCM4202/HPFD)
      (node (ref U301) (pin 12))
      (node (ref P307) (pin 1))
      (node (ref R309) (pin 2)))
    (net (code 28) (name /PCM4202/FS2)
      (node (ref P306) (pin 1))
      (node (ref R308) (pin 2))
      (node (ref U301) (pin 11)))
    (net (code 29) (name "Net-(R325-Pad2)")
      (node (ref R325) (pin 2))
      (node (ref TR301) (pin 1)))
    (net (code 30) (name "Net-(D302-Pad2)")
      (node (ref D302) (pin 2))
      (node (ref TR302) (pin 3)))
    (net (code 31) (name "Net-(D302-Pad1)")
      (node (ref D302) (pin 1))
      (node (ref R328) (pin 1)))
    (net (code 32) (name "Net-(D301-Pad2)")
      (node (ref D301) (pin 2))
      (node (ref TR301) (pin 3)))
    (net (code 33) (name "Net-(D301-Pad1)")
      (node (ref D301) (pin 1))
      (node (ref R326) (pin 1)))
    (net (code 34) (name /PCM4202/FMT1)
      (node (ref R303) (pin 2))
      (node (ref U301) (pin 7))
      (node (ref P302) (pin 1)))
    (net (code 35) (name /PCM4202/CLIPR)
      (node (ref U301) (pin 20))
      (node (ref R325) (pin 1)))
    (net (code 36) (name "Net-(R327-Pad2)")
      (node (ref R327) (pin 2))
      (node (ref TR302) (pin 1)))
    (net (code 37) (name /PCM4202/CLIPL)
      (node (ref R327) (pin 1))
      (node (ref U301) (pin 21)))
    (net (code 38) (name /PCM4202/FMT0)
      (node (ref P301) (pin 1))
      (node (ref R301) (pin 2))
      (node (ref U301) (pin 6)))
    (net (code 39) (name "Net-(P310-Pad2)")
      (node (ref R310) (pin 2))
      (node (ref P310) (pin 2))
      (node (ref R329) (pin 1)))
    (net (code 40) (name "Net-(R322-Pad2)")
      (node (ref U301) (pin 17))
      (node (ref R322) (pin 2)))
    (net (code 41) (name "Net-(R324-Pad2)")
      (node (ref U301) (pin 15))
      (node (ref R324) (pin 2)))
    (net (code 42) (name "Net-(R323-Pad2)")
      (node (ref R323) (pin 2))
      (node (ref U301) (pin 16)))
    (net (code 43) (name "Net-(P309-Pad2)")
      (node (ref P309) (pin 2))
      (node (ref R321) (pin 1))
      (node (ref R317) (pin 2)))
    (net (code 44) (name "Net-(P309-Pad6)")
      (node (ref R319) (pin 2))
      (node (ref R323) (pin 1))
      (node (ref P309) (pin 6)))
    (net (code 45) (name "Net-(P309-Pad8)")
      (node (ref R324) (pin 1))
      (node (ref R320) (pin 2))
      (node (ref P309) (pin 8)))
    (net (code 46) (name "Net-(P309-Pad4)")
      (node (ref P309) (pin 4))
      (node (ref R322) (pin 1))
      (node (ref R318) (pin 2)))
    (net (code 47) (name "Net-(R321-Pad2)")
      (node (ref R329) (pin 2))
      (node (ref R321) (pin 2))
      (node (ref U301) (pin 18)))
    (net (code 48) (name "Net-(C323-Pad1)")
      (node (ref U302) (pin 3))
      (node (ref R314) (pin 1))
      (node (ref C323) (pin 1)))
    (net (code 49) (name "Net-(C312-Pad1)")
      (node (ref C320) (pin 1))
      (node (ref C315) (pin 1))
      (node (ref C319) (pin 1))
      (node (ref C312) (pin 1))
      (node (ref U301) (pin 1)))
    (net (code 50) (name "Net-(C328-Pad1)")
      (node (ref P308) (pin 1))
      (node (ref R314) (pin 2))
      (node (ref C328) (pin 1)))
    (net (code 51) (name /PCM4202/ADC_RESET)
      (node (ref U301) (pin 19))
      (node (ref R316) (pin 1))
      (node (ref C332) (pin 1)))
    (net (code 52) (name "Net-(C325-Pad1)")
      (node (ref U302) (pin 2))
      (node (ref R316) (pin 2))
      (node (ref R315) (pin 2))
      (node (ref C325) (pin 1)))
    (net (code 53) (name "Net-(C301-Pad1)")
      (node (ref C301) (pin 1))
      (node (ref R302) (pin 2)))
    (net (code 54) (name /PCM4202/DVDD)
      (node (ref C302) (pin 1))
      (node (ref C305) (pin 1))
      (node (ref L301) (pin 2))
      (node (ref R302) (pin 1))
      (node (ref C306) (pin 1))
      (node (ref C307) (pin 1))
      (node (ref C304) (pin 1))
      (node (ref C303) (pin 1))
      (node (ref U301) (pin 14)))
    (net (code 55) (name "Net-(C324-Pad1)")
      (node (ref U301) (pin 28))
      (node (ref C331) (pin 1))
      (node (ref C326) (pin 1))
      (node (ref C329) (pin 1))
      (node (ref C324) (pin 1)))
    (net (code 56) (name "Net-(C308-Pad1)")
      (node (ref C308) (pin 1))
      (node (ref R307) (pin 2)))
    (net (code 57) (name /PCM4202/AVCC)
      (node (ref C310) (pin 1))
      (node (ref C309) (pin 1))
      (node (ref C318) (pin 1))
      (node (ref C316) (pin 1))
      (node (ref C313) (pin 1))
      (node (ref R307) (pin 1))
      (node (ref L302) (pin 2))
      (node (ref C311) (pin 1))
      (node (ref U301) (pin 22)))
    (net (code 58) (name "Net-(C407-Pad1)")
      (node (ref R433) (pin 1))
      (node (ref C407) (pin 1))
      (node (ref C408) (pin 1)))
    (net (code 59) (name "Net-(C409-Pad2)")
      (node (ref C410) (pin 2))
      (node (ref C409) (pin 2))
      (node (ref R406) (pin 2)))
    (net (code 60) (name "Net-(C426-Pad2)")
      (node (ref C426) (pin 2))
      (node (ref R418) (pin 1))
      (node (ref R414) (pin 1))
      (node (ref R422) (pin 2)))
    (net (code 61) (name "Net-(C409-Pad1)")
      (node (ref C410) (pin 1))
      (node (ref C409) (pin 1))
      (node (ref R434) (pin 1)))
    (net (code 62) (name "Net-(C402-Pad1)")
      (node (ref C402) (pin 1))
      (node (ref R402) (pin 2))
      (node (ref P402) (pin 1)))
    (net (code 63) (name /InputFilters/VCMR)
      (node (ref R410) (pin 1))
      (node (ref C444) (pin 1))
      (node (ref C442) (pin 1))
      (node (ref R426) (pin 1))
      (node (ref R409) (pin 2))
      (node (ref C446) (pin 1)))
    (net (code 64) (name "Net-(R406-Pad1)")
      (node (ref U402) (pin 5))
      (node (ref R410) (pin 2))
      (node (ref R406) (pin 1)))
    (net (code 65) (name "Net-(R405-Pad1)")
      (node (ref R405) (pin 1))
      (node (ref R409) (pin 1))
      (node (ref U402) (pin 3)))
    (net (code 66) (name "Net-(C415-Pad2)")
      (node (ref U402) (pin 1))
      (node (ref R417) (pin 2))
      (node (ref C415) (pin 2)))
    (net (code 67) (name "Net-(C407-Pad2)")
      (node (ref R405) (pin 2))
      (node (ref C407) (pin 2))
      (node (ref C408) (pin 2)))
    (net (code 68) (name "Net-(C426-Pad1)")
      (node (ref R421) (pin 2))
      (node (ref R417) (pin 1))
      (node (ref R413) (pin 1))
      (node (ref C426) (pin 1)))
    (net (code 69) (name "Net-(C416-Pad1)")
      (node (ref C416) (pin 1))
      (node (ref R414) (pin 2))
      (node (ref U402) (pin 6)))
    (net (code 70) (name "Net-(C416-Pad2)")
      (node (ref U402) (pin 7))
      (node (ref C416) (pin 2))
      (node (ref R418) (pin 2)))
    (net (code 71) (name "Net-(C415-Pad1)")
      (node (ref U402) (pin 2))
      (node (ref C415) (pin 1))
      (node (ref R413) (pin 2)))
    (net (code 72) (name "Net-(C428-Pad1)")
      (node (ref U404) (pin 3))
      (node (ref C430) (pin 1))
      (node (ref C428) (pin 1))
      (node (ref R424) (pin 1)))
    (net (code 73) (name "Net-(P402-Pad2)")
      (node (ref R429) (pin 2))
      (node (ref P402) (pin 2)))
    (net (code 74) (name "Net-(C448-Pad1)")
      (node (ref R433) (pin 2))
      (node (ref C448) (pin 1))
      (node (ref R429) (pin 1)))
    (net (code 75) (name "Net-(P402-Pad3)")
      (node (ref P402) (pin 3))
      (node (ref R430) (pin 2)))
    (net (code 76) (name "Net-(C448-Pad2)")
      (node (ref R434) (pin 2))
      (node (ref C448) (pin 2))
      (node (ref R430) (pin 1)))
    (net (code 77) (name "Net-(C447-Pad1)")
      (node (ref C447) (pin 1))
      (node (ref R431) (pin 2))
      (node (ref R427) (pin 1)))
    (net (code 78) (name "Net-(C447-Pad2)")
      (node (ref C447) (pin 2))
      (node (ref R428) (pin 1))
      (node (ref R432) (pin 2)))
    (net (code 79) (name "Net-(R426-Pad2)")
      (node (ref U404) (pin 2))
      (node (ref R426) (pin 2))
      (node (ref U404) (pin 6)))
    (net (code 80) (name "Net-(C414-Pad1)")
      (node (ref C414) (pin 1))
      (node (ref R412) (pin 2))
      (node (ref U401) (pin 6)))
    (net (code 81) (name "Net-(C414-Pad2)")
      (node (ref C414) (pin 2))
      (node (ref R416) (pin 2))
      (node (ref U401) (pin 7)))
    (net (code 82) (name "Net-(C403-Pad2)")
      (node (ref R403) (pin 2))
      (node (ref C403) (pin 2))
      (node (ref C404) (pin 2)))
    (net (code 83) (name "Net-(C425-Pad1)")
      (node (ref R415) (pin 1))
      (node (ref R411) (pin 1))
      (node (ref R419) (pin 2))
      (node (ref C425) (pin 1)))
    (net (code 84) (name "Net-(C425-Pad2)")
      (node (ref R420) (pin 2))
      (node (ref R412) (pin 1))
      (node (ref C425) (pin 2))
      (node (ref R416) (pin 1)))
    (net (code 85) (name "Net-(C403-Pad1)")
      (node (ref C403) (pin 1))
      (node (ref C404) (pin 1))
      (node (ref R431) (pin 1)))
    (net (code 86) (name "Net-(C405-Pad2)")
      (node (ref C405) (pin 2))
      (node (ref C406) (pin 2))
      (node (ref R404) (pin 2)))
    (net (code 87) (name "Net-(C405-Pad1)")
      (node (ref C405) (pin 1))
      (node (ref C406) (pin 1))
      (node (ref R432) (pin 1)))
    (net (code 88) (name "Net-(R404-Pad1)")
      (node (ref U401) (pin 5))
      (node (ref R408) (pin 2))
      (node (ref R404) (pin 1)))
    (net (code 89) (name "Net-(C413-Pad1)")
      (node (ref U401) (pin 2))
      (node (ref C413) (pin 1))
      (node (ref R411) (pin 2)))
    (net (code 90) (name "Net-(R403-Pad1)")
      (node (ref U401) (pin 3))
      (node (ref R403) (pin 1))
      (node (ref R407) (pin 1)))
    (net (code 91) (name "Net-(C413-Pad2)")
      (node (ref C413) (pin 2))
      (node (ref R415) (pin 2))
      (node (ref U401) (pin 1)))
    (net (code 92) (name "Net-(P401-Pad3)")
      (node (ref P401) (pin 3))
      (node (ref R428) (pin 2)))
    (net (code 93) (name "Net-(P401-Pad2)")
      (node (ref R427) (pin 2))
      (node (ref P401) (pin 2)))
    (net (code 94) (name "Net-(C427-Pad1)")
      (node (ref U403) (pin 3))
      (node (ref C427) (pin 1))
      (node (ref R423) (pin 1))
      (node (ref C429) (pin 1)))
    (net (code 95) (name "Net-(C401-Pad1)")
      (node (ref P401) (pin 1))
      (node (ref C401) (pin 1))
      (node (ref R401) (pin 2)))
    (net (code 96) (name /InputFilters/VCML)
      (node (ref R408) (pin 1))
      (node (ref C441) (pin 1))
      (node (ref R425) (pin 1))
      (node (ref R407) (pin 2))
      (node (ref C445) (pin 1))
      (node (ref C443) (pin 1)))
    (net (code 97) (name "Net-(R425-Pad2)")
      (node (ref U403) (pin 6))
      (node (ref R425) (pin 2))
      (node (ref U403) (pin 2)))))