EESchema Schematic File Version 2
LIBS:power
LIBS:MyKiCadLibs-Lib
LIBS:ADC-PCM4202-cache
EELAYER 25 0
EELAYER END
$Descr A3 16535 11693
encoding utf-8
Sheet 3 4
Title "OHDSP - ADC-PCM4202"
Date "22 Jan 16"
Rev "1.0"
Comp ""
Comment1 "MERCHANTABILITY, SATISFACTORY QUALITY AND FITNESS FOR A PARTICULAR PURPOSE."
Comment2 "is distributed WITHOUT ANY EXPRESS OR IMPLIED WARRANTY, INCLUDING OF"
Comment3 "Licensed under the TAPR Open Hardware License (www.tapr.org/OHL). This documentation"
Comment4 "Copyright Paul Janicki 2016"
$EndDescr
$Comp
L INDUCTOR L301
U 1 1 54DAC796
P 4700 1050
F 0 "L301" V 4650 1050 40  0000 C CNN
F 1 "600R@100MHz" V 4800 1050 40  0000 C CNN
F 2 "MyKiCadLibs-Footprints:SMD-0805" H 4700 1050 60  0001 C CNN
F 3 "~" H 4700 1050 60  0000 C CNN
	1    4700 1050
	0    -1   -1   0   
$EndComp
$Comp
L C C301
U 1 1 54DAC79D
P 5300 1900
F 0 "C301" H 5300 2000 40  0000 L CNN
F 1 "100p" H 5306 1815 40  0000 L CNN
F 2 "MyKiCadLibs-Footprints:SMD-0805" H 5338 1750 30  0001 C CNN
F 3 "~" H 5300 1900 60  0000 C CNN
	1    5300 1900
	1    0    0    -1  
$EndComp
$Comp
L R R302
U 1 1 54DAC7A4
P 5300 1350
F 0 "R302" V 5380 1350 40  0000 C CNN
F 1 "47R" V 5307 1351 40  0000 C CNN
F 2 "MyKiCadLibs-Footprints:SMD-0805" V 5230 1350 30  0001 C CNN
F 3 "~" H 5300 1350 30  0000 C CNN
	1    5300 1350
	1    0    0    -1  
$EndComp
$Comp
L GNDD #PWR027
U 1 1 54DACD02
P 5300 2200
F 0 "#PWR027" H 5300 1950 60  0001 C CNN
F 1 "GNDD" H 5300 2050 60  0000 C CNN
F 2 "" H 5300 2200 60  0000 C CNN
F 3 "" H 5300 2200 60  0000 C CNN
	1    5300 2200
	1    0    0    -1  
$EndComp
$Comp
L C C305
U 1 1 54DAD626
P 6600 1650
F 0 "C305" H 6600 1750 40  0000 L CNN
F 1 "1u" H 6606 1565 40  0000 L CNN
F 2 "MyKiCadLibs-Footprints:SMD-0603" H 6638 1500 30  0001 C CNN
F 3 "~" H 6600 1650 60  0000 C CNN
	1    6600 1650
	1    0    0    -1  
$EndComp
$Comp
L C C306
U 1 1 54DAD62D
P 6850 1650
F 0 "C306" H 6850 1750 40  0000 L CNN
F 1 "100n" H 6856 1565 40  0000 L CNN
F 2 "MyKiCadLibs-Footprints:SMD-0603" H 6888 1500 30  0001 C CNN
F 3 "~" H 6850 1650 60  0000 C CNN
	1    6850 1650
	1    0    0    -1  
$EndComp
$Comp
L C C307
U 1 1 54DAD63D
P 7100 1650
F 0 "C307" H 7100 1750 40  0000 L CNN
F 1 "10n" H 7106 1565 40  0000 L CNN
F 2 "MyKiCadLibs-Footprints:SMD-0603" H 7138 1500 30  0001 C CNN
F 3 "~" H 7100 1650 60  0000 C CNN
	1    7100 1650
	1    0    0    -1  
$EndComp
$Comp
L C C304
U 1 1 54DAD7E6
P 6300 1650
F 0 "C304" H 6300 1750 40  0000 L CNN
F 1 "100n" H 6306 1565 40  0000 L CNN
F 2 "MyKiCadLibs-Footprints:SMD-0805" H 6338 1500 30  0001 C CNN
F 3 "~" H 6300 1650 60  0000 C CNN
	1    6300 1650
	1    0    0    -1  
$EndComp
$Comp
L C C303
U 1 1 54DAD9F0
P 6000 1650
F 0 "C303" H 6000 1750 40  0000 L CNN
F 1 "22u" H 6006 1565 40  0000 L CNN
F 2 "MyKiCadLibs-Footprints:SMD-0805" H 6038 1500 30  0001 C CNN
F 3 "~" H 6000 1650 60  0000 C CNN
	1    6000 1650
	1    0    0    -1  
$EndComp
Text Label 7100 1050 2    60   ~ 0
DVDD
$Comp
L VDD #PWR028
U 1 1 54DB0DB8
P 4300 900
F 0 "#PWR028" H 4300 750 60  0001 C CNN
F 1 "VDD" H 4300 1050 60  0000 C CNN
F 2 "" H 4300 900 60  0000 C CNN
F 3 "" H 4300 900 60  0000 C CNN
	1    4300 900 
	1    0    0    -1  
$EndComp
$Comp
L VAA #PWR029
U 1 1 54DB3C56
P 7650 900
F 0 "#PWR029" H 7650 750 60  0001 C CNN
F 1 "VAA" H 7650 1050 60  0000 C CNN
F 2 "" H 7650 900 60  0000 C CNN
F 3 "" H 7650 900 60  0000 C CNN
	1    7650 900 
	1    0    0    -1  
$EndComp
Text Notes 7000 8900 0    59   ~ 0
Generate a global reset based on 3V3 rail\nUse ADM811TART (3V08 Threshold)
Text Notes 7000 8700 0    118  ~ 0
Voltage Monitor Reset
$Comp
L C C321
U 1 1 54DE8604
P 8000 10100
F 0 "C321" H 8000 10200 40  0000 L CNN
F 1 "1u" H 8006 10015 40  0000 L CNN
F 2 "MyKiCadLibs-Footprints:SMD-0805" H 8038 9950 30  0001 C CNN
F 3 "~" H 8000 10100 60  0000 C CNN
	1    8000 10100
	1    0    0    -1  
$EndComp
$Comp
L C C322
U 1 1 54DE860A
P 8250 10100
F 0 "C322" H 8250 10200 40  0000 L CNN
F 1 "100n" H 8256 10015 40  0000 L CNN
F 2 "MyKiCadLibs-Footprints:SMD-0805" H 8288 9950 30  0001 C CNN
F 3 "~" H 8250 10100 60  0000 C CNN
	1    8250 10100
	1    0    0    -1  
$EndComp
$Comp
L C C323
U 1 1 54EA1193
P 9650 10350
F 0 "C323" H 9650 10450 40  0000 L CNN
F 1 "100n" H 9656 10265 40  0000 L CNN
F 2 "MyKiCadLibs-Footprints:SMD-0805" H 9688 10200 30  0001 C CNN
F 3 "~" H 9650 10350 60  0000 C CNN
	1    9650 10350
	1    0    0    -1  
$EndComp
$Comp
L GNDD #PWR030
U 1 1 54EA141D
P 9650 10600
F 0 "#PWR030" H 9650 10350 60  0001 C CNN
F 1 "GNDD" H 9650 10450 60  0000 C CNN
F 2 "" H 9650 10600 60  0000 C CNN
F 3 "" H 9650 10600 60  0000 C CNN
	1    9650 10600
	-1   0    0    -1  
$EndComp
$Comp
L GNDD #PWR031
U 1 1 54EA2F14
P 8000 10400
F 0 "#PWR031" H 8000 10150 60  0001 C CNN
F 1 "GNDD" H 8000 10250 60  0000 C CNN
F 2 "" H 8000 10400 60  0000 C CNN
F 3 "" H 8000 10400 60  0000 C CNN
	1    8000 10400
	-1   0    0    -1  
$EndComp
$Comp
L GNDD #PWR032
U 1 1 54EA451E
P 8600 9800
F 0 "#PWR032" H 8600 9550 60  0001 C CNN
F 1 "GNDD" H 8600 9650 60  0000 C CNN
F 2 "" H 8600 9800 60  0000 C CNN
F 3 "" H 8600 9800 60  0000 C CNN
	1    8600 9800
	-1   0    0    -1  
$EndComp
$Comp
L R R314
U 1 1 54F0DD27
P 9950 10050
F 0 "R314" V 9850 10150 40  0000 C CNN
F 1 "1k" V 9957 10051 40  0000 C CNN
F 2 "MyKiCadLibs-Footprints:SMD-0805" V 9880 10050 30  0001 C CNN
F 3 "~" H 9950 10050 30  0000 C CNN
	1    9950 10050
	0    -1   1    0   
$EndComp
$Comp
L C C328
U 1 1 54FF35A4
P 10450 10450
F 0 "C328" H 10450 10550 40  0000 L CNN
F 1 "100n" H 10456 10365 40  0000 L CNN
F 2 "MyKiCadLibs-Footprints:SMD-0805" H 10488 10300 30  0001 C CNN
F 3 "~" H 10450 10450 60  0000 C CNN
	1    10450 10450
	1    0    0    -1  
$EndComp
$Comp
L GNDD #PWR033
U 1 1 54FF363C
P 10450 10700
F 0 "#PWR033" H 10450 10450 60  0001 C CNN
F 1 "GNDD" H 10450 10550 60  0000 C CNN
F 2 "" H 10450 10700 60  0000 C CNN
F 3 "" H 10450 10700 60  0000 C CNN
	1    10450 10700
	-1   0    0    -1  
$EndComp
$Comp
L C C325
U 1 1 54FF7B65
P 9900 9200
F 0 "C325" H 9900 9300 40  0000 L CNN
F 1 "100n" H 9906 9115 40  0000 L CNN
F 2 "MyKiCadLibs-Footprints:SMD-0805" H 9938 9050 30  0001 C CNN
F 3 "~" H 9900 9200 60  0000 C CNN
	1    9900 9200
	1    0    0    -1  
$EndComp
$Comp
L GNDD #PWR034
U 1 1 54FF7C76
P 9900 9450
F 0 "#PWR034" H 9900 9200 60  0001 C CNN
F 1 "GNDD" H 9900 9300 60  0000 C CNN
F 2 "" H 9900 9450 60  0000 C CNN
F 3 "" H 9900 9450 60  0000 C CNN
	1    9900 9450
	-1   0    0    -1  
$EndComp
$Comp
L R R316
U 1 1 551D8E6C
P 10550 8700
F 0 "R316" V 10480 8620 40  0000 C CNN
F 1 "100R" V 10557 8701 40  0000 C CNN
F 2 "MyKiCadLibs-Footprints:SMD-0805" V 10480 8700 30  0001 C CNN
F 3 "~" H 10550 8700 30  0000 C CNN
	1    10550 8700
	0    1    1    0   
$EndComp
Text Label 11350 8700 2    60   ~ 0
ADC_RESET
$Comp
L C C332
U 1 1 551DA835
P 11350 9000
F 0 "C332" H 11350 9100 40  0000 L CNN
F 1 "100n" H 11356 8915 40  0000 L CNN
F 2 "MyKiCadLibs-Footprints:SMD-0805" H 11388 8850 30  0001 C CNN
F 3 "~" H 11350 9000 60  0000 C CNN
	1    11350 9000
	1    0    0    -1  
$EndComp
$Comp
L GNDD #PWR035
U 1 1 551DB2BB
P 11350 9250
F 0 "#PWR035" H 11350 9000 60  0001 C CNN
F 1 "GNDD" H 11350 9100 60  0000 C CNN
F 2 "" H 11350 9250 60  0000 C CNN
F 3 "" H 11350 9250 60  0000 C CNN
	1    11350 9250
	-1   0    0    -1  
$EndComp
$Comp
L IC-RST-ADM811 U302
U 1 1 5630C25C
P 8650 9550
F 0 "U302" H 8900 9800 60  0000 C CNN
F 1 "ADM811TART" H 9150 9700 60  0000 C CNN
F 2 "MyKiCadLibs-Footprints:IC-SOT143" H 8650 9700 60  0001 C CNN
F 3 "" H 8650 9700 60  0000 C CNN
	1    8650 9550
	1    0    0    -1  
$EndComp
$Comp
L R R315
U 1 1 5630E2E6
P 10200 9150
F 0 "R315" V 10170 9390 40  0000 C CNN
F 1 "100k" V 10207 9151 40  0000 C CNN
F 2 "MyKiCadLibs-Footprints:SMD-0805" V 10130 9150 30  0001 C CNN
F 3 "~" H 10200 9150 30  0000 C CNN
	1    10200 9150
	1    0    0    1   
$EndComp
$Comp
L GNDD #PWR036
U 1 1 5630E7E9
P 10200 9450
F 0 "#PWR036" H 10200 9200 60  0001 C CNN
F 1 "GNDD" H 10200 9300 60  0000 C CNN
F 2 "" H 10200 9450 60  0000 C CNN
F 3 "" H 10200 9450 60  0000 C CNN
	1    10200 9450
	-1   0    0    -1  
$EndComp
$Comp
L GNDD #PWR037
U 1 1 54DB551F
P 6500 5650
F 0 "#PWR037" H 6500 5400 60  0001 C CNN
F 1 "GNDD" H 6500 5500 60  0000 C CNN
F 2 "" H 6500 5650 60  0000 C CNN
F 3 "" H 6500 5650 60  0000 C CNN
	1    6500 5650
	1    0    0    -1  
$EndComp
$Comp
L VDD #PWR038
U 1 1 5631D924
P 7300 9450
F 0 "#PWR038" H 7300 9300 60  0001 C CNN
F 1 "VDD" H 7300 9600 60  0000 C CNN
F 2 "" H 7300 9450 60  0000 C CNN
F 3 "" H 7300 9450 60  0000 C CNN
	1    7300 9450
	1    0    0    -1  
$EndComp
$Comp
L GNDD #PWR039
U 1 1 5632E40F
P 1350 10550
F 0 "#PWR039" H 1350 10300 60  0001 C CNN
F 1 "GNDD" H 1350 10400 60  0000 C CNN
F 2 "" H 1350 10550 60  0000 C CNN
F 3 "" H 1350 10550 60  0000 C CNN
	1    1350 10550
	1    0    0    -1  
$EndComp
$Comp
L R R301
U 1 1 5632E6C5
P 1350 9500
F 0 "R301" V 1400 9800 40  0000 C CNN
F 1 "10k" V 1357 9501 40  0000 C CNN
F 2 "MyKiCadLibs-Footprints:SMD-0805" V 1280 9500 30  0001 C CNN
F 3 "~" H 1350 9500 30  0000 C CNN
	1    1350 9500
	1    0    0    -1  
$EndComp
Wire Wire Line
	5300 1050 5300 1100
Wire Wire Line
	5300 1600 5300 1700
Connection ~ 5300 1050
Wire Wire Line
	6000 1050 6000 1450
Connection ~ 5650 1050
Connection ~ 6000 1050
Wire Wire Line
	5300 2100 5300 2200
Wire Wire Line
	5650 2150 5650 1850
Connection ~ 5300 2150
Wire Wire Line
	6000 2150 6000 1850
Connection ~ 5650 2150
Connection ~ 6000 2150
Wire Wire Line
	6300 1050 6300 1450
Wire Wire Line
	6300 2150 6300 1850
Wire Wire Line
	6600 2150 6600 1850
Connection ~ 6300 2150
Wire Wire Line
	6850 2150 6850 1850
Connection ~ 6600 2150
Wire Wire Line
	7100 2150 7100 1850
Connection ~ 6850 2150
Wire Wire Line
	6600 1050 6600 1450
Connection ~ 6300 1050
Wire Wire Line
	6850 1050 6850 1450
Connection ~ 6600 1050
Wire Wire Line
	7100 1050 7100 1450
Connection ~ 6850 1050
Wire Wire Line
	4300 900  4300 1050
Wire Wire Line
	4300 1050 4400 1050
Wire Wire Line
	9650 10600 9650 10550
Wire Wire Line
	10450 10050 10450 10250
Wire Wire Line
	8000 10300 8000 10400
Wire Wire Line
	8250 10300 8250 10350
Wire Wire Line
	8250 10350 8000 10350
Connection ~ 8000 10350
Wire Wire Line
	8000 9550 8000 9900
Wire Wire Line
	8250 9550 8250 9900
Connection ~ 8000 9550
Connection ~ 8250 9550
Wire Wire Line
	8600 9800 8600 9700
Wire Wire Line
	8600 9700 8650 9700
Connection ~ 10450 10150
Wire Wire Line
	9650 9700 9650 10150
Connection ~ 9650 10050
Wire Wire Line
	10450 10700 10450 10650
Wire Wire Line
	9900 9450 9900 9400
Wire Wire Line
	9650 8700 10300 8700
Wire Wire Line
	9650 8700 9650 9550
Wire Wire Line
	10800 8700 11350 8700
Wire Wire Line
	11350 8700 11350 8800
Wire Wire Line
	11350 9250 11350 9200
Wire Wire Line
	9650 10050 9700 10050
Wire Wire Line
	9600 9700 9650 9700
Wire Wire Line
	9900 9000 9900 8700
Connection ~ 9900 8700
Wire Wire Line
	9650 9550 9600 9550
Wire Wire Line
	10200 8900 10200 8700
Connection ~ 10200 8700
Wire Wire Line
	10200 9450 10200 9400
Wire Wire Line
	7300 9450 7300 9550
Wire Wire Line
	7300 9550 8650 9550
Wire Wire Line
	1350 9150 1350 9250
Wire Wire Line
	1350 9750 1350 9950
Wire Wire Line
	1300 10050 1350 10050
Wire Wire Line
	1350 10050 1350 10550
Wire Wire Line
	1300 9950 1550 9950
Wire Wire Line
	1550 9950 1550 9200
$Comp
L CP1 C312
U 1 1 56348883
P 4850 3750
F 0 "C312" H 4900 3850 50  0000 L CNN
F 1 "220u" H 4900 3650 50  0000 L CNN
F 2 "MyKiCadLibs-Footprints:CAP-TH-D6.3mmP2.5mm" H 4850 3750 60  0001 C CNN
F 3 "~" H 4850 3750 60  0000 C CNN
	1    4850 3750
	1    0    0    -1  
$EndComp
$Comp
L C C319
U 1 1 56348889
P 5500 3750
F 0 "C319" H 5500 3850 40  0000 L CNN
F 1 "100n" H 5506 3665 40  0000 L CNN
F 2 "MyKiCadLibs-Footprints:SMD-0805" H 5538 3600 30  0001 C CNN
F 3 "~" H 5500 3750 60  0000 C CNN
	1    5500 3750
	1    0    0    -1  
$EndComp
$Comp
L C C315
U 1 1 5634888F
P 5200 3750
F 0 "C315" H 5200 3850 40  0000 L CNN
F 1 "22u" H 5206 3665 40  0000 L CNN
F 2 "MyKiCadLibs-Footprints:SMD-0805" H 5238 3600 30  0001 C CNN
F 3 "~" H 5200 3750 60  0000 C CNN
	1    5200 3750
	1    0    0    -1  
$EndComp
Wire Wire Line
	10200 10050 10450 10050
$Comp
L CONN_2x1 P308
U 1 1 563A98B7
P 10900 10400
F 0 "P308" V 11400 10350 40  0000 C CNN
F 1 "CONN_2x1" V 11350 10350 40  0000 C CNN
F 2 "MyKiCadLibs-Footprints:CONN_SIL_2" H 10900 10400 60  0001 C CNN
F 3 "" H 10900 10400 60  0000 C CNN
	1    10900 10400
	1    0    0    -1  
$EndComp
Wire Wire Line
	10900 10400 10850 10400
Wire Wire Line
	10850 10400 10850 10150
$Comp
L GNDD #PWR040
U 1 1 563AA3FF
P 10850 10700
F 0 "#PWR040" H 10850 10450 60  0001 C CNN
F 1 "GNDD" H 10850 10550 60  0000 C CNN
F 2 "" H 10850 10700 60  0000 C CNN
F 3 "" H 10850 10700 60  0000 C CNN
	1    10850 10700
	-1   0    0    -1  
$EndComp
Wire Wire Line
	10850 10700 10850 10500
Wire Wire Line
	10850 10500 10900 10500
Wire Wire Line
	5650 1050 5650 1450
$Comp
L CP1 C302
U 1 1 54DAD61F
P 5650 1650
F 0 "C302" H 5700 1750 50  0000 L CNN
F 1 "220u" H 5700 1550 50  0000 L CNN
F 2 "MyKiCadLibs-Footprints:CAP-TH-D6.3mmP2.5mm" H 5650 1650 60  0001 C CNN
F 3 "~" H 5650 1650 60  0000 C CNN
	1    5650 1650
	1    0    0    -1  
$EndComp
Wire Wire Line
	5000 1050 7100 1050
Wire Wire Line
	5300 2150 7100 2150
$Comp
L INDUCTOR L302
U 1 1 568EFC4D
P 8050 1050
F 0 "L302" V 8000 1050 40  0000 C CNN
F 1 "600R@100MHz" V 8150 1050 40  0000 C CNN
F 2 "MyKiCadLibs-Footprints:SMD-0805" H 8050 1050 60  0001 C CNN
F 3 "~" H 8050 1050 60  0000 C CNN
	1    8050 1050
	0    -1   -1   0   
$EndComp
$Comp
L C C308
U 1 1 568EFC53
P 8650 1900
F 0 "C308" H 8650 2000 40  0000 L CNN
F 1 "100p" H 8656 1815 40  0000 L CNN
F 2 "MyKiCadLibs-Footprints:SMD-0805" H 8688 1750 30  0001 C CNN
F 3 "~" H 8650 1900 60  0000 C CNN
	1    8650 1900
	1    0    0    -1  
$EndComp
$Comp
L R R307
U 1 1 568EFC59
P 8650 1350
F 0 "R307" V 8730 1350 40  0000 C CNN
F 1 "47R" V 8657 1351 40  0000 C CNN
F 2 "MyKiCadLibs-Footprints:SMD-0805" V 8580 1350 30  0001 C CNN
F 3 "~" H 8650 1350 30  0000 C CNN
	1    8650 1350
	1    0    0    -1  
$EndComp
$Comp
L GNDD #PWR041
U 1 1 568EFC5F
P 8650 2200
F 0 "#PWR041" H 8650 1950 60  0001 C CNN
F 1 "GNDD" H 8650 2050 60  0000 C CNN
F 2 "" H 8650 2200 60  0000 C CNN
F 3 "" H 8650 2200 60  0000 C CNN
	1    8650 2200
	1    0    0    -1  
$EndComp
$Comp
L C C313
U 1 1 568EFC65
P 9950 1650
F 0 "C313" H 9950 1750 40  0000 L CNN
F 1 "1u" H 9956 1565 40  0000 L CNN
F 2 "MyKiCadLibs-Footprints:SMD-0603" H 9988 1500 30  0001 C CNN
F 3 "~" H 9950 1650 60  0000 C CNN
	1    9950 1650
	1    0    0    -1  
$EndComp
$Comp
L C C316
U 1 1 568EFC6B
P 10200 1650
F 0 "C316" H 10200 1750 40  0000 L CNN
F 1 "100n" H 10206 1565 40  0000 L CNN
F 2 "MyKiCadLibs-Footprints:SMD-0603" H 10238 1500 30  0001 C CNN
F 3 "~" H 10200 1650 60  0000 C CNN
	1    10200 1650
	1    0    0    -1  
$EndComp
$Comp
L C C318
U 1 1 568EFC71
P 10450 1650
F 0 "C318" H 10450 1750 40  0000 L CNN
F 1 "10n" H 10456 1565 40  0000 L CNN
F 2 "MyKiCadLibs-Footprints:SMD-0603" H 10488 1500 30  0001 C CNN
F 3 "~" H 10450 1650 60  0000 C CNN
	1    10450 1650
	1    0    0    -1  
$EndComp
$Comp
L C C311
U 1 1 568EFC77
P 9650 1650
F 0 "C311" H 9650 1750 40  0000 L CNN
F 1 "100n" H 9656 1565 40  0000 L CNN
F 2 "MyKiCadLibs-Footprints:SMD-0805" H 9688 1500 30  0001 C CNN
F 3 "~" H 9650 1650 60  0000 C CNN
	1    9650 1650
	1    0    0    -1  
$EndComp
$Comp
L C C310
U 1 1 568EFC7D
P 9350 1650
F 0 "C310" H 9350 1750 40  0000 L CNN
F 1 "22u" H 9356 1565 40  0000 L CNN
F 2 "MyKiCadLibs-Footprints:SMD-0805" H 9388 1500 30  0001 C CNN
F 3 "~" H 9350 1650 60  0000 C CNN
	1    9350 1650
	1    0    0    -1  
$EndComp
Wire Wire Line
	8650 1050 8650 1100
Wire Wire Line
	8650 1600 8650 1700
Connection ~ 8650 1050
Wire Wire Line
	9350 1050 9350 1450
Connection ~ 9000 1050
Connection ~ 9350 1050
Wire Wire Line
	8650 2100 8650 2200
Wire Wire Line
	9000 2150 9000 1850
Connection ~ 8650 2150
Wire Wire Line
	9350 2150 9350 1850
Connection ~ 9000 2150
Connection ~ 9350 2150
Wire Wire Line
	9650 1050 9650 1450
Wire Wire Line
	9650 2150 9650 1850
Wire Wire Line
	9950 2150 9950 1850
Connection ~ 9650 2150
Wire Wire Line
	10200 2150 10200 1850
Connection ~ 9950 2150
Wire Wire Line
	10450 2150 10450 1850
Connection ~ 10200 2150
Wire Wire Line
	9950 1050 9950 1450
Connection ~ 9650 1050
Wire Wire Line
	10200 1050 10200 1450
Connection ~ 9950 1050
Wire Wire Line
	10450 1050 10450 1450
Connection ~ 10200 1050
Wire Wire Line
	7650 900  7650 1050
Wire Wire Line
	7650 1050 7750 1050
Wire Wire Line
	9000 1050 9000 1450
$Comp
L CP1 C309
U 1 1 568EFCA7
P 9000 1650
F 0 "C309" H 9050 1750 50  0000 L CNN
F 1 "220u" H 9050 1550 50  0000 L CNN
F 2 "MyKiCadLibs-Footprints:CAP-TH-D6.3mmP2.5mm" H 9000 1650 60  0001 C CNN
F 3 "~" H 9000 1650 60  0000 C CNN
	1    9000 1650
	1    0    0    -1  
$EndComp
Wire Wire Line
	8350 1050 10450 1050
Wire Wire Line
	8650 2150 10450 2150
Wire Wire Line
	7700 5400 8950 5400
Wire Wire Line
	7700 5500 8850 5500
Wire Wire Line
	7700 5600 8750 5600
Text Label 6100 5600 0    60   ~ 0
DVDD
Wire Wire Line
	6500 4400 6500 5650
Wire Wire Line
	7700 5300 9850 5300
Text Label 8350 5200 2    60   ~ 0
ADC_RESET
Wire Wire Line
	8350 5200 7700 5200
$Comp
L GNDD #PWR042
U 1 1 569031AB
P 7750 5650
F 0 "#PWR042" H 7750 5400 60  0001 C CNN
F 1 "GNDD" H 7750 5500 60  0000 C CNN
F 2 "" H 7750 5650 60  0000 C CNN
F 3 "" H 7750 5650 60  0000 C CNN
	1    7750 5650
	1    0    0    -1  
$EndComp
Wire Wire Line
	7750 4400 7750 5650
Wire Wire Line
	7750 4800 7700 4800
Text Label 8350 4900 2    60   ~ 0
AVCC
Wire Wire Line
	8350 4900 7700 4900
Text Label 10450 1050 2    60   ~ 0
AVCC
Wire Wire Line
	6500 4400 6550 4400
Wire Wire Line
	7700 4400 7750 4400
Connection ~ 7750 4800
$Comp
L C C320
U 1 1 5690738A
P 5800 3750
F 0 "C320" H 5800 3850 40  0000 L CNN
F 1 "10n" H 5806 3665 40  0000 L CNN
F 2 "MyKiCadLibs-Footprints:SMD-0805" H 5838 3600 30  0001 C CNN
F 3 "~" H 5800 3750 60  0000 C CNN
	1    5800 3750
	1    0    0    -1  
$EndComp
$Comp
L GNDD #PWR043
U 1 1 5690836C
P 4850 4050
F 0 "#PWR043" H 4850 3800 60  0001 C CNN
F 1 "GNDD" H 4850 3900 60  0000 C CNN
F 2 "" H 4850 4050 60  0000 C CNN
F 3 "" H 4850 4050 60  0000 C CNN
	1    4850 4050
	1    0    0    -1  
$EndComp
Wire Wire Line
	4850 3950 4850 4050
Wire Wire Line
	4850 4000 5800 4000
Wire Wire Line
	5200 4000 5200 3950
Connection ~ 4850 4000
Wire Wire Line
	5500 4000 5500 3950
Connection ~ 5200 4000
Wire Wire Line
	5800 4000 5800 3950
Connection ~ 5500 4000
Wire Wire Line
	6550 4300 6500 4300
Wire Wire Line
	6500 4300 6500 3500
Wire Wire Line
	6500 3500 4850 3500
Wire Wire Line
	5800 3500 5800 3550
Wire Wire Line
	5500 3500 5500 3550
Connection ~ 5800 3500
Wire Wire Line
	5200 3500 5200 3550
Connection ~ 5500 3500
Wire Wire Line
	4850 3500 4850 3550
Connection ~ 5200 3500
$Comp
L CP1 C331
U 1 1 56908CFC
P 9400 3750
F 0 "C331" H 9450 3850 50  0000 L CNN
F 1 "220u" H 9450 3650 50  0000 L CNN
F 2 "MyKiCadLibs-Footprints:CAP-TH-D6.3mmP2.5mm" H 9400 3750 60  0001 C CNN
F 3 "~" H 9400 3750 60  0000 C CNN
	1    9400 3750
	1    0    0    -1  
$EndComp
$Comp
L C C326
U 1 1 56908D02
P 8750 3750
F 0 "C326" H 8750 3850 40  0000 L CNN
F 1 "100n" H 8756 3665 40  0000 L CNN
F 2 "MyKiCadLibs-Footprints:SMD-0805" H 8788 3600 30  0001 C CNN
F 3 "~" H 8750 3750 60  0000 C CNN
	1    8750 3750
	1    0    0    -1  
$EndComp
$Comp
L C C329
U 1 1 56908D08
P 9050 3750
F 0 "C329" H 9050 3850 40  0000 L CNN
F 1 "22u" H 9056 3665 40  0000 L CNN
F 2 "MyKiCadLibs-Footprints:SMD-0805" H 9088 3600 30  0001 C CNN
F 3 "~" H 9050 3750 60  0000 C CNN
	1    9050 3750
	1    0    0    -1  
$EndComp
$Comp
L C C324
U 1 1 56908D0E
P 8450 3750
F 0 "C324" H 8450 3850 40  0000 L CNN
F 1 "10n" H 8456 3665 40  0000 L CNN
F 2 "MyKiCadLibs-Footprints:SMD-0805" H 8488 3600 30  0001 C CNN
F 3 "~" H 8450 3750 60  0000 C CNN
	1    8450 3750
	1    0    0    -1  
$EndComp
$Comp
L GNDD #PWR044
U 1 1 56908D14
P 9400 4050
F 0 "#PWR044" H 9400 3800 60  0001 C CNN
F 1 "GNDD" H 9400 3900 60  0000 C CNN
F 2 "" H 9400 4050 60  0000 C CNN
F 3 "" H 9400 4050 60  0000 C CNN
	1    9400 4050
	-1   0    0    -1  
$EndComp
Wire Wire Line
	9400 3950 9400 4050
Wire Wire Line
	8450 4000 9400 4000
Wire Wire Line
	9050 4000 9050 3950
Connection ~ 9400 4000
Wire Wire Line
	8750 4000 8750 3950
Connection ~ 9050 4000
Wire Wire Line
	8450 4000 8450 3950
Connection ~ 8750 4000
Wire Wire Line
	7700 4300 7750 4300
Wire Wire Line
	7750 4300 7750 3500
Wire Wire Line
	7750 3500 9400 3500
Wire Wire Line
	8450 3500 8450 3550
Wire Wire Line
	8750 3500 8750 3550
Connection ~ 8450 3500
Wire Wire Line
	9050 3500 9050 3550
Connection ~ 8750 3500
Wire Wire Line
	9400 3500 9400 3550
Connection ~ 9050 3500
$Comp
L C C314
U 1 1 56909816
P 5050 4750
F 0 "C314" H 5050 4850 40  0000 L CNN
F 1 "100n" H 5056 4665 40  0000 L CNN
F 2 "MyKiCadLibs-Footprints:SMD-0603" H 5088 4600 30  0001 C CNN
F 3 "~" H 5050 4750 60  0000 C CNN
	1    5050 4750
	1    0    0    -1  
$EndComp
$Comp
L C C317
U 1 1 5690981C
P 5350 4750
F 0 "C317" H 5350 4850 40  0000 L CNN
F 1 "10n" H 5356 4665 40  0000 L CNN
F 2 "MyKiCadLibs-Footprints:SMD-0603" H 5388 4600 30  0001 C CNN
F 3 "~" H 5350 4750 60  0000 C CNN
	1    5350 4750
	1    0    0    -1  
$EndComp
$Comp
L GNDD #PWR045
U 1 1 56909954
P 5050 5050
F 0 "#PWR045" H 5050 4800 60  0001 C CNN
F 1 "GNDD" H 5050 4900 60  0000 C CNN
F 2 "" H 5050 5050 60  0000 C CNN
F 3 "" H 5050 5050 60  0000 C CNN
	1    5050 5050
	1    0    0    -1  
$EndComp
Wire Wire Line
	5050 4950 5050 5050
Wire Wire Line
	5050 5000 5350 5000
Wire Wire Line
	5350 5000 5350 4950
Connection ~ 5050 5000
Wire Wire Line
	4900 4500 6550 4500
Wire Wire Line
	5350 4500 5350 4550
Wire Wire Line
	5050 4500 5050 4550
Connection ~ 5350 4500
$Comp
L C C330
U 1 1 56909FA2
P 9050 4750
F 0 "C330" H 9050 4850 40  0000 L CNN
F 1 "100n" H 9056 4665 40  0000 L CNN
F 2 "MyKiCadLibs-Footprints:SMD-0603" H 9088 4600 30  0001 C CNN
F 3 "~" H 9050 4750 60  0000 C CNN
	1    9050 4750
	1    0    0    -1  
$EndComp
$Comp
L C C327
U 1 1 56909FA8
P 8750 4750
F 0 "C327" H 8750 4850 40  0000 L CNN
F 1 "10n" H 8756 4665 40  0000 L CNN
F 2 "MyKiCadLibs-Footprints:SMD-0603" H 8788 4600 30  0001 C CNN
F 3 "~" H 8750 4750 60  0000 C CNN
	1    8750 4750
	1    0    0    -1  
$EndComp
$Comp
L GNDD #PWR046
U 1 1 56909FAE
P 9050 5050
F 0 "#PWR046" H 9050 4800 60  0001 C CNN
F 1 "GNDD" H 9050 4900 60  0000 C CNN
F 2 "" H 9050 5050 60  0000 C CNN
F 3 "" H 9050 5050 60  0000 C CNN
	1    9050 5050
	-1   0    0    -1  
$EndComp
Wire Wire Line
	9050 4950 9050 5050
Wire Wire Line
	9050 5000 8750 5000
Wire Wire Line
	8750 5000 8750 4950
Connection ~ 9050 5000
Wire Wire Line
	7700 4500 9200 4500
Wire Wire Line
	8750 4500 8750 4550
Wire Wire Line
	9050 4500 9050 4550
Connection ~ 8750 4500
Text HLabel 7950 4600 2    60   Input ~ 0
VINR+
Text HLabel 7950 4700 2    60   Input ~ 0
VINR-
Text HLabel 5950 4600 0    60   Input ~ 0
VINL+
Text HLabel 5950 4700 0    60   Input ~ 0
VINL-
Wire Wire Line
	5950 4600 6550 4600
Wire Wire Line
	6550 4700 5950 4700
Wire Wire Line
	7700 4600 7950 4600
Wire Wire Line
	7950 4700 7700 4700
$Comp
L TRAN-NPN-BC847 TR301
U 1 1 5690C77E
P 13400 9100
F 0 "TR301" V 13650 9000 60  0000 C CNN
F 1 "TRAN-NPN-BC847" V 13750 9000 60  0000 C CNN
F 2 "MyKiCadLibs-Footprints:IC-SOT23" H 13400 9100 60  0001 C CNN
F 3 "" H 13400 9100 60  0000 C CNN
	1    13400 9100
	1    0    0    -1  
$EndComp
$Comp
L LED D301
U 1 1 5690C9AA
P 13600 8400
F 0 "D301" H 13600 8500 50  0000 C CNN
F 1 "LED" H 13600 8300 50  0000 C CNN
F 2 "MyKiCadLibs-Footprints:SMD-1206" H 13600 8400 60  0001 C CNN
F 3 "" H 13600 8400 60  0000 C CNN
	1    13600 8400
	0    1    1    0   
$EndComp
$Comp
L R R326
U 1 1 5690D201
P 13600 7850
F 0 "R326" V 13550 7500 40  0000 C CNN
F 1 "470R" V 13607 7851 40  0000 C CNN
F 2 "MyKiCadLibs-Footprints:SMD-0805" V 13530 7850 30  0001 C CNN
F 3 "~" H 13600 7850 30  0000 C CNN
	1    13600 7850
	-1   0    0    1   
$EndComp
Wire Wire Line
	13600 8100 13600 8200
Wire Wire Line
	13600 8600 13600 8900
$Comp
L VDD #PWR047
U 1 1 5690E681
P 13600 7350
F 0 "#PWR047" H 13600 7200 60  0001 C CNN
F 1 "VDD" H 13600 7500 60  0000 C CNN
F 2 "" H 13600 7350 60  0000 C CNN
F 3 "" H 13600 7350 60  0000 C CNN
	1    13600 7350
	1    0    0    -1  
$EndComp
Wire Wire Line
	13600 7350 13600 7600
$Comp
L GNDD #PWR048
U 1 1 5690F6BD
P 13600 9550
F 0 "#PWR048" H 13600 9300 60  0001 C CNN
F 1 "GNDD" H 13600 9400 60  0000 C CNN
F 2 "" H 13600 9550 60  0000 C CNN
F 3 "" H 13600 9550 60  0000 C CNN
	1    13600 9550
	-1   0    0    -1  
$EndComp
Wire Wire Line
	13600 9550 13600 9300
$Comp
L R R325
U 1 1 56915F76
P 12900 9100
F 0 "R325" V 13000 9200 40  0000 C CNN
F 1 "1k" V 12907 9101 40  0000 C CNN
F 2 "MyKiCadLibs-Footprints:SMD-0805" V 12830 9100 30  0001 C CNN
F 3 "~" H 12900 9100 30  0000 C CNN
	1    12900 9100
	0    -1   -1   0   
$EndComp
Wire Wire Line
	13150 9100 13400 9100
$Comp
L TRAN-NPN-BC847 TR302
U 1 1 56916E70
P 15150 9100
F 0 "TR302" V 15400 9000 60  0000 C CNN
F 1 "TRAN-NPN-BC847" V 15500 9000 60  0000 C CNN
F 2 "MyKiCadLibs-Footprints:IC-SOT23" H 15150 9100 60  0001 C CNN
F 3 "" H 15150 9100 60  0000 C CNN
	1    15150 9100
	1    0    0    -1  
$EndComp
$Comp
L LED D302
U 1 1 56916E76
P 15350 8400
F 0 "D302" H 15350 8500 50  0000 C CNN
F 1 "LED" H 15350 8300 50  0000 C CNN
F 2 "MyKiCadLibs-Footprints:SMD-1206" H 15350 8400 60  0001 C CNN
F 3 "" H 15350 8400 60  0000 C CNN
	1    15350 8400
	0    1    1    0   
$EndComp
$Comp
L R R328
U 1 1 56916E7C
P 15350 7850
F 0 "R328" V 15300 7500 40  0000 C CNN
F 1 "470R" V 15357 7851 40  0000 C CNN
F 2 "MyKiCadLibs-Footprints:SMD-0805" V 15280 7850 30  0001 C CNN
F 3 "~" H 15350 7850 30  0000 C CNN
	1    15350 7850
	-1   0    0    1   
$EndComp
Wire Wire Line
	15350 8100 15350 8200
Wire Wire Line
	15350 8600 15350 8900
$Comp
L VDD #PWR049
U 1 1 56916E84
P 15350 7350
F 0 "#PWR049" H 15350 7200 60  0001 C CNN
F 1 "VDD" H 15350 7500 60  0000 C CNN
F 2 "" H 15350 7350 60  0000 C CNN
F 3 "" H 15350 7350 60  0000 C CNN
	1    15350 7350
	1    0    0    -1  
$EndComp
Wire Wire Line
	15350 7350 15350 7600
$Comp
L GNDD #PWR050
U 1 1 56916E8B
P 15350 9550
F 0 "#PWR050" H 15350 9300 60  0001 C CNN
F 1 "GNDD" H 15350 9400 60  0000 C CNN
F 2 "" H 15350 9550 60  0000 C CNN
F 3 "" H 15350 9550 60  0000 C CNN
	1    15350 9550
	-1   0    0    -1  
$EndComp
Wire Wire Line
	15350 9550 15350 9300
$Comp
L R R327
U 1 1 56916E92
P 14650 9100
F 0 "R327" V 14750 9200 40  0000 C CNN
F 1 "1k" V 14657 9101 40  0000 C CNN
F 2 "MyKiCadLibs-Footprints:SMD-0805" V 14580 9100 30  0001 C CNN
F 3 "~" H 14650 9100 30  0000 C CNN
	1    14650 9100
	0    -1   -1   0   
$EndComp
Wire Wire Line
	14900 9100 15150 9100
Text Label 8350 5000 2    60   ~ 0
CLIPL
Text Label 8350 5100 2    60   ~ 0
CLIPR
Text Label 14050 9100 0    60   ~ 0
CLIPL
Text Label 12300 9100 0    60   ~ 0
CLIPR
Wire Wire Line
	14050 9100 14400 9100
Wire Wire Line
	12300 9100 12650 9100
Wire Wire Line
	8350 5000 7700 5000
Wire Wire Line
	7700 5100 8350 5100
$Comp
L CONN_2x1 P301
U 1 1 5691A1BA
P 1300 9950
F 0 "P301" V 1800 9900 40  0000 C CNN
F 1 "CONN_2x1" V 1750 9900 40  0000 C CNN
F 2 "MyKiCadLibs-Footprints:CONN_SIL_2" H 1300 9950 60  0001 C CNN
F 3 "" H 1300 9950 60  0000 C CNN
	1    1300 9950
	-1   0    0    -1  
$EndComp
$Comp
L VDD #PWR051
U 1 1 5691C04D
P 1350 9150
F 0 "#PWR051" H 1350 9000 60  0001 C CNN
F 1 "VDD" H 1350 9300 60  0000 C CNN
F 2 "" H 1350 9150 60  0000 C CNN
F 3 "" H 1350 9150 60  0000 C CNN
	1    1350 9150
	1    0    0    -1  
$EndComp
Connection ~ 1350 9950
Text Label 1550 9200 3    60   ~ 0
FMT0
$Comp
L GNDD #PWR052
U 1 1 5691E875
P 2250 10550
F 0 "#PWR052" H 2250 10300 60  0001 C CNN
F 1 "GNDD" H 2250 10400 60  0000 C CNN
F 2 "" H 2250 10550 60  0000 C CNN
F 3 "" H 2250 10550 60  0000 C CNN
	1    2250 10550
	1    0    0    -1  
$EndComp
$Comp
L R R303
U 1 1 5691E87B
P 2250 9500
F 0 "R303" V 2300 9800 40  0000 C CNN
F 1 "10k" V 2257 9501 40  0000 C CNN
F 2 "MyKiCadLibs-Footprints:SMD-0805" V 2180 9500 30  0001 C CNN
F 3 "~" H 2250 9500 30  0000 C CNN
	1    2250 9500
	1    0    0    -1  
$EndComp
Wire Wire Line
	2250 9150 2250 9250
Wire Wire Line
	2250 9750 2250 9950
Wire Wire Line
	2200 10050 2250 10050
Wire Wire Line
	2250 10050 2250 10550
Wire Wire Line
	2200 9950 2450 9950
Wire Wire Line
	2450 9950 2450 9200
$Comp
L CONN_2x1 P302
U 1 1 5691E887
P 2200 9950
F 0 "P302" V 2700 9900 40  0000 C CNN
F 1 "CONN_2x1" V 2650 9900 40  0000 C CNN
F 2 "MyKiCadLibs-Footprints:CONN_SIL_2" H 2200 9950 60  0001 C CNN
F 3 "" H 2200 9950 60  0000 C CNN
	1    2200 9950
	-1   0    0    -1  
$EndComp
$Comp
L VDD #PWR053
U 1 1 5691E88D
P 2250 9150
F 0 "#PWR053" H 2250 9000 60  0001 C CNN
F 1 "VDD" H 2250 9300 60  0000 C CNN
F 2 "" H 2250 9150 60  0000 C CNN
F 3 "" H 2250 9150 60  0000 C CNN
	1    2250 9150
	1    0    0    -1  
$EndComp
Connection ~ 2250 9950
Text Label 2450 9200 3    60   ~ 0
FMT1
$Comp
L GNDD #PWR054
U 1 1 5691E8FA
P 3100 10550
F 0 "#PWR054" H 3100 10300 60  0001 C CNN
F 1 "GNDD" H 3100 10400 60  0000 C CNN
F 2 "" H 3100 10550 60  0000 C CNN
F 3 "" H 3100 10550 60  0000 C CNN
	1    3100 10550
	1    0    0    -1  
$EndComp
$Comp
L R R304
U 1 1 5691E900
P 3100 9500
F 0 "R304" V 3150 9800 40  0000 C CNN
F 1 "10k" V 3107 9501 40  0000 C CNN
F 2 "MyKiCadLibs-Footprints:SMD-0805" V 3030 9500 30  0001 C CNN
F 3 "~" H 3100 9500 30  0000 C CNN
	1    3100 9500
	1    0    0    -1  
$EndComp
Wire Wire Line
	3100 9150 3100 9250
Wire Wire Line
	3100 9750 3100 9950
Wire Wire Line
	3050 10050 3100 10050
Wire Wire Line
	3100 10050 3100 10550
Wire Wire Line
	3050 9950 3300 9950
Wire Wire Line
	3300 9950 3300 9200
$Comp
L CONN_2x1 P303
U 1 1 5691E90C
P 3050 9950
F 0 "P303" V 3550 9900 40  0000 C CNN
F 1 "CONN_2x1" V 3500 9900 40  0000 C CNN
F 2 "MyKiCadLibs-Footprints:CONN_SIL_2" H 3050 9950 60  0001 C CNN
F 3 "" H 3050 9950 60  0000 C CNN
	1    3050 9950
	-1   0    0    -1  
$EndComp
$Comp
L VDD #PWR055
U 1 1 5691E912
P 3100 9150
F 0 "#PWR055" H 3100 9000 60  0001 C CNN
F 1 "VDD" H 3100 9300 60  0000 C CNN
F 2 "" H 3100 9150 60  0000 C CNN
F 3 "" H 3100 9150 60  0000 C CNN
	1    3100 9150
	1    0    0    -1  
$EndComp
Connection ~ 3100 9950
Text Label 3300 9200 3    60   ~ 0
SLAVE
$Comp
L GNDD #PWR056
U 1 1 5691EE09
P 3950 10550
F 0 "#PWR056" H 3950 10300 60  0001 C CNN
F 1 "GNDD" H 3950 10400 60  0000 C CNN
F 2 "" H 3950 10550 60  0000 C CNN
F 3 "" H 3950 10550 60  0000 C CNN
	1    3950 10550
	1    0    0    -1  
$EndComp
$Comp
L R R305
U 1 1 5691EE0F
P 3950 9500
F 0 "R305" V 4000 9800 40  0000 C CNN
F 1 "10k" V 3957 9501 40  0000 C CNN
F 2 "MyKiCadLibs-Footprints:SMD-0805" V 3880 9500 30  0001 C CNN
F 3 "~" H 3950 9500 30  0000 C CNN
	1    3950 9500
	1    0    0    -1  
$EndComp
Wire Wire Line
	3950 9150 3950 9250
Wire Wire Line
	3950 9750 3950 9950
Wire Wire Line
	3900 10050 3950 10050
Wire Wire Line
	3950 10050 3950 10550
Wire Wire Line
	3900 9950 4150 9950
Wire Wire Line
	4150 9950 4150 9200
$Comp
L CONN_2x1 P304
U 1 1 5691EE1B
P 3900 9950
F 0 "P304" V 4400 9900 40  0000 C CNN
F 1 "CONN_2x1" V 4350 9900 40  0000 C CNN
F 2 "MyKiCadLibs-Footprints:CONN_SIL_2" H 3900 9950 60  0001 C CNN
F 3 "" H 3900 9950 60  0000 C CNN
	1    3900 9950
	-1   0    0    -1  
$EndComp
$Comp
L VDD #PWR057
U 1 1 5691EE21
P 3950 9150
F 0 "#PWR057" H 3950 9000 60  0001 C CNN
F 1 "VDD" H 3950 9300 60  0000 C CNN
F 2 "" H 3950 9150 60  0000 C CNN
F 3 "" H 3950 9150 60  0000 C CNN
	1    3950 9150
	1    0    0    -1  
$EndComp
Connection ~ 3950 9950
Text Label 4150 9200 3    60   ~ 0
FS0
$Comp
L GNDD #PWR058
U 1 1 5691EE29
P 4850 10550
F 0 "#PWR058" H 4850 10300 60  0001 C CNN
F 1 "GNDD" H 4850 10400 60  0000 C CNN
F 2 "" H 4850 10550 60  0000 C CNN
F 3 "" H 4850 10550 60  0000 C CNN
	1    4850 10550
	1    0    0    -1  
$EndComp
$Comp
L R R306
U 1 1 5691EE2F
P 4850 9500
F 0 "R306" V 4900 9800 40  0000 C CNN
F 1 "10k" V 4857 9501 40  0000 C CNN
F 2 "MyKiCadLibs-Footprints:SMD-0805" V 4780 9500 30  0001 C CNN
F 3 "~" H 4850 9500 30  0000 C CNN
	1    4850 9500
	1    0    0    -1  
$EndComp
Wire Wire Line
	4850 9150 4850 9250
Wire Wire Line
	4850 9750 4850 9950
Wire Wire Line
	4800 10050 4850 10050
Wire Wire Line
	4850 10050 4850 10550
Wire Wire Line
	4800 9950 5050 9950
Wire Wire Line
	5050 9950 5050 9200
$Comp
L CONN_2x1 P305
U 1 1 5691EE3B
P 4800 9950
F 0 "P305" V 5300 9900 40  0000 C CNN
F 1 "CONN_2x1" V 5250 9900 40  0000 C CNN
F 2 "MyKiCadLibs-Footprints:CONN_SIL_2" H 4800 9950 60  0001 C CNN
F 3 "" H 4800 9950 60  0000 C CNN
	1    4800 9950
	-1   0    0    -1  
$EndComp
$Comp
L VDD #PWR059
U 1 1 5691EE41
P 4850 9150
F 0 "#PWR059" H 4850 9000 60  0001 C CNN
F 1 "VDD" H 4850 9300 60  0000 C CNN
F 2 "" H 4850 9150 60  0000 C CNN
F 3 "" H 4850 9150 60  0000 C CNN
	1    4850 9150
	1    0    0    -1  
$EndComp
Connection ~ 4850 9950
Text Label 5050 9200 3    60   ~ 0
FS1
$Comp
L GNDD #PWR060
U 1 1 5691EE49
P 5700 10550
F 0 "#PWR060" H 5700 10300 60  0001 C CNN
F 1 "GNDD" H 5700 10400 60  0000 C CNN
F 2 "" H 5700 10550 60  0000 C CNN
F 3 "" H 5700 10550 60  0000 C CNN
	1    5700 10550
	1    0    0    -1  
$EndComp
$Comp
L R R308
U 1 1 5691EE4F
P 5700 9500
F 0 "R308" V 5750 9800 40  0000 C CNN
F 1 "10k" V 5707 9501 40  0000 C CNN
F 2 "MyKiCadLibs-Footprints:SMD-0805" V 5630 9500 30  0001 C CNN
F 3 "~" H 5700 9500 30  0000 C CNN
	1    5700 9500
	1    0    0    -1  
$EndComp
Wire Wire Line
	5700 9150 5700 9250
Wire Wire Line
	5700 9750 5700 9950
Wire Wire Line
	5650 10050 5700 10050
Wire Wire Line
	5700 10050 5700 10550
Wire Wire Line
	5650 9950 5900 9950
Wire Wire Line
	5900 9950 5900 9200
$Comp
L CONN_2x1 P306
U 1 1 5691EE5B
P 5650 9950
F 0 "P306" V 6150 9900 40  0000 C CNN
F 1 "CONN_2x1" V 6100 9900 40  0000 C CNN
F 2 "MyKiCadLibs-Footprints:CONN_SIL_2" H 5650 9950 60  0001 C CNN
F 3 "" H 5650 9950 60  0000 C CNN
	1    5650 9950
	-1   0    0    -1  
$EndComp
$Comp
L VDD #PWR061
U 1 1 5691EE61
P 5700 9150
F 0 "#PWR061" H 5700 9000 60  0001 C CNN
F 1 "VDD" H 5700 9300 60  0000 C CNN
F 2 "" H 5700 9150 60  0000 C CNN
F 3 "" H 5700 9150 60  0000 C CNN
	1    5700 9150
	1    0    0    -1  
$EndComp
Connection ~ 5700 9950
Text Label 5900 9200 3    60   ~ 0
FS2
$Comp
L GNDD #PWR062
U 1 1 5691F143
P 6550 10550
F 0 "#PWR062" H 6550 10300 60  0001 C CNN
F 1 "GNDD" H 6550 10400 60  0000 C CNN
F 2 "" H 6550 10550 60  0000 C CNN
F 3 "" H 6550 10550 60  0000 C CNN
	1    6550 10550
	1    0    0    -1  
$EndComp
$Comp
L R R309
U 1 1 5691F149
P 6550 9500
F 0 "R309" V 6600 9800 40  0000 C CNN
F 1 "10k" V 6557 9501 40  0000 C CNN
F 2 "MyKiCadLibs-Footprints:SMD-0805" V 6480 9500 30  0001 C CNN
F 3 "~" H 6550 9500 30  0000 C CNN
	1    6550 9500
	1    0    0    -1  
$EndComp
Wire Wire Line
	6550 9150 6550 9250
Wire Wire Line
	6550 9750 6550 9950
Wire Wire Line
	6500 10050 6550 10050
Wire Wire Line
	6550 10050 6550 10550
Wire Wire Line
	6500 9950 6750 9950
Wire Wire Line
	6750 9950 6750 9200
$Comp
L CONN_2x1 P307
U 1 1 5691F155
P 6500 9950
F 0 "P307" V 7000 9900 40  0000 C CNN
F 1 "CONN_2x1" V 6950 9900 40  0000 C CNN
F 2 "MyKiCadLibs-Footprints:CONN_SIL_2" H 6500 9950 60  0001 C CNN
F 3 "" H 6500 9950 60  0000 C CNN
	1    6500 9950
	-1   0    0    -1  
$EndComp
$Comp
L VDD #PWR063
U 1 1 5691F15B
P 6550 9150
F 0 "#PWR063" H 6550 9000 60  0001 C CNN
F 1 "VDD" H 6550 9300 60  0000 C CNN
F 2 "" H 6550 9150 60  0000 C CNN
F 3 "" H 6550 9150 60  0000 C CNN
	1    6550 9150
	1    0    0    -1  
$EndComp
Connection ~ 6550 9950
Text Label 6750 9200 3    60   ~ 0
HPFD
Text Label 6100 5000 0    60   ~ 0
SLAVE
Text Label 6100 4900 0    60   ~ 0
FMT1
Text Label 6100 4800 0    60   ~ 0
FMT0
Text Label 6100 5100 0    60   ~ 0
FS0
Text Label 6100 5200 0    60   ~ 0
FS1
Text Label 6100 5300 0    60   ~ 0
FS2
Wire Wire Line
	6100 4800 6550 4800
Wire Wire Line
	6550 4900 6100 4900
Wire Wire Line
	6100 5000 6550 5000
Wire Wire Line
	6550 5100 6100 5100
Wire Wire Line
	6100 5200 6550 5200
Wire Wire Line
	6550 5300 6100 5300
Wire Wire Line
	6550 5400 6100 5400
Text Label 6100 5400 0    60   ~ 0
HPFD
$Comp
L R R320
U 1 1 5692EC1D
P 11250 6200
F 0 "R320" V 11300 6500 40  0000 C CNN
F 1 "N/F" V 11257 6201 40  0000 C CNN
F 2 "MyKiCadLibs-Footprints:SMD-0805" V 11180 6200 30  0001 C CNN
F 3 "~" H 11250 6200 30  0000 C CNN
	1    11250 6200
	1    0    0    1   
$EndComp
$Comp
L R R319
U 1 1 5692EC24
P 11100 6200
F 0 "R319" V 11150 6500 40  0000 C CNN
F 1 "N/F" V 11107 6201 40  0000 C CNN
F 2 "MyKiCadLibs-Footprints:SMD-0805" V 11030 6200 30  0001 C CNN
F 3 "~" H 11100 6200 30  0000 C CNN
	1    11100 6200
	1    0    0    1   
$EndComp
$Comp
L R R318
U 1 1 5692EC2B
P 10950 6200
F 0 "R318" V 11000 6500 40  0000 C CNN
F 1 "N/F" V 10957 6201 40  0000 C CNN
F 2 "MyKiCadLibs-Footprints:SMD-0805" V 10880 6200 30  0001 C CNN
F 3 "~" H 10950 6200 30  0000 C CNN
	1    10950 6200
	1    0    0    1   
$EndComp
$Comp
L R R322
U 1 1 5692EC32
P 10100 5500
F 0 "R322" V 10150 5800 40  0000 C CNN
F 1 "0R" V 10107 5501 40  0000 C CNN
F 2 "MyKiCadLibs-Footprints:SMD-0805" V 10030 5500 30  0001 C CNN
F 3 "~" H 10100 5500 30  0000 C CNN
	1    10100 5500
	0    1    -1   0   
$EndComp
$Comp
L R R323
U 1 1 5692EC39
P 10100 5700
F 0 "R323" V 10150 6000 40  0000 C CNN
F 1 "0R" V 10107 5701 40  0000 C CNN
F 2 "MyKiCadLibs-Footprints:SMD-0805" V 10030 5700 30  0001 C CNN
F 3 "~" H 10100 5700 30  0000 C CNN
	1    10100 5700
	0    1    -1   0   
$EndComp
$Comp
L R R324
U 1 1 5692EC40
P 10100 5900
F 0 "R324" V 10150 6200 40  0000 C CNN
F 1 "0R" V 10107 5901 40  0000 C CNN
F 2 "MyKiCadLibs-Footprints:SMD-0805" V 10030 5900 30  0001 C CNN
F 3 "~" H 10100 5900 30  0000 C CNN
	1    10100 5900
	0    1    -1   0   
$EndComp
$Comp
L GNDD #PWR064
U 1 1 5692EC47
P 11250 6700
F 0 "#PWR064" H 11250 6450 60  0001 C CNN
F 1 "GNDD" H 11250 6550 60  0000 C CNN
F 2 "" H 11250 6700 60  0000 C CNN
F 3 "" H 11250 6700 60  0000 C CNN
	1    11250 6700
	-1   0    0    -1  
$EndComp
$Comp
L CONN_02X05 P309
U 1 1 5692EC4D
P 11750 5700
F 0 "P309" H 11750 6000 50  0000 C CNN
F 1 "CONN_02X05" H 11750 5400 50  0000 C CNN
F 2 "MyKiCadLibs-Footprints:CONN_DIL_2X5_BOX" H 11750 4500 60  0001 C CNN
F 3 "" H 11750 4500 60  0000 C CNN
	1    11750 5700
	-1   0    0    -1  
$EndComp
$Comp
L GNDD #PWR065
U 1 1 5692EC54
P 11450 5950
F 0 "#PWR065" H 11450 5700 60  0001 C CNN
F 1 "GNDD" H 11450 5800 60  0000 C CNN
F 2 "" H 11450 5950 60  0000 C CNN
F 3 "" H 11450 5950 60  0000 C CNN
	1    11450 5950
	1    0    0    -1  
$EndComp
$Comp
L GNDD #PWR066
U 1 1 5692EC5A
P 12050 5950
F 0 "#PWR066" H 12050 5700 60  0001 C CNN
F 1 "GNDD" H 12050 5800 60  0000 C CNN
F 2 "" H 12050 5950 60  0000 C CNN
F 3 "" H 12050 5950 60  0000 C CNN
	1    12050 5950
	1    0    0    -1  
$EndComp
$Comp
L R R321
U 1 1 5692EC60
P 10100 5300
F 0 "R321" V 10150 5600 40  0000 C CNN
F 1 "0R" V 10107 5301 40  0000 C CNN
F 2 "MyKiCadLibs-Footprints:SMD-0805" V 10030 5300 30  0001 C CNN
F 3 "~" H 10100 5300 30  0000 C CNN
	1    10100 5300
	0    1    -1   0   
$EndComp
$Comp
L R R317
U 1 1 5692EC6B
P 10800 6200
F 0 "R317" V 10850 6500 40  0000 C CNN
F 1 "N/F" V 10807 6201 40  0000 C CNN
F 2 "MyKiCadLibs-Footprints:SMD-0805" V 10730 6200 30  0001 C CNN
F 3 "~" H 10800 6200 30  0000 C CNN
	1    10800 6200
	1    0    0    1   
$EndComp
Wire Wire Line
	10950 5500 10950 5950
Wire Wire Line
	11500 5500 11300 5500
Wire Wire Line
	11450 5900 11500 5900
Wire Wire Line
	11250 5900 10350 5900
Wire Wire Line
	11250 5800 11250 5950
Wire Wire Line
	11500 5800 11250 5800
Wire Wire Line
	10350 5700 11500 5700
Wire Wire Line
	10350 5500 11250 5500
Wire Wire Line
	11250 5500 11250 5600
Wire Wire Line
	11250 5600 11500 5600
Wire Wire Line
	11100 5950 11100 5700
Wire Wire Line
	11250 6450 11250 6700
Connection ~ 11100 6600
Wire Wire Line
	10950 6600 10950 6450
Connection ~ 11250 6600
Wire Wire Line
	10800 6600 11250 6600
Wire Wire Line
	11100 6450 11100 6600
Wire Wire Line
	12050 5500 12050 5950
Wire Wire Line
	12050 5900 12000 5900
Wire Wire Line
	12050 5800 12000 5800
Connection ~ 12050 5900
Wire Wire Line
	12050 5700 12000 5700
Connection ~ 12050 5800
Wire Wire Line
	12050 5600 12000 5600
Connection ~ 12050 5700
Wire Wire Line
	12050 5500 12000 5500
Connection ~ 12050 5600
Wire Wire Line
	11300 5500 11300 5300
Wire Wire Line
	11300 5300 10350 5300
Wire Wire Line
	11450 5900 11450 5950
Wire Wire Line
	10800 6600 10800 6450
Connection ~ 10950 6600
Wire Wire Line
	10800 5300 10800 5950
Wire Wire Line
	8750 5900 9850 5900
Wire Wire Line
	8850 5700 9850 5700
Wire Wire Line
	8950 5500 9850 5500
Wire Wire Line
	8750 5600 8750 5900
Wire Wire Line
	8850 5500 8850 5700
Wire Wire Line
	8950 5400 8950 5500
Text HLabel 4900 4500 0    60   Output ~ 0
VCOML
Connection ~ 5050 4500
Text HLabel 9200 4500 2    60   Output ~ 0
VCOMR
Connection ~ 9050 4500
Wire Wire Line
	10850 10150 10450 10150
$Comp
L CONN_3x1 P310
U 1 1 5692B9F5
P 10800 4250
F 0 "P310" V 11285 4045 40  0000 C CNN
F 1 "CONN_3x1" V 11230 4160 40  0000 C CNN
F 2 "MyKiCadLibs-Footprints:CONN_SIL_3" H 11140 4140 60  0001 C CNN
F 3 "" H 11140 4140 60  0000 C CNN
	1    10800 4250
	1    0    0    -1  
$EndComp
$Comp
L GNDD #PWR067
U 1 1 5692BC4E
P 10750 4600
F 0 "#PWR067" H 10750 4350 60  0001 C CNN
F 1 "GNDD" H 10750 4450 60  0000 C CNN
F 2 "" H 10750 4600 60  0000 C CNN
F 3 "" H 10750 4600 60  0000 C CNN
	1    10750 4600
	1    0    0    -1  
$EndComp
Wire Wire Line
	10750 4250 10750 4600
Wire Wire Line
	10750 4450 10800 4450
Wire Wire Line
	10800 4250 10750 4250
Connection ~ 10750 4450
$Comp
L R R329
U 1 1 5692C02C
P 10100 4350
F 0 "R329" V 10150 4650 40  0000 C CNN
F 1 "0R" V 10107 4351 40  0000 C CNN
F 2 "MyKiCadLibs-Footprints:SMD-0805" V 10030 4350 30  0001 C CNN
F 3 "~" H 10100 4350 30  0000 C CNN
	1    10100 4350
	0    1    -1   0   
$EndComp
Wire Wire Line
	10350 4350 10800 4350
Wire Wire Line
	9850 4350 9750 4350
Wire Wire Line
	9750 4350 9750 5300
Connection ~ 9750 5300
Connection ~ 11250 5900
Connection ~ 11100 5700
Connection ~ 10950 5500
Connection ~ 10800 5300
$Comp
L R R310
U 1 1 56996EED
P 10500 4650
F 0 "R310" V 10550 4950 40  0000 C CNN
F 1 "N/F" V 10507 4651 40  0000 C CNN
F 2 "MyKiCadLibs-Footprints:SMD-0805" V 10430 4650 30  0001 C CNN
F 3 "~" H 10500 4650 30  0000 C CNN
	1    10500 4650
	1    0    0    1   
$EndComp
Wire Wire Line
	10500 4400 10500 4350
Connection ~ 10500 4350
$Comp
L GNDD #PWR068
U 1 1 5699726B
P 10500 5000
F 0 "#PWR068" H 10500 4750 60  0001 C CNN
F 1 "GNDD" H 10500 4850 60  0000 C CNN
F 2 "" H 10500 5000 60  0000 C CNN
F 3 "" H 10500 5000 60  0000 C CNN
	1    10500 5000
	1    0    0    -1  
$EndComp
Wire Wire Line
	10500 5000 10500 4900
Text Notes 800  850  0    118  ~ 0
PCM4202 ADC
Text Notes 11000 10250 0    60   ~ 0
External reset
Text Notes 10750 4100 0    60   ~ 0
External MCLK
Text Notes 11500 5300 0    60   ~ 0
I2S Output
Text Notes 12300 7000 0    118  ~ 0
Left/Right Clipping Indicators
Text Notes 850  8850 0    60   ~ 0
Refer to datasheet for information on configuration
Text Notes 850  8700 0    118  ~ 0
Configuration Pins
$Comp
L IC-ADC-PCM4202 U301
U 1 1 568EAFAD
P 6550 4300
F 0 "U301" H 6750 4550 60  0000 C CNN
F 1 "IC-ADC-PCM4202" H 7100 4450 60  0000 C CNN
F 2 "MyKiCadLibs-Footprints:IC-SSOP28" H 6550 4300 60  0001 C CNN
F 3 "" H 6550 4300 60  0000 C CNN
	1    6550 4300
	1    0    0    -1  
$EndComp
Wire Wire Line
	6100 5600 6550 5600
Wire Wire Line
	6550 5500 6500 5500
Connection ~ 6500 5500
$EndSCHEMATC
