EESchema Schematic File Version 2
LIBS:power
LIBS:MyKiCadLibs-Lib
LIBS:ADC-PCM4202-cache
EELAYER 25 0
EELAYER END
$Descr A4 11693 8268
encoding utf-8
Sheet 2 4
Title "OHDSP - ADC-PCM4202"
Date "22 Jan 16"
Rev "1.0"
Comp ""
Comment1 "MERCHANTABILITY, SATISFACTORY QUALITY AND FITNESS FOR A PARTICULAR PURPOSE."
Comment2 "is distributed WITHOUT ANY EXPRESS OR IMPLIED WARRANTY, INCLUDING OF"
Comment3 "Licensed under the TAPR Open Hardware License (www.tapr.org/OHL). This documentation"
Comment4 "Copyright Paul Janicki 2016"
$EndDescr
$Comp
L CONN_2x1 P203
U 1 1 562E6C0C
P 1500 2250
F 0 "P203" V 1995 2095 40  0000 C CNN
F 1 "CONN_2x1" V 1940 2210 40  0000 C CNN
F 2 "MyKiCadLibs-Footprints:CONN-2WAY-2.54mm-3.81mm-SPACING" H 1840 2140 60  0001 C CNN
F 3 "" H 1840 2140 60  0000 C CNN
	1    1500 2250
	-1   0    0    -1  
$EndComp
$Comp
L GNDA #PWR01
U 1 1 562E6E50
P 5350 2650
F 0 "#PWR01" H 5350 2400 50  0001 C CNN
F 1 "GNDA" H 5350 2500 50  0000 C CNN
F 2 "" H 5350 2650 60  0000 C CNN
F 3 "" H 5350 2650 60  0000 C CNN
	1    5350 2650
	1    0    0    -1  
$EndComp
$Comp
L GNDD #PWR02
U 1 1 562E6E68
P 5600 2650
F 0 "#PWR02" H 5600 2400 50  0001 C CNN
F 1 "GNDD" H 5600 2500 50  0000 C CNN
F 2 "" H 5600 2650 60  0000 C CNN
F 3 "" H 5600 2650 60  0000 C CNN
	1    5600 2650
	1    0    0    -1  
$EndComp
$Comp
L PWR_FLAG #FLG03
U 1 1 562E6E80
P 5400 1200
F 0 "#FLG03" H 5400 1295 50  0001 C CNN
F 1 "PWR_FLAG" H 5400 1380 50  0000 C CNN
F 2 "" H 5400 1200 60  0000 C CNN
F 3 "" H 5400 1200 60  0000 C CNN
	1    5400 1200
	1    0    0    -1  
$EndComp
$Comp
L PWR_FLAG #FLG04
U 1 1 562E6EA9
P 5900 2650
F 0 "#FLG04" H 5900 2745 50  0001 C CNN
F 1 "PWR_FLAG" H 5900 2830 50  0000 C CNN
F 2 "" H 5900 2650 60  0000 C CNN
F 3 "" H 5900 2650 60  0000 C CNN
	1    5900 2650
	-1   0    0    1   
$EndComp
$Comp
L INDUCTOR L202
U 1 1 562E788F
P 3550 1300
F 0 "L202" V 3500 1300 40  0000 C CNN
F 1 "600R@100MHz" V 3650 1300 40  0000 C CNN
F 2 "MyKiCadLibs-Footprints:SMD-0805" H 3550 1300 60  0001 C CNN
F 3 "" H 3550 1300 60  0000 C CNN
	1    3550 1300
	0    -1   -1   0   
$EndComp
$Comp
L R R202
U 1 1 562E8A2F
P 3900 2200
F 0 "R202" V 3820 2200 40  0000 C CNN
F 1 "47R" V 3907 2201 40  0000 C CNN
F 2 "MyKiCadLibs-Footprints:SMD-0805" V 3830 2200 30  0001 C CNN
F 3 "" H 3900 2200 30  0000 C CNN
	1    3900 2200
	1    0    0    -1  
$EndComp
$Comp
L C C212
U 1 1 562E8A35
P 3900 1650
F 0 "C212" H 3900 1750 40  0000 L CNN
F 1 "100p" H 3906 1565 40  0000 L CNN
F 2 "MyKiCadLibs-Footprints:SMD-0805" H 3938 1500 30  0001 C CNN
F 3 "" H 3900 1650 60  0000 C CNN
	1    3900 1650
	-1   0    0    -1  
$EndComp
$Comp
L C C205
U 1 1 562E9365
P 2900 1900
F 0 "C205" H 2900 2000 40  0000 L CNN
F 1 "100n" H 2906 1815 40  0000 L CNN
F 2 "MyKiCadLibs-Footprints:SMD-0805" H 2938 1750 30  0001 C CNN
F 3 "" H 2900 1900 60  0000 C CNN
	1    2900 1900
	1    0    0    -1  
$EndComp
$Comp
L C C208
U 1 1 562E958D
P 3150 1900
F 0 "C208" H 3150 2000 40  0000 L CNN
F 1 "10n" H 3156 1815 40  0000 L CNN
F 2 "MyKiCadLibs-Footprints:SMD-0805" H 3188 1750 30  0001 C CNN
F 3 "" H 3150 1900 60  0000 C CNN
	1    3150 1900
	1    0    0    -1  
$EndComp
$Comp
L C C220
U 1 1 562E9901
P 4800 1900
F 0 "C220" H 4800 2000 40  0000 L CNN
F 1 "100n" H 4806 1815 40  0000 L CNN
F 2 "MyKiCadLibs-Footprints:SMD-0805" H 4838 1750 30  0001 C CNN
F 3 "" H 4800 1900 60  0000 C CNN
	1    4800 1900
	1    0    0    -1  
$EndComp
$Comp
L C C216
U 1 1 562EA8EC
P 4350 5500
F 0 "C216" H 4350 5600 40  0000 L CNN
F 1 "10n" H 4356 5415 40  0000 L CNN
F 2 "MyKiCadLibs-Footprints:SMD-0805" H 4388 5350 30  0001 C CNN
F 3 "" H 4350 5500 60  0000 C CNN
	1    4350 5500
	1    0    0    -1  
$EndComp
$Comp
L C C214
U 1 1 562EA8F2
P 4100 5500
F 0 "C214" H 4100 5600 40  0000 L CNN
F 1 "100n" H 4106 5415 40  0000 L CNN
F 2 "MyKiCadLibs-Footprints:SMD-0805" H 4138 5350 30  0001 C CNN
F 3 "" H 4100 5500 60  0000 C CNN
	1    4100 5500
	1    0    0    -1  
$EndComp
$Comp
L C C211
U 1 1 562EB299
P 3850 5500
F 0 "C211" H 3850 5600 40  0000 L CNN
F 1 "22u" H 3856 5415 40  0000 L CNN
F 2 "MyKiCadLibs-Footprints:SMD-0805" H 3888 5350 30  0001 C CNN
F 3 "" H 3850 5500 60  0000 C CNN
	1    3850 5500
	1    0    0    -1  
$EndComp
$Comp
L C C230
U 1 1 562EB72B
P 7700 5500
F 0 "C230" H 7700 5600 40  0000 L CNN
F 1 "10n" H 7706 5415 40  0000 L CNN
F 2 "MyKiCadLibs-Footprints:SMD-0805" H 7738 5350 30  0001 C CNN
F 3 "" H 7700 5500 60  0000 C CNN
	1    7700 5500
	1    0    0    -1  
$EndComp
$Comp
L C C229
U 1 1 562EB731
P 7450 5500
F 0 "C229" H 7450 5600 40  0000 L CNN
F 1 "100n" H 7456 5415 40  0000 L CNN
F 2 "MyKiCadLibs-Footprints:SMD-0805" H 7488 5350 30  0001 C CNN
F 3 "" H 7450 5500 60  0000 C CNN
	1    7450 5500
	1    0    0    -1  
$EndComp
$Comp
L C C228
U 1 1 562EB73D
P 7200 5500
F 0 "C228" H 7200 5600 40  0000 L CNN
F 1 "22u" H 7206 5415 40  0000 L CNN
F 2 "MyKiCadLibs-Footprints:SMD-0805" H 7238 5350 30  0001 C CNN
F 3 "" H 7200 5500 60  0000 C CNN
	1    7200 5500
	1    0    0    -1  
$EndComp
$Comp
L CP1 C210
U 1 1 562F2436
P 3150 5500
F 0 "C210" H 3200 5600 50  0000 L CNN
F 1 "220u" H 3200 5400 50  0000 L CNN
F 2 "MyKiCadLibs-Footprints:CAP-TH-D8mmP3.5mm" H 3150 5500 60  0001 C CNN
F 3 "" H 3150 5500 60  0000 C CNN
	1    3150 5500
	1    0    0    -1  
$EndComp
$Comp
L CONN_2x1 P205
U 1 1 56346FF5
P 1550 5550
F 0 "P205" V 2045 5395 40  0000 C CNN
F 1 "CONN_2x1" V 1990 5510 40  0000 C CNN
F 2 "MyKiCadLibs-Footprints:CONN-2WAY-2.54mm-3.81mm-SPACING" H 1890 5440 60  0001 C CNN
F 3 "" H 1890 5440 60  0000 C CNN
	1    1550 5550
	-1   0    0    -1  
$EndComp
$Comp
L GNDD #PWR05
U 1 1 56347330
P 1600 5700
F 0 "#PWR05" H 1600 5450 50  0001 C CNN
F 1 "GNDD" H 1600 5550 50  0000 C CNN
F 2 "" H 1600 5700 60  0000 C CNN
F 3 "" H 1600 5700 60  0000 C CNN
	1    1600 5700
	1    0    0    -1  
$EndComp
$Comp
L DIODE D201
U 1 1 56347BBA
P 1850 5100
F 0 "D201" H 1850 5200 40  0000 C CNN
F 1 "SS14" H 1850 5000 40  0000 C CNN
F 2 "MyKiCadLibs-Footprints:DIODE-SOD-123" H 1850 5100 60  0001 C CNN
F 3 "" H 1850 5100 60  0000 C CNN
	1    1850 5100
	1    0    0    -1  
$EndComp
$Comp
L IC-REG-POS-TPS7A45xx U202
U 1 1 56326273
P 6500 1300
F 0 "U202" H 6750 1550 60  0000 C CNN
F 1 "TPS7A4501" H 7000 1450 60  0000 C CNN
F 2 "MyKiCadLibs-Footprints:IC-SOT223-6" H 6500 1300 60  0001 C CNN
F 3 "" H 6500 1300 60  0000 C CNN
	1    6500 1300
	1    0    0    -1  
$EndComp
$Comp
L INDUCTOR L201
U 1 1 5632A441
P 2550 5100
F 0 "L201" V 2500 5100 40  0000 C CNN
F 1 "600R@100MHz" V 2650 5100 40  0000 C CNN
F 2 "MyKiCadLibs-Footprints:SMD-0805" H 2550 5100 60  0001 C CNN
F 3 "" H 2550 5100 60  0000 C CNN
	1    2550 5100
	0    -1   -1   0   
$EndComp
$Comp
L R R201
U 1 1 5632B412
P 2900 6050
F 0 "R201" V 2820 6050 40  0000 C CNN
F 1 "47R" V 2907 6051 40  0000 C CNN
F 2 "MyKiCadLibs-Footprints:SMD-0805" V 2830 6050 30  0001 C CNN
F 3 "" H 2900 6050 30  0000 C CNN
	1    2900 6050
	1    0    0    -1  
$EndComp
$Comp
L C C207
U 1 1 5632B418
P 2900 5500
F 0 "C207" H 2900 5600 40  0000 L CNN
F 1 "100p" H 2906 5415 40  0000 L CNN
F 2 "MyKiCadLibs-Footprints:SMD-0805" H 2938 5350 30  0001 C CNN
F 3 "" H 2900 5500 60  0000 C CNN
	1    2900 5500
	-1   0    0    -1  
$EndComp
$Comp
L GNDD #PWR06
U 1 1 5632B5BB
P 2900 6400
F 0 "#PWR06" H 2900 6150 50  0001 C CNN
F 1 "GNDD" H 2900 6250 50  0000 C CNN
F 2 "" H 2900 6400 60  0000 C CNN
F 3 "" H 2900 6400 60  0000 C CNN
	1    2900 6400
	1    0    0    -1  
$EndComp
$Comp
L C C234
U 1 1 563304DC
P 9400 1850
F 0 "C234" H 9400 1950 40  0000 L CNN
F 1 "10n" H 9406 1765 40  0000 L CNN
F 2 "MyKiCadLibs-Footprints:SMD-0805" H 9438 1700 30  0001 C CNN
F 3 "" H 9400 1850 60  0000 C CNN
	1    9400 1850
	1    0    0    -1  
$EndComp
$Comp
L C C233
U 1 1 563304E2
P 9150 1850
F 0 "C233" H 9150 1950 40  0000 L CNN
F 1 "100n" H 9156 1765 40  0000 L CNN
F 2 "MyKiCadLibs-Footprints:SMD-0805" H 9188 1700 30  0001 C CNN
F 3 "" H 9150 1850 60  0000 C CNN
	1    9150 1850
	1    0    0    -1  
$EndComp
$Comp
L CP1 C231
U 1 1 563304E8
P 8600 1850
F 0 "C231" H 8650 1950 50  0000 L CNN
F 1 "220u" H 8650 1750 50  0000 L CNN
F 2 "MyKiCadLibs-Footprints:CAP-TH-D6.3mmP2.5mm" H 8600 1850 60  0001 C CNN
F 3 "" H 8600 1850 60  0000 C CNN
	1    8600 1850
	1    0    0    -1  
$EndComp
$Comp
L C C232
U 1 1 563304EE
P 8900 1850
F 0 "C232" H 8900 1950 40  0000 L CNN
F 1 "22u" H 8906 1765 40  0000 L CNN
F 2 "MyKiCadLibs-Footprints:SMD-0805" H 8938 1700 30  0001 C CNN
F 3 "" H 8900 1850 60  0000 C CNN
	1    8900 1850
	1    0    0    -1  
$EndComp
$Comp
L R R208
U 1 1 563304FA
P 8150 1500
F 0 "R208" V 8070 1500 40  0000 C CNN
F 1 "6k8" V 8157 1501 40  0000 C CNN
F 2 "MyKiCadLibs-Footprints:SMD-0805" V 8080 1500 30  0001 C CNN
F 3 "" H 8150 1500 30  0000 C CNN
	1    8150 1500
	0    1    1    0   
$EndComp
$Comp
L R R206
U 1 1 56330517
P 7650 2050
F 0 "R206" V 7570 2050 40  0000 C CNN
F 1 "2k2" V 7657 2051 40  0000 C CNN
F 2 "MyKiCadLibs-Footprints:SMD-0805" V 7580 2050 30  0001 C CNN
F 3 "" H 7650 2050 30  0000 C CNN
	1    7650 2050
	1    0    0    -1  
$EndComp
$Comp
L VAA #PWR07
U 1 1 5638FBCF
P 9700 1250
F 0 "#PWR07" H 9700 1100 50  0001 C CNN
F 1 "VAA" H 9700 1400 50  0000 C CNN
F 2 "" H 9700 1250 60  0000 C CNN
F 3 "" H 9700 1250 60  0000 C CNN
	1    9700 1250
	1    0    0    -1  
$EndComp
$Comp
L DIODE D202
U 1 1 563ACD52
P 2000 1300
F 0 "D202" H 2000 1400 40  0000 C CNN
F 1 "SS14" H 2000 1200 40  0000 C CNN
F 2 "MyKiCadLibs-Footprints:DIODE-SOD-123" H 2000 1300 60  0001 C CNN
F 3 "" H 2000 1300 60  0000 C CNN
	1    2000 1300
	1    0    0    -1  
$EndComp
$Comp
L C C222
U 1 1 565D3488
P 5050 1900
F 0 "C222" H 5050 2000 40  0000 L CNN
F 1 "10n" H 5056 1815 40  0000 L CNN
F 2 "MyKiCadLibs-Footprints:SMD-0805" H 5088 1750 30  0001 C CNN
F 3 "" H 5050 1900 60  0000 C CNN
	1    5050 1900
	1    0    0    -1  
$EndComp
Connection ~ 4800 2550
Wire Wire Line
	4800 2550 4800 2100
Connection ~ 4250 2550
Wire Wire Line
	4250 2550 4250 2100
Connection ~ 4250 1300
Wire Wire Line
	4800 1300 4800 1700
Wire Wire Line
	4250 1300 4250 1700
Wire Wire Line
	2200 1300 3250 1300
Wire Wire Line
	5400 1300 5400 1200
Wire Wire Line
	1700 2250 1700 1300
Wire Wire Line
	1500 2250 1700 2250
Connection ~ 5600 2550
Wire Wire Line
	5900 2550 5900 2650
Connection ~ 5350 2550
Wire Wire Line
	5600 2550 5600 2650
Wire Wire Line
	5350 2550 5350 2650
Wire Wire Line
	1700 2350 1700 2550
Wire Wire Line
	1500 2350 1700 2350
Wire Wire Line
	3900 2550 3900 2450
Wire Wire Line
	3900 1850 3900 1950
Wire Wire Line
	3900 1450 3900 1300
Connection ~ 3900 1300
Connection ~ 3900 2550
Connection ~ 4800 1300
Wire Wire Line
	2900 2550 2900 2100
Wire Wire Line
	2300 2550 2300 2100
Wire Wire Line
	2900 1300 2900 1700
Wire Wire Line
	2300 1300 2300 1700
Wire Wire Line
	3150 2550 3150 2100
Wire Wire Line
	3150 1300 3150 1700
Connection ~ 2300 2550
Connection ~ 2900 2550
Connection ~ 3150 2550
Connection ~ 2300 1300
Connection ~ 2900 1300
Connection ~ 3150 1300
Wire Wire Line
	2850 5100 4850 5100
Wire Wire Line
	4350 5100 4350 5300
Wire Wire Line
	4100 5300 4100 5100
Connection ~ 4350 5100
Connection ~ 4100 5100
Wire Wire Line
	4100 5850 4100 5700
Wire Wire Line
	4350 5850 4350 5700
Connection ~ 4100 5850
Connection ~ 4350 5850
Wire Wire Line
	3850 5300 3850 5100
Wire Wire Line
	3850 5700 3850 5900
Wire Wire Line
	5800 5100 7700 5100
Wire Wire Line
	7200 5100 7200 5300
Wire Wire Line
	7450 5100 7450 5300
Connection ~ 7200 5100
Wire Wire Line
	7700 5050 7700 5300
Connection ~ 7450 5100
Wire Wire Line
	7200 5850 7200 5700
Wire Wire Line
	7450 5850 7450 5700
Connection ~ 7200 5850
Wire Wire Line
	7700 5850 7700 5700
Connection ~ 7450 5850
Connection ~ 7700 5100
Wire Wire Line
	1600 5700 1600 5650
Wire Wire Line
	1600 5650 1550 5650
Wire Wire Line
	1600 5550 1550 5550
Wire Wire Line
	1600 5100 1600 5550
Wire Wire Line
	1650 5100 1600 5100
Wire Wire Line
	6500 1500 6400 1500
Wire Wire Line
	6400 1300 6400 1500
Connection ~ 6400 1300
Wire Wire Line
	7050 2550 7050 1850
Wire Wire Line
	2900 6300 2900 6400
Wire Wire Line
	2900 5700 2900 5800
Wire Wire Line
	2900 5100 2900 5300
Connection ~ 2900 5100
Wire Wire Line
	2250 5100 2050 5100
Wire Wire Line
	7550 1300 9700 1300
Wire Wire Line
	8600 1300 8600 1650
Wire Wire Line
	8900 1300 8900 1650
Connection ~ 8600 1300
Wire Wire Line
	9150 1300 9150 1650
Connection ~ 8900 1300
Wire Wire Line
	9700 1250 9700 1650
Connection ~ 9150 1300
Connection ~ 9700 1300
Wire Wire Line
	7550 1500 7900 1500
Connection ~ 7650 1500
Wire Wire Line
	8400 1500 8600 1500
Wire Wire Line
	1700 2550 9700 2550
Wire Wire Line
	1700 1300 1800 1300
Connection ~ 3850 5100
Connection ~ 3850 5850
Wire Wire Line
	5050 1300 5050 1700
Connection ~ 5050 1300
Wire Wire Line
	5050 2100 5050 2550
Connection ~ 5050 2550
Connection ~ 5400 1300
Connection ~ 5900 2550
Wire Wire Line
	7650 1500 7650 1500
Wire Wire Line
	7650 1500 7650 1800
Wire Wire Line
	7650 2550 7650 2300
Connection ~ 7050 2550
Wire Wire Line
	8600 2550 8600 2050
Connection ~ 7650 2550
Wire Wire Line
	8900 2550 8900 2050
Connection ~ 8600 2550
Wire Wire Line
	9150 2550 9150 2050
Connection ~ 8900 2550
Wire Wire Line
	9400 2550 9400 2050
Connection ~ 9150 2550
$Comp
L CP1 C215
U 1 1 56802718
P 4250 1900
F 0 "C215" H 4300 2000 50  0000 L CNN
F 1 "220u" H 4300 1800 50  0000 L CNN
F 2 "MyKiCadLibs-Footprints:CAP-TH-D8mmP3.5mm" H 4250 1900 60  0001 C CNN
F 3 "" H 4250 1900 60  0000 C CNN
	1    4250 1900
	1    0    0    -1  
$EndComp
$Comp
L CP1 C201
U 1 1 56802B0A
P 2300 1900
F 0 "C201" H 2350 2000 50  0000 L CNN
F 1 "220u" H 2350 1800 50  0000 L CNN
F 2 "MyKiCadLibs-Footprints:CAP-TH-D8mmP3.5mm" H 2300 1900 60  0001 C CNN
F 3 "" H 2300 1900 60  0000 C CNN
	1    2300 1900
	1    0    0    -1  
$EndComp
Wire Wire Line
	3850 5850 8000 5850
$Comp
L GNDD #PWR08
U 1 1 56858FEE
P 3150 5800
F 0 "#PWR08" H 3150 5550 50  0001 C CNN
F 1 "GNDD" H 3150 5650 50  0000 C CNN
F 2 "" H 3150 5800 60  0000 C CNN
F 3 "" H 3150 5800 60  0000 C CNN
	1    3150 5800
	1    0    0    -1  
$EndComp
Wire Wire Line
	3150 5800 3150 5700
Wire Wire Line
	3150 5300 3150 5100
Connection ~ 3150 5100
$Comp
L C C218
U 1 1 5685A4D9
P 4550 1900
F 0 "C218" H 4550 2000 40  0000 L CNN
F 1 "22u" H 4556 1815 40  0000 L CNN
F 2 "MyKiCadLibs-Footprints:SMD-0805" H 4588 1750 30  0001 C CNN
F 3 "" H 4550 1900 60  0000 C CNN
	1    4550 1900
	1    0    0    -1  
$EndComp
Wire Wire Line
	4550 1300 4550 1700
Connection ~ 4550 1300
Wire Wire Line
	4550 2100 4550 2550
Connection ~ 4550 2550
$Comp
L C C203
U 1 1 5685B4D7
P 2650 1900
F 0 "C203" H 2650 2000 40  0000 L CNN
F 1 "22u" H 2656 1815 40  0000 L CNN
F 2 "MyKiCadLibs-Footprints:SMD-0805" H 2688 1750 30  0001 C CNN
F 3 "" H 2650 1900 60  0000 C CNN
	1    2650 1900
	1    0    0    -1  
$EndComp
Wire Wire Line
	2650 1700 2650 1300
Wire Wire Line
	2650 2100 2650 2550
Connection ~ 2650 1300
Connection ~ 2650 2550
Text Notes 850  6850 0    60   ~ 0
Mounting Holes
$Comp
L VDD #PWR09
U 1 1 568EF6C1
P 7700 5050
F 0 "#PWR09" H 7700 4900 50  0001 C CNN
F 1 "VDD" H 7700 5200 50  0000 C CNN
F 2 "" H 7700 5050 50  0000 C CNN
F 3 "" H 7700 5050 50  0000 C CNN
	1    7700 5050
	1    0    0    -1  
$EndComp
$Comp
L INDUCTOR L203
U 1 1 568F3FD4
P 3600 4300
F 0 "L203" V 3550 4300 40  0000 C CNN
F 1 "600R@100MHz" V 3700 4300 40  0000 C CNN
F 2 "MyKiCadLibs-Footprints:SMD-0805" H 3600 4300 60  0001 C CNN
F 3 "" H 3600 4300 60  0000 C CNN
	1    3600 4300
	0    -1   -1   0   
$EndComp
$Comp
L R R203
U 1 1 568F3FDB
P 4050 3450
F 0 "R203" V 3970 3450 40  0000 C CNN
F 1 "47R" V 4057 3451 40  0000 C CNN
F 2 "MyKiCadLibs-Footprints:SMD-0805" V 3980 3450 30  0001 C CNN
F 3 "" H 4050 3450 30  0000 C CNN
	1    4050 3450
	1    0    0    -1  
$EndComp
$Comp
L C C213
U 1 1 568F3FE2
P 4050 4000
F 0 "C213" H 4050 4100 40  0000 L CNN
F 1 "100p" H 4056 3915 40  0000 L CNN
F 2 "MyKiCadLibs-Footprints:SMD-0805" H 4088 3850 30  0001 C CNN
F 3 "" H 4050 4000 60  0000 C CNN
	1    4050 4000
	-1   0    0    -1  
$EndComp
$Comp
L C C206
U 1 1 568F3FE9
P 2900 3650
F 0 "C206" H 2900 3750 40  0000 L CNN
F 1 "100n" H 2906 3565 40  0000 L CNN
F 2 "MyKiCadLibs-Footprints:SMD-0805" H 2938 3500 30  0001 C CNN
F 3 "" H 2900 3650 60  0000 C CNN
	1    2900 3650
	1    0    0    -1  
$EndComp
$Comp
L C C209
U 1 1 568F3FF0
P 3150 3650
F 0 "C209" H 3150 3750 40  0000 L CNN
F 1 "10n" H 3156 3565 40  0000 L CNN
F 2 "MyKiCadLibs-Footprints:SMD-0805" H 3188 3500 30  0001 C CNN
F 3 "" H 3150 3650 60  0000 C CNN
	1    3150 3650
	1    0    0    -1  
$EndComp
$Comp
L C C221
U 1 1 568F3FFE
P 5000 3650
F 0 "C221" H 5000 3750 40  0000 L CNN
F 1 "100n" H 5006 3565 40  0000 L CNN
F 2 "MyKiCadLibs-Footprints:SMD-0805" H 5038 3500 30  0001 C CNN
F 3 "" H 5000 3650 60  0000 C CNN
	1    5000 3650
	1    0    0    -1  
$EndComp
$Comp
L DIODE D203
U 1 1 568F4005
P 2000 4300
F 0 "D203" H 2000 4400 40  0000 C CNN
F 1 "SS14" H 2000 4200 40  0000 C CNN
F 2 "MyKiCadLibs-Footprints:DIODE-SOD-123" H 2000 4300 60  0001 C CNN
F 3 "" H 2000 4300 60  0000 C CNN
	1    2000 4300
	-1   0    0    1   
$EndComp
$Comp
L C C223
U 1 1 568F400C
P 5250 3650
F 0 "C223" H 5250 3750 40  0000 L CNN
F 1 "10n" H 5256 3565 40  0000 L CNN
F 2 "MyKiCadLibs-Footprints:SMD-0805" H 5288 3500 30  0001 C CNN
F 3 "" H 5250 3650 60  0000 C CNN
	1    5250 3650
	1    0    0    -1  
$EndComp
Connection ~ 5000 4300
Wire Wire Line
	5000 4300 5000 3850
Connection ~ 4400 4300
Wire Wire Line
	4400 4300 4400 3850
Connection ~ 4400 3050
Wire Wire Line
	5000 3050 5000 3450
Wire Wire Line
	4400 3050 4400 3450
Wire Wire Line
	1700 3050 5650 3050
Wire Wire Line
	1700 4000 1700 3050
Wire Wire Line
	1500 4000 1700 4000
Wire Wire Line
	1700 4100 1700 4300
Wire Wire Line
	1500 4100 1700 4100
Wire Wire Line
	4050 4300 4050 4200
Wire Wire Line
	4050 3200 4050 3050
Connection ~ 4050 3050
Connection ~ 4050 4300
Connection ~ 5000 3050
Wire Wire Line
	2900 4300 2900 3850
Wire Wire Line
	2300 4300 2300 3850
Wire Wire Line
	2900 3050 2900 3450
Wire Wire Line
	2300 3050 2300 3450
Wire Wire Line
	3150 4300 3150 3850
Wire Wire Line
	3150 3050 3150 3450
Connection ~ 2300 4300
Connection ~ 2900 4300
Connection ~ 3150 4300
Connection ~ 2300 3050
Connection ~ 2900 3050
Connection ~ 3150 3050
Wire Wire Line
	5250 3050 5250 3450
Connection ~ 5250 3050
Wire Wire Line
	5250 4300 5250 3850
Connection ~ 5250 4300
$Comp
L CP1 C217
U 1 1 568F4039
P 4400 3650
F 0 "C217" H 4450 3750 50  0000 L CNN
F 1 "220u" H 4450 3550 50  0000 L CNN
F 2 "MyKiCadLibs-Footprints:CAP-TH-D8mmP3.5mm" H 4400 3650 60  0001 C CNN
F 3 "" H 4400 3650 60  0000 C CNN
	1    4400 3650
	1    0    0    -1  
$EndComp
$Comp
L CP1 C202
U 1 1 568F4040
P 2300 3650
F 0 "C202" H 2350 3750 50  0000 L CNN
F 1 "220u" H 2350 3550 50  0000 L CNN
F 2 "MyKiCadLibs-Footprints:CAP-TH-D8mmP3.5mm" H 2300 3650 60  0001 C CNN
F 3 "" H 2300 3650 60  0000 C CNN
	1    2300 3650
	1    0    0    -1  
$EndComp
Wire Wire Line
	2200 4300 3300 4300
Wire Wire Line
	1700 4300 1800 4300
$Comp
L CONN_2x1 P204
U 1 1 568F404A
P 1500 4000
F 0 "P204" V 1995 3845 40  0000 C CNN
F 1 "CONN_2x1" V 1940 3960 40  0000 C CNN
F 2 "MyKiCadLibs-Footprints:CONN-2WAY-2.54mm-3.81mm-SPACING" H 1840 3890 60  0001 C CNN
F 3 "" H 1840 3890 60  0000 C CNN
	1    1500 4000
	-1   0    0    -1  
$EndComp
$Comp
L GNDA #PWR010
U 1 1 568F4051
P 5650 3125
F 0 "#PWR010" H 5650 2875 50  0001 C CNN
F 1 "GNDA" H 5650 2975 50  0000 C CNN
F 2 "" H 5650 3125 60  0000 C CNN
F 3 "" H 5650 3125 60  0000 C CNN
	1    5650 3125
	1    0    0    -1  
$EndComp
Wire Wire Line
	5650 3050 5650 3125
Wire Wire Line
	4050 3800 4050 3700
$Comp
L C C219
U 1 1 568F4065
P 4750 3650
F 0 "C219" H 4750 3750 40  0000 L CNN
F 1 "22u" H 4756 3565 40  0000 L CNN
F 2 "MyKiCadLibs-Footprints:SMD-0805" H 4788 3500 30  0001 C CNN
F 3 "" H 4750 3650 60  0000 C CNN
	1    4750 3650
	1    0    0    -1  
$EndComp
Wire Wire Line
	4750 3450 4750 3050
Wire Wire Line
	4750 4300 4750 3850
Connection ~ 4750 3050
Connection ~ 4750 4300
$Comp
L C C204
U 1 1 568F4079
P 2650 3650
F 0 "C204" H 2650 3750 40  0000 L CNN
F 1 "22u" H 2656 3565 40  0000 L CNN
F 2 "MyKiCadLibs-Footprints:SMD-0805" H 2688 3500 30  0001 C CNN
F 3 "" H 2650 3650 60  0000 C CNN
	1    2650 3650
	1    0    0    -1  
$EndComp
Wire Wire Line
	2650 3450 2650 3050
Wire Wire Line
	2650 3850 2650 4300
Connection ~ 2650 4300
Connection ~ 2650 3050
$Comp
L PWR_FLAG #FLG011
U 1 1 568FA0B6
P 7350 5050
F 0 "#FLG011" H 7350 5145 50  0001 C CNN
F 1 "PWR_FLAG" H 7350 5230 50  0000 C CNN
F 2 "" H 7350 5050 60  0000 C CNN
F 3 "" H 7350 5050 60  0000 C CNN
	1    7350 5050
	1    0    0    -1  
$EndComp
Wire Wire Line
	7350 5050 7350 5100
Connection ~ 7350 5100
$Comp
L PWR_FLAG #FLG012
U 1 1 568FA343
P 5350 4450
F 0 "#FLG012" H 5350 4545 50  0001 C CNN
F 1 "PWR_FLAG" H 5350 4630 50  0000 C CNN
F 2 "" H 5350 4450 60  0000 C CNN
F 3 "" H 5350 4450 60  0000 C CNN
	1    5350 4450
	-1   0    0    1   
$EndComp
Wire Wire Line
	5350 4300 5350 4450
Connection ~ 5350 4300
$Comp
L +9VA #PWR013
U 1 1 568FA834
P 5700 1200
F 0 "#PWR013" H 5700 1075 50  0001 C CNN
F 1 "+9VA" H 5700 1350 50  0000 C CNN
F 2 "" H 5700 1200 50  0000 C CNN
F 3 "" H 5700 1200 50  0000 C CNN
	1    5700 1200
	1    0    0    -1  
$EndComp
$Comp
L -9VA #PWR014
U 1 1 568FA8D6
P 5650 4400
F 0 "#PWR014" H 5650 4275 50  0001 C CNN
F 1 "-9VA" H 5650 4550 50  0000 C CNN
F 2 "" H 5650 4400 50  0000 C CNN
F 3 "" H 5650 4400 50  0000 C CNN
	1    5650 4400
	-1   0    0    1   
$EndComp
Wire Wire Line
	3900 4300 5650 4300
Wire Wire Line
	5650 4300 5650 4400
Wire Wire Line
	5700 1300 5700 1200
$Comp
L C C227
U 1 1 568EB07D
P 6250 1900
F 0 "C227" H 6250 2000 40  0000 L CNN
F 1 "100n" H 6256 1815 40  0000 L CNN
F 2 "MyKiCadLibs-Footprints:SMD-0805" H 6288 1750 30  0001 C CNN
F 3 "" H 6250 1900 60  0000 C CNN
	1    6250 1900
	1    0    0    -1  
$EndComp
$Comp
L C C226
U 1 1 568EB083
P 6000 1900
F 0 "C226" H 6000 2000 40  0000 L CNN
F 1 "22u" H 6006 1815 40  0000 L CNN
F 2 "MyKiCadLibs-Footprints:SMD-0805" H 6038 1750 30  0001 C CNN
F 3 "" H 6000 1900 60  0000 C CNN
	1    6000 1900
	1    0    0    -1  
$EndComp
Wire Wire Line
	6000 2100 6000 2550
Connection ~ 6000 2550
Wire Wire Line
	6250 2100 6250 2550
Connection ~ 6250 2550
Wire Wire Line
	6000 1100 6000 1700
Connection ~ 6000 1300
Wire Wire Line
	6250 1300 6250 1700
Connection ~ 6250 1300
$Comp
L DIODE D204
U 1 1 568ED64D
P 6000 4800
F 0 "D204" H 6000 4900 40  0000 C CNN
F 1 "SS14" H 6000 4700 40  0000 C CNN
F 2 "MyKiCadLibs-Footprints:DIODE-SOD-123" H 6000 4800 60  0001 C CNN
F 3 "" H 6000 4800 60  0000 C CNN
	1    6000 4800
	-1   0    0    1   
$EndComp
Wire Wire Line
	6200 4800 6450 4800
Wire Wire Line
	6450 4800 6450 5100
Connection ~ 6450 5100
Wire Wire Line
	5800 4800 4500 4800
Wire Wire Line
	4500 4800 4500 5100
Connection ~ 4500 5100
$Comp
L DIODE D206
U 1 1 568EE12E
P 8000 5450
F 0 "D206" H 8000 5550 40  0000 C CNN
F 1 "SS14" H 8000 5350 40  0000 C CNN
F 2 "MyKiCadLibs-Footprints:DIODE-SOD-123" H 8000 5450 60  0001 C CNN
F 3 "" H 8000 5450 60  0000 C CNN
	1    8000 5450
	0    -1   -1   0   
$EndComp
Wire Wire Line
	8000 5250 8000 5150
Wire Wire Line
	8000 5150 7700 5150
Connection ~ 7700 5150
Wire Wire Line
	8000 5650 8000 5900
Connection ~ 7700 5850
$Comp
L DIODE D207
U 1 1 568EE952
P 9700 1850
F 0 "D207" H 9700 1950 40  0000 C CNN
F 1 "SS14" H 9700 1750 40  0000 C CNN
F 2 "MyKiCadLibs-Footprints:DIODE-SOD-123" H 9700 1850 60  0001 C CNN
F 3 "" H 9700 1850 60  0000 C CNN
	1    9700 1850
	0    -1   -1   0   
$EndComp
$Comp
L DIODE D205
U 1 1 568EEA52
P 7600 1000
F 0 "D205" H 7600 1100 40  0000 C CNN
F 1 "SS14" H 7600 900 40  0000 C CNN
F 2 "MyKiCadLibs-Footprints:DIODE-SOD-123" H 7600 1000 60  0001 C CNN
F 3 "" H 7600 1000 60  0000 C CNN
	1    7600 1000
	-1   0    0    1   
$EndComp
Wire Wire Line
	7400 1000 6150 1000
Wire Wire Line
	6150 1000 6150 1300
Connection ~ 6150 1300
Wire Wire Line
	7800 1000 8050 1000
Wire Wire Line
	8050 1000 8050 1300
Connection ~ 8050 1300
Wire Wire Line
	9700 2550 9700 2050
Connection ~ 9400 2550
Wire Wire Line
	9400 1650 9400 1300
Connection ~ 9400 1300
$Comp
L LED D208
U 1 1 56960868
P 8550 5750
F 0 "D208" H 8550 5850 50  0000 C CNN
F 1 "LED" H 8550 5650 50  0000 C CNN
F 2 "MyKiCadLibs-Footprints:SMD-0805" H 8550 5750 60  0001 C CNN
F 3 "" H 8550 5750 60  0000 C CNN
	1    8550 5750
	0    1    1    0   
$EndComp
$Comp
L R R209
U 1 1 5696086F
P 8550 5200
F 0 "R209" V 8500 4850 40  0000 C CNN
F 1 "470R" V 8557 5201 40  0000 C CNN
F 2 "MyKiCadLibs-Footprints:SMD-0805" V 8480 5200 30  0001 C CNN
F 3 "~" H 8550 5200 30  0000 C CNN
	1    8550 5200
	-1   0    0    1   
$EndComp
Wire Wire Line
	8550 5450 8550 5550
Wire Wire Line
	8550 4700 8550 4950
$Comp
L VDD #PWR015
U 1 1 5696105A
P 8550 4700
F 0 "#PWR015" H 8550 4550 50  0001 C CNN
F 1 "VDD" H 8550 4850 50  0000 C CNN
F 2 "" H 8550 4700 50  0000 C CNN
F 3 "" H 8550 4700 50  0000 C CNN
	1    8550 4700
	1    0    0    -1  
$EndComp
$Comp
L GNDD #PWR016
U 1 1 56961551
P 8550 6050
F 0 "#PWR016" H 8550 5800 50  0001 C CNN
F 1 "GNDD" H 8550 5900 50  0000 C CNN
F 2 "" H 8550 6050 60  0000 C CNN
F 3 "" H 8550 6050 60  0000 C CNN
	1    8550 6050
	1    0    0    -1  
$EndComp
Wire Wire Line
	8550 6050 8550 5950
$Comp
L GNDA #PWR017
U 1 1 56961D2B
P 8000 5900
F 0 "#PWR017" H 8000 5650 50  0001 C CNN
F 1 "GNDA" H 8000 5750 50  0000 C CNN
F 2 "" H 8000 5900 60  0000 C CNN
F 3 "" H 8000 5900 60  0000 C CNN
	1    8000 5900
	1    0    0    -1  
$EndComp
$Comp
L GNDD #PWR018
U 1 1 562EAB2F
P 3850 5900
F 0 "#PWR018" H 3850 5650 50  0001 C CNN
F 1 "GNDD" H 3850 5750 50  0000 C CNN
F 2 "" H 3850 5900 60  0000 C CNN
F 3 "" H 3850 5900 60  0000 C CNN
	1    3850 5900
	1    0    0    -1  
$EndComp
Connection ~ 8000 5850
Connection ~ 8600 1500
Wire Wire Line
	3850 1300 5700 1300
Wire Wire Line
	6000 1300 6500 1300
$Comp
L VCC #PWR019
U 1 1 56969AD3
P 2450 1200
F 0 "#PWR019" H 2450 1050 50  0001 C CNN
F 1 "VCC" H 2450 1350 50  0000 C CNN
F 2 "" H 2450 1200 50  0000 C CNN
F 3 "" H 2450 1200 50  0000 C CNN
	1    2450 1200
	1    0    0    -1  
$EndComp
Wire Wire Line
	2450 1200 2450 1300
Connection ~ 2450 1300
$Comp
L PWR_FLAG #FLG020
U 1 1 56969F4B
P 2750 1200
F 0 "#FLG020" H 2750 1295 50  0001 C CNN
F 1 "PWR_FLAG" H 2750 1380 50  0000 C CNN
F 2 "" H 2750 1200 60  0000 C CNN
F 3 "" H 2750 1200 60  0000 C CNN
	1    2750 1200
	1    0    0    -1  
$EndComp
Wire Wire Line
	2750 1200 2750 1300
Connection ~ 2750 1300
$Comp
L VCC #PWR021
U 1 1 5696A703
P 6000 1100
F 0 "#PWR021" H 6000 950 50  0001 C CNN
F 1 "VCC" H 6000 1250 50  0000 C CNN
F 2 "" H 6000 1100 50  0000 C CNN
F 3 "" H 6000 1100 50  0000 C CNN
	1    6000 1100
	1    0    0    -1  
$EndComp
$Comp
L VDD #PWR022
U 1 1 56978BA6
P 9050 5000
F 0 "#PWR022" H 9050 4850 50  0001 C CNN
F 1 "VDD" H 9050 5150 50  0000 C CNN
F 2 "" H 9050 5000 50  0000 C CNN
F 3 "" H 9050 5000 50  0000 C CNN
	1    9050 5000
	1    0    0    -1  
$EndComp
$Comp
L GNDA #PWR023
U 1 1 56978C65
P 9050 5800
F 0 "#PWR023" H 9050 5550 50  0001 C CNN
F 1 "GNDA" H 9050 5650 50  0000 C CNN
F 2 "" H 9050 5800 60  0000 C CNN
F 3 "" H 9050 5800 60  0000 C CNN
	1    9050 5800
	1    0    0    -1  
$EndComp
$Comp
L C C225
U 1 1 56978DBC
P 9300 5400
F 0 "C225" H 9300 5500 40  0000 L CNN
F 1 "100n" H 9306 5315 40  0000 L CNN
F 2 "MyKiCadLibs-Footprints:SMD-0805" H 9338 5250 30  0001 C CNN
F 3 "" H 9300 5400 60  0000 C CNN
	1    9300 5400
	1    0    0    -1  
$EndComp
$Comp
L C C224
U 1 1 56978DC2
P 9050 5400
F 0 "C224" H 9050 5500 40  0000 L CNN
F 1 "10u" H 9056 5315 40  0000 L CNN
F 2 "MyKiCadLibs-Footprints:SMD-0805" H 9088 5250 30  0001 C CNN
F 3 "" H 9050 5400 60  0000 C CNN
	1    9050 5400
	1    0    0    -1  
$EndComp
Wire Wire Line
	9050 5600 9050 5800
Wire Wire Line
	9050 5000 9050 5200
Wire Wire Line
	9300 5200 9300 5100
Wire Wire Line
	9300 5100 9050 5100
Connection ~ 9050 5100
Wire Wire Line
	9300 5600 9300 5700
Wire Wire Line
	9300 5700 9050 5700
Connection ~ 9050 5700
$Comp
L VDD #PWR024
U 1 1 5697A018
P 9600 5000
F 0 "#PWR024" H 9600 4850 50  0001 C CNN
F 1 "VDD" H 9600 5150 50  0000 C CNN
F 2 "" H 9600 5000 50  0000 C CNN
F 3 "" H 9600 5000 50  0000 C CNN
	1    9600 5000
	1    0    0    -1  
$EndComp
$Comp
L GNDA #PWR025
U 1 1 5697A01E
P 9600 5800
F 0 "#PWR025" H 9600 5550 50  0001 C CNN
F 1 "GNDA" H 9600 5650 50  0000 C CNN
F 2 "" H 9600 5800 60  0000 C CNN
F 3 "" H 9600 5800 60  0000 C CNN
	1    9600 5800
	1    0    0    -1  
$EndComp
$Comp
L C C236
U 1 1 5697A024
P 9850 5400
F 0 "C236" H 9850 5500 40  0000 L CNN
F 1 "100n" H 9856 5315 40  0000 L CNN
F 2 "MyKiCadLibs-Footprints:SMD-0805" H 9888 5250 30  0001 C CNN
F 3 "" H 9850 5400 60  0000 C CNN
	1    9850 5400
	1    0    0    -1  
$EndComp
$Comp
L C C235
U 1 1 5697A02A
P 9600 5400
F 0 "C235" H 9600 5500 40  0000 L CNN
F 1 "10u" H 9606 5315 40  0000 L CNN
F 2 "MyKiCadLibs-Footprints:SMD-0805" H 9638 5250 30  0001 C CNN
F 3 "" H 9600 5400 60  0000 C CNN
	1    9600 5400
	1    0    0    -1  
$EndComp
Wire Wire Line
	9600 5600 9600 5800
Wire Wire Line
	9600 5000 9600 5200
Wire Wire Line
	9850 5200 9850 5100
Wire Wire Line
	9600 5100 10200 5100
Connection ~ 9600 5100
Wire Wire Line
	9850 5600 9850 5700
Wire Wire Line
	9600 5700 10200 5700
Connection ~ 9600 5700
$Comp
L C C237
U 1 1 5698013E
P 10200 5400
F 0 "C237" H 10200 5500 40  0000 L CNN
F 1 "100n" H 10206 5315 40  0000 L CNN
F 2 "MyKiCadLibs-Footprints:SMD-0805" H 10238 5250 30  0001 C CNN
F 3 "" H 10200 5400 60  0000 C CNN
	1    10200 5400
	1    0    0    -1  
$EndComp
Wire Wire Line
	10200 5100 10200 5200
Connection ~ 9850 5100
Wire Wire Line
	10200 5700 10200 5600
Connection ~ 9850 5700
$Comp
L CP1 C238
U 1 1 56982041
P 6900 5500
F 0 "C238" H 6950 5600 50  0000 L CNN
F 1 "220u" H 6950 5400 50  0000 L CNN
F 2 "MyKiCadLibs-Footprints:CAP-TH-D6.3mmP2.5mm" H 6900 5500 60  0001 C CNN
F 3 "" H 6900 5500 60  0000 C CNN
	1    6900 5500
	1    0    0    -1  
$EndComp
Wire Wire Line
	6900 5100 6900 5300
Connection ~ 6900 5100
Connection ~ 6900 5200
Wire Wire Line
	6900 5700 6900 5850
Connection ~ 6900 5850
$Comp
L PWR_FLAG #FLG026
U 1 1 56A2E1B7
P 4900 5950
F 0 "#FLG026" H 4900 6045 50  0001 C CNN
F 1 "PWR_FLAG" H 4900 6130 50  0000 C CNN
F 2 "" H 4900 5950 60  0000 C CNN
F 3 "" H 4900 5950 60  0000 C CNN
	1    4900 5950
	-1   0    0    1   
$EndComp
Wire Wire Line
	4900 5850 4900 5950
Connection ~ 4900 5850
Text Notes 1100 900  0    118  ~ 0
Analogue Supplies
Text Notes 1100 4800 0    118  ~ 0
Digital Supply
Text Notes 8950 1200 0    60   ~ 0
5V Output
Text Notes 6600 5000 0    60   ~ 0
3V3 Output
Text Notes 1100 2100 0    60   ~ 0
+9V Input
Text Notes 1100 3850 0    60   ~ 0
-9V Input
Text Notes 1100 5400 0    60   ~ 0
5V Input
Wire Wire Line
	5300 5400 5300 5850
$Comp
L MNT_HOLE MNT201
U 1 1 56DF43BA
P 1000 7050
F 0 "MNT201" H 1000 7150 60  0000 C CNN
F 1 "MNT_HOLE" H 1000 7150 60  0001 C CNN
F 2 "MyKiCadLibs-Footprints:MNT_HOLE_3.2mm" H 1000 7150 60  0001 C CNN
F 3 "" H 1000 7150 60  0000 C CNN
	1    1000 7050
	1    0    0    -1  
$EndComp
$Comp
L MNT_HOLE MNT203
U 1 1 56DF47AB
P 1450 7050
F 0 "MNT203" H 1450 7150 60  0000 C CNN
F 1 "MNT_HOLE" H 1450 7150 60  0001 C CNN
F 2 "MyKiCadLibs-Footprints:MNT_HOLE_3.2mm" H 1450 7150 60  0001 C CNN
F 3 "" H 1450 7150 60  0000 C CNN
	1    1450 7050
	1    0    0    -1  
$EndComp
$Comp
L MNT_HOLE MNT204
U 1 1 56DF4891
P 1450 7300
F 0 "MNT204" H 1450 7400 60  0000 C CNN
F 1 "MNT_HOLE" H 1450 7400 60  0001 C CNN
F 2 "MyKiCadLibs-Footprints:MNT_HOLE_3.2mm" H 1450 7400 60  0001 C CNN
F 3 "" H 1450 7400 60  0000 C CNN
	1    1450 7300
	1    0    0    -1  
$EndComp
$Comp
L MNT_HOLE MNT202
U 1 1 56DF4978
P 1000 7300
F 0 "MNT202" H 1000 7400 60  0000 C CNN
F 1 "MNT_HOLE" H 1000 7400 60  0001 C CNN
F 2 "MyKiCadLibs-Footprints:MNT_HOLE_3.2mm" H 1000 7400 60  0001 C CNN
F 3 "" H 1000 7400 60  0000 C CNN
	1    1000 7300
	1    0    0    -1  
$EndComp
$Comp
L MNT_HOLE FID1
U 1 1 56EBC8A5
P 1950 7050
F 0 "FID1" H 1950 7150 60  0000 C CNN
F 1 "MNT_HOLE" H 1950 7150 60  0001 C CNN
F 2 "MyKiCadLibs-Footprints:FID-1MM-3MM" H 1950 7150 60  0001 C CNN
F 3 "" H 1950 7150 60  0000 C CNN
	1    1950 7050
	-1   0    0    -1  
$EndComp
$Comp
L MNT_HOLE FID2
U 1 1 56EBCAAB
P 2350 7050
F 0 "FID2" H 2350 7150 60  0000 C CNN
F 1 "MNT_HOLE" H 2350 7150 60  0001 C CNN
F 2 "MyKiCadLibs-Footprints:FID-1MM-3MM" H 2350 7150 60  0001 C CNN
F 3 "" H 2350 7150 60  0000 C CNN
	1    2350 7050
	-1   0    0    -1  
$EndComp
$Comp
L MNT_HOLE FID3
U 1 1 56EBCB97
P 1950 7300
F 0 "FID3" H 1950 7400 60  0000 C CNN
F 1 "MNT_HOLE" H 1950 7400 60  0001 C CNN
F 2 "MyKiCadLibs-Footprints:FID-1MM-3MM" H 1950 7400 60  0001 C CNN
F 3 "" H 1950 7400 60  0000 C CNN
	1    1950 7300
	-1   0    0    -1  
$EndComp
$Comp
L MNT_HOLE FID4
U 1 1 56EBCC88
P 2350 7300
F 0 "FID4" H 2350 7400 60  0000 C CNN
F 1 "MNT_HOLE" H 2350 7400 60  0001 C CNN
F 2 "MyKiCadLibs-Footprints:FID-1MM-3MM" H 2350 7400 60  0001 C CNN
F 3 "" H 2350 7400 60  0000 C CNN
	1    2350 7300
	-1   0    0    -1  
$EndComp
Connection ~ 5300 5850
$Comp
L IC-REG-TLV1117LV U201
U 1 1 56EAD77A
P 4850 5100
F 0 "U201" H 5100 5350 60  0000 C CNN
F 1 "TLV1117LV33DCY" H 5350 5250 60  0000 C CNN
F 2 "MyKiCadLibs-Footprints:IC-SOT-223" H 4850 5100 60  0001 C CNN
F 3 "" H 4850 5100 60  0000 C CNN
	1    4850 5100
	1    0    0    -1  
$EndComp
Text Notes 1100 4900 0    60   ~ 0
Maximum input 5V5
$EndSCHEMATC
